{
  "rewards": {
    "function": "killfeed:shot/fish/cod"
  },
  "criteria": {
    "kill": {
      "trigger": "minecraft:player_killed_entity",
      "conditions": {
        "entity": {
          "type": "cod"
        },
        "killing_blow": {
          "is_projectile": "true"
        }
      }
    }
  }
}