{
  "type":"crafting_shapeless",
  "group":"dyeing",

  "ingredients":
  [
    {"tag":"terracotta_colors:not_white"},
    {"tag":"dyes:white"}

  ],
  "result": {"item": "minecraft:white_terracotta"}
}
