{
  "type": "minecraft:crafting_shaped",
  "group": "decoration",
  "pattern": [
    "~",
    "=",
    "="
  ],
  "key": {
    "=": {"item": "minecraft:cobblestone_slab"},
    "~": {"item": "minecraft:vine"}
  },
  "result": {
    "item": "minecraft:mossy_cobblestone"
  }
}
