{
  "type": "minecraft:crafting_shaped",
  "group": "arrows",
  "pattern": [
    "///",
    "###"
  ],
  "key": {
    "/": {"item": "minecraft:arrow"},
    "#": {"item": "minecraft:glowstone"}
  },
  "result": {
    "item": "minecraft:spectral_arrow",
    "count": 6
  }
}
