{
  "type": "minecraft:crafting_shaped",
  "group": "food",
  "pattern": [
    "=#=",
    "=#=",
    " = "
  ],
  "key": {
    "=": {"item":"minecraft:iron_ingot"},
    "#": {"tag": "minecraft:logs"}
  },
  "result": {
    "item": "minecraft:hopper"
  }
}
