{
  "type": "minecraft:crafting_shaped",
  "group": "work_stations",
  "pattern": [
    "=",
    "=",
    "#"
  ],
  "key": {
    "#": {"tag": "minecraft:logs"},
    "=": {"item": "minecraft:iron_ingot"}
  },
  "result": {
    "item": "minecraft:smithing_table"
  }
}
