{
  "type": "minecraft:crafting_shaped",
  "group": "redstone",
  "pattern": [
    " + ",
    "///",
    "###"
  ],
  "key": {
    "+": {"item": "minecraft:iron_block"},
    "/": {"item": "minecraft:stick"},
    "#": {"tag": "minecraft:logs"}
  },
  "result": {
    "item": "minecraft:tripwire_hook",
    "count": 18
  }
}
