{
  "type": "minecraft:crafting_shaped",
  "group": "transportation",
  "pattern": [
    "#",
    "-",
    "#"
  ],
  "key": {
    "-": {"item": "minecraft:tripwire_hook"},
    "#": {"tag": "minecraft:logs"}
  },
  "result": {
    "item": "minecraft:trapped_chest"
  }
}
