{
  "type": "minecraft:crafting_shaped",
  "group": "transportation",
  "pattern": [
    "# #",
    "###",
    "# #"
  ],
  "key": {
    "#": {"tag": "minecraft:planks"}
  },
  "result": {
    "item": "minecraft:ladder",
    "count": 6
  }
}
