{
    "criteria": {
        "inventory_changed": {
            "trigger": "minecraft:brewed_potion",
            "conditions": {
                "potion": "minecraft:invisibility"
            }
        }
    },
    "rewards": {
        "function": "tcc:items/quest_book/rogue/trigger/03"
    },
    "parent": "tcc:technical/root"
}