{
  "type": "minecraft:crafting_shaped",
  "pattern": [
    "##"
  ],
  "key": {
    "#": [
      {
        "item": "minecraft:purpur_block"
      },
      {
        "item": "minecraft:purpur_pillar"
      }
    ]
  },
  "result": {
    "item": "minecraft:purpur_slab",
    "count": 4
  }
}