{
    "pools": [
        {
            "rolls": 1,
            "entries": [
              {
                  "type": "item",
                  "weight": 1,
                  "name": "minecraft:repeating_command_block",
                  "functions": [
                        {
                           "function": "copy_nbt",
                           "source": "this",
                           "ops": [
                               {
                                   "source": "Inventory[{Slot:-106b}].tag.Enchantments",
                                   "target": "Enchantments",
                                   "op": "replace"
                               },
                               {
                                   "source": "Inventory[{Slot:-106b}].tag.tcc.Charms",
                                   "target": "tcc.Charms",
                                   "op": "replace"
                               },
                               {
                                   "source": "Inventory[{Slot:-106b}].tag.tcc.Hexes",
                                   "target": "tcc.Hexes",
                                   "op": "replace"
                               },
                               {
                                   "source": "Inventory[{Slot:-106b}].tag.tcc.Tags",
                                   "target": "tcc.Tags",
                                   "op": "replace"
                               },
                               {
                                   "source": "Inventory[{Slot:-106b}].tag.HideFlags",
                                   "target": "HideFlags",
                                   "op": "replace"
                               },
                               {
                                   "source": "Inventory[{Slot:-106b}].tag.Damage",
                                   "target": "Damage",
                                   "op": "replace"
                               },
                               {
                                   "source": "Inventory[{Slot:-106b}].tag.Unbreakable",
                                   "target": "Unbreakable",
                                   "op": "replace"
                               },
                               {
                                   "source": "Inventory[{Slot:-106b}].tag.AttributeModifiers",
                                   "target": "AttributeModifiers",
                                   "op": "replace"
                               },
                               {
                                   "source": "Inventory[{Slot:-106b}].tag.display.Lore[-14]",
                                   "target": "display.Lore",
                                   "op": "append"
                               },
                               {
                                   "source": "Inventory[{Slot:-106b}].tag.display.Lore[-13]",
                                   "target": "display.Lore",
                                   "op": "append"
                               },
                               {
                                   "source": "Inventory[{Slot:-106b}].tag.display.Lore[-12]",
                                   "target": "display.Lore",
                                   "op": "append"
                               },
                               {
                                   "source": "Inventory[{Slot:-106b}].tag.display.Lore[-11]",
                                   "target": "display.Lore",
                                   "op": "append"
                               },
                               {
                                   "source": "Inventory[{Slot:-106b}].tag.display.Lore[-10]",
                                   "target": "display.Lore",
                                   "op": "append"
                               },
                               {
                                   "source": "Inventory[{Slot:-106b}].tag.display.Lore[-9]",
                                   "target": "display.Lore",
                                   "op": "append"
                               },
                               {
                                   "source": "Inventory[{Slot:-106b}].tag.display.Lore[-8]",
                                   "target": "display.Lore",
                                   "op": "append"
                               },
                               {
                                   "source": "Inventory[{Slot:-106b}].tag.display.Lore[-7]",
                                   "target": "display.Lore",
                                   "op": "append"
                               },
                               {
                                   "source": "Inventory[{Slot:-106b}].tag.display.Lore[-6]",
                                   "target": "display.Lore",
                                   "op": "append"
                               },
                               {
                                   "source": "Inventory[{Slot:-106b}].tag.display.Lore[-5]",
                                   "target": "display.Lore",
                                   "op": "append"
                               },
                               {
                                   "source": "Inventory[{Slot:-106b}].tag.display.Lore[-4]",
                                   "target": "display.Lore",
                                   "op": "append"
                               }
                        	],
                    		"conditions":[
                        		{
                           			"condition": "inverted",
                           			"term": {
                        				"condition": "entity_properties",
                        				"entity": "this",
                        				"predicate": {
                        					"nbt":"{Inventory:[{Slot:-106b,tag:{tcc:{Potion:\"minecraft:strong_turtle_master\"}}}]}"
                        				}
                        			}
                        		},
                        		{
                           			"condition": "inverted",
                           			"term": {
                        				"condition": "entity_properties",
                        				"entity": "this",
                        				"predicate": {
                        					"nbt":"{Inventory:[{Slot:-106b,tag:{tcc:{Potion:\"minecraft:turtle_master\"}}}]}"
                        				}
                        			}
                        		},
                        		{
                           			"condition": "inverted",
                           			"term": {
                        				"condition": "entity_properties",
                        				"entity": "this",
                        				"predicate": {
                        					"nbt":"{Inventory:[{Slot:-106b,tag:{tcc:{Potion:\"minecraft:long_turtle_master\"}}}]}"
                        				}
                        			}
                        		}
                        	]
                        },
                        {
                           "function": "copy_nbt",
                           "source": "this",
                           "ops": [
                               {
                                   "source": "Inventory[{Slot:-106b}].tag.display.Name",
                                   "target": "display.Name",
                                   "op": "replace"
                               }
                        	],
                    		"conditions":[
                    			{
                        			"condition": "entity_properties",
                        			"entity": "this",
                        			"predicate": {
                        				"nbt":"{Inventory:[{Slot:-106b,tag:{tcc:{Durability:1}}}]}"
                        			}
                        		},
                        		{"condition": "inverted","term": {"condition": "entity_properties","entity": "this","predicate": {"nbt":"{Inventory:[{Slot:-106b,tag:{display:{Name:\"{\\\"translate\\\":\\\"item.tcc.potion_items.effect.minecraft.swiftness\\\",\\\"italic\\\":\\\"false\\\",\\\"with\\\":[{\\\"translate\\\":\\\"item.tcc.iron_ring\\\"}]}\"}}}]}"}}},
                        		{"condition": "inverted","term": {"condition": "entity_properties","entity": "this","predicate": {"nbt":"{Inventory:[{Slot:-106b,tag:{display:{Name:\"{\\\"translate\\\":\\\"item.tcc.potion_items.effect.minecraft.slowness\\\",\\\"italic\\\":\\\"false\\\",\\\"with\\\":[{\\\"translate\\\":\\\"item.tcc.iron_ring\\\"}]}\"}}}]}"}}},
                        		{"condition": "inverted","term": {"condition": "entity_properties","entity": "this","predicate": {"nbt":"{Inventory:[{Slot:-106b,tag:{display:{Name:\"{\\\"translate\\\":\\\"item.tcc.potion_items.effect.minecraft.haste\\\",\\\"italic\\\":\\\"false\\\",\\\"with\\\":[{\\\"translate\\\":\\\"item.tcc.iron_ring\\\"}]}\"}}}]}"}}},
                        		{"condition": "inverted","term": {"condition": "entity_properties","entity": "this","predicate": {"nbt":"{Inventory:[{Slot:-106b,tag:{display:{Name:\"{\\\"translate\\\":\\\"item.tcc.potion_items.effect.minecraft.mining_fatigue\\\",\\\"italic\\\":\\\"false\\\",\\\"with\\\":[{\\\"translate\\\":\\\"item.tcc.iron_ring\\\"}]}\"}}}]}"}}},
                        		{"condition": "inverted","term": {"condition": "entity_properties","entity": "this","predicate": {"nbt":"{Inventory:[{Slot:-106b,tag:{display:{Name:\"{\\\"translate\\\":\\\"item.tcc.potion_items.effect.minecraft.strength\\\",\\\"italic\\\":\\\"false\\\",\\\"with\\\":[{\\\"translate\\\":\\\"item.tcc.iron_ring\\\"}]}\"}}}]}"}}},
                        		{"condition": "inverted","term": {"condition": "entity_properties","entity": "this","predicate": {"nbt":"{Inventory:[{Slot:-106b,tag:{display:{Name:\"{\\\"translate\\\":\\\"item.tcc.potion_items.effect.minecraft.leaping\\\",\\\"italic\\\":\\\"false\\\",\\\"with\\\":[{\\\"translate\\\":\\\"item.tcc.iron_ring\\\"}]}\"}}}]}"}}},
                        		{"condition": "inverted","term": {"condition": "entity_properties","entity": "this","predicate": {"nbt":"{Inventory:[{Slot:-106b,tag:{display:{Name:\"{\\\"translate\\\":\\\"item.tcc.potion_items.effect.minecraft.nausea\\\",\\\"italic\\\":\\\"false\\\",\\\"with\\\":[{\\\"translate\\\":\\\"item.tcc.iron_ring\\\"}]}\"}}}]}"}}},
                        		{"condition": "inverted","term": {"condition": "entity_properties","entity": "this","predicate": {"nbt":"{Inventory:[{Slot:-106b,tag:{display:{Name:\"{\\\"translate\\\":\\\"item.tcc.potion_items.effect.minecraft.regeneration\\\",\\\"italic\\\":\\\"false\\\",\\\"with\\\":[{\\\"translate\\\":\\\"item.tcc.iron_ring\\\"}]}\"}}}]}"}}},
                        		{"condition": "inverted","term": {"condition": "entity_properties","entity": "this","predicate": {"nbt":"{Inventory:[{Slot:-106b,tag:{display:{Name:\"{\\\"translate\\\":\\\"item.tcc.potion_items.effect.minecraft.resistance\\\",\\\"italic\\\":\\\"false\\\",\\\"with\\\":[{\\\"translate\\\":\\\"item.tcc.iron_ring\\\"}]}\"}}}]}"}}},
                        		{"condition": "inverted","term": {"condition": "entity_properties","entity": "this","predicate": {"nbt":"{Inventory:[{Slot:-106b,tag:{display:{Name:\"{\\\"translate\\\":\\\"item.tcc.potion_items.effect.minecraft.fire_resistance\\\",\\\"italic\\\":\\\"false\\\",\\\"with\\\":[{\\\"translate\\\":\\\"item.tcc.iron_ring\\\"}]}\"}}}]}"}}},
                        		{"condition": "inverted","term": {"condition": "entity_properties","entity": "this","predicate": {"nbt":"{Inventory:[{Slot:-106b,tag:{display:{Name:\"{\\\"translate\\\":\\\"item.tcc.potion_items.effect.minecraft.water_breathing\\\",\\\"italic\\\":\\\"false\\\",\\\"with\\\":[{\\\"translate\\\":\\\"item.tcc.iron_ring\\\"}]}\"}}}]}"}}},
                        		{"condition": "inverted","term": {"condition": "entity_properties","entity": "this","predicate": {"nbt":"{Inventory:[{Slot:-106b,tag:{display:{Name:\"{\\\"translate\\\":\\\"item.tcc.potion_items.effect.minecraft.invisibility\\\",\\\"italic\\\":\\\"false\\\",\\\"with\\\":[{\\\"translate\\\":\\\"item.tcc.iron_ring\\\"}]}\"}}}]}"}}},
                        		{"condition": "inverted","term": {"condition": "entity_properties","entity": "this","predicate": {"nbt":"{Inventory:[{Slot:-106b,tag:{display:{Name:\"{\\\"translate\\\":\\\"item.tcc.potion_items.effect.minecraft.blindness\\\",\\\"italic\\\":\\\"false\\\",\\\"with\\\":[{\\\"translate\\\":\\\"item.tcc.iron_ring\\\"}]}\"}}}]}"}}},
                        		{"condition": "inverted","term": {"condition": "entity_properties","entity": "this","predicate": {"nbt":"{Inventory:[{Slot:-106b,tag:{display:{Name:\"{\\\"translate\\\":\\\"item.tcc.potion_items.effect.minecraft.night_vision\\\",\\\"italic\\\":\\\"false\\\",\\\"with\\\":[{\\\"translate\\\":\\\"item.tcc.iron_ring\\\"}]}\"}}}]}"}}},
                        		{"condition": "inverted","term": {"condition": "entity_properties","entity": "this","predicate": {"nbt":"{Inventory:[{Slot:-106b,tag:{display:{Name:\"{\\\"translate\\\":\\\"item.tcc.potion_items.effect.minecraft.hunger\\\",\\\"italic\\\":\\\"false\\\",\\\"with\\\":[{\\\"translate\\\":\\\"item.tcc.iron_ring\\\"}]}\"}}}]}"}}},
                        		{"condition": "inverted","term": {"condition": "entity_properties","entity": "this","predicate": {"nbt":"{Inventory:[{Slot:-106b,tag:{display:{Name:\"{\\\"translate\\\":\\\"item.tcc.potion_items.effect.minecraft.weakness\\\",\\\"italic\\\":\\\"false\\\",\\\"with\\\":[{\\\"translate\\\":\\\"item.tcc.iron_ring\\\"}]}\"}}}]}"}}},
                        		{"condition": "inverted","term": {"condition": "entity_properties","entity": "this","predicate": {"nbt":"{Inventory:[{Slot:-106b,tag:{display:{Name:\"{\\\"translate\\\":\\\"item.tcc.potion_items.effect.minecraft.poison\\\",\\\"italic\\\":\\\"false\\\",\\\"with\\\":[{\\\"translate\\\":\\\"item.tcc.iron_ring\\\"}]}\"}}}]}"}}},
                        		{"condition": "inverted","term": {"condition": "entity_properties","entity": "this","predicate": {"nbt":"{Inventory:[{Slot:-106b,tag:{display:{Name:\"{\\\"translate\\\":\\\"item.tcc.potion_items.effect.minecraft.wither\\\",\\\"italic\\\":\\\"false\\\",\\\"with\\\":[{\\\"translate\\\":\\\"item.tcc.iron_ring\\\"}]}\"}}}]}"}}},
                        		{"condition": "inverted","term": {"condition": "entity_properties","entity": "this","predicate": {"nbt":"{Inventory:[{Slot:-106b,tag:{display:{Name:\"{\\\"translate\\\":\\\"item.tcc.potion_items.effect.minecraft.health_boost\\\",\\\"italic\\\":\\\"false\\\",\\\"with\\\":[{\\\"translate\\\":\\\"item.tcc.iron_ring\\\"}]}\"}}}]}"}}},
                        		{"condition": "inverted","term": {"condition": "entity_properties","entity": "this","predicate": {"nbt":"{Inventory:[{Slot:-106b,tag:{display:{Name:\"{\\\"translate\\\":\\\"item.tcc.potion_items.effect.minecraft.absorption\\\",\\\"italic\\\":\\\"false\\\",\\\"with\\\":[{\\\"translate\\\":\\\"item.tcc.iron_ring\\\"}]}\"}}}]}"}}},
                        		{"condition": "inverted","term": {"condition": "entity_properties","entity": "this","predicate": {"nbt":"{Inventory:[{Slot:-106b,tag:{display:{Name:\"{\\\"translate\\\":\\\"item.tcc.potion_items.effect.minecraft.glowing\\\",\\\"italic\\\":\\\"false\\\",\\\"with\\\":[{\\\"translate\\\":\\\"item.tcc.iron_ring\\\"}]}\"}}}]}"}}},
                        		{"condition": "inverted","term": {"condition": "entity_properties","entity": "this","predicate": {"nbt":"{Inventory:[{Slot:-106b,tag:{display:{Name:\"{\\\"translate\\\":\\\"item.tcc.potion_items.effect.minecraft.levitation\\\",\\\"italic\\\":\\\"false\\\",\\\"with\\\":[{\\\"translate\\\":\\\"item.tcc.iron_ring\\\"}]}\"}}}]}"}}},
                        		{"condition": "inverted","term": {"condition": "entity_properties","entity": "this","predicate": {"nbt":"{Inventory:[{Slot:-106b,tag:{display:{Name:\"{\\\"translate\\\":\\\"item.tcc.potion_items.effect.minecraft.luck\\\",\\\"italic\\\":\\\"false\\\",\\\"with\\\":[{\\\"translate\\\":\\\"item.tcc.iron_ring\\\"}]}\"}}}]}"}}},
                        		{"condition": "inverted","term": {"condition": "entity_properties","entity": "this","predicate": {"nbt":"{Inventory:[{Slot:-106b,tag:{display:{Name:\"{\\\"translate\\\":\\\"item.tcc.potion_items.effect.minecraft.unluck\\\",\\\"italic\\\":\\\"false\\\",\\\"with\\\":[{\\\"translate\\\":\\\"item.tcc.iron_ring\\\"}]}\"}}}]}"}}},
                        		{"condition": "inverted","term": {"condition": "entity_properties","entity": "this","predicate": {"nbt":"{Inventory:[{Slot:-106b,tag:{display:{Name:\"{\\\"translate\\\":\\\"item.tcc.potion_items.effect.minecraft.turtle_master\\\",\\\"italic\\\":\\\"false\\\",\\\"with\\\":[{\\\"translate\\\":\\\"item.tcc.iron_ring\\\"}]}\"}}}]}"}}},
                        		{"condition": "inverted","term": {"condition": "entity_properties","entity": "this","predicate": {"nbt":"{Inventory:[{Slot:-106b,tag:{display:{Name:\"{\\\"translate\\\":\\\"item.tcc.potion_items.effect.minecraft.healing\\\",\\\"italic\\\":\\\"false\\\",\\\"with\\\":[{\\\"translate\\\":\\\"item.tcc.iron_ring\\\"}]}\"}}}]}"}}},
                        		{"condition": "inverted","term": {"condition": "entity_properties","entity": "this","predicate": {"nbt":"{Inventory:[{Slot:-106b,tag:{display:{Name:\"{\\\"translate\\\":\\\"item.tcc.potion_items.effect.minecraft.harming\\\",\\\"italic\\\":\\\"false\\\",\\\"with\\\":[{\\\"translate\\\":\\\"item.tcc.iron_ring\\\"}]}\"}}}]}"}}},
                        		{"condition": "inverted","term": {"condition": "entity_properties","entity": "this","predicate": {"nbt":"{Inventory:[{Slot:-106b,tag:{display:{Name:\"{\\\"translate\\\":\\\"item.tcc.potion_items.effect.minecraft.saturation\\\",\\\"italic\\\":\\\"false\\\",\\\"with\\\":[{\\\"translate\\\":\\\"item.tcc.iron_ring\\\"}]}\"}}}]}"}}},
                        		{"condition": "inverted","term": {"condition": "entity_properties","entity": "this","predicate": {"nbt":"{Inventory:[{Slot:-106b,tag:{display:{Name:\"{\\\"translate\\\":\\\"item.tcc.potion_items.effect.minecraft.slow_falling\\\",\\\"italic\\\":\\\"false\\\",\\\"with\\\":[{\\\"translate\\\":\\\"item.tcc.iron_ring\\\"}]}\"}}}]}"}}},
                            {"condition": "inverted","term": {"condition": "entity_properties","entity": "this","predicate": {"nbt":"{Inventory:[{Slot:-106b,tag:{display:{Name:\"{\\\"translate\\\":\\\"item.tcc.potion_items.effect.minecraft.dolphins_grace\\\",\\\"italic\\\":\\\"false\\\",\\\"with\\\":[{\\\"translate\\\":\\\"item.tcc.iron_ring\\\"}]}\"}}}]}"}}},
                            {"condition": "inverted","term": {"condition": "entity_properties","entity": "this","predicate": {"nbt":"{Inventory:[{Slot:-106b,tag:{display:{Name:\"{\\\"translate\\\":\\\"item.tcc.potion_items.effect.minecraft.bad_omen\\\",\\\"italic\\\":\\\"false\\\",\\\"with\\\":[{\\\"translate\\\":\\\"item.tcc.iron_ring\\\"}]}\"}}}]}"}}},
                            {"condition": "inverted","term": {"condition": "entity_properties","entity": "this","predicate": {"nbt":"{Inventory:[{Slot:-106b,tag:{display:{Name:\"{\\\"translate\\\":\\\"item.tcc.potion_items.effect.minecraft.conduit_power\\\",\\\"italic\\\":\\\"false\\\",\\\"with\\\":[{\\\"translate\\\":\\\"item.tcc.iron_ring\\\"}]}\"}}}]}"}}}
                        	]
                        },
                        {
                           "function": "copy_nbt",
                           "source": "this",
                           "ops": [
                               {
                                   "source": "Inventory[{Slot:-106b}].tag.Enchantments",
                                   "target": "Enchantments",
                                   "op": "replace"
                               },
                               {
                                   "source": "Inventory[{Slot:-106b}].tag.tcc.Charms",
                                   "target": "tcc.Charms",
                                   "op": "replace"
                               },
                               {
                                   "source": "Inventory[{Slot:-106b}].tag.tcc.Hexes",
                                   "target": "tcc.Hexes",
                                   "op": "replace"
                               },
                               {
                                   "source": "Inventory[{Slot:-106b}].tag.tcc.Tags",
                                   "target": "tcc.Tags",
                                   "op": "replace"
                               },
                               {
                                   "source": "Inventory[{Slot:-106b}].tag.HideFlags",
                                   "target": "HideFlags",
                                   "op": "replace"
                               },
                               {
                                   "source": "Inventory[{Slot:-106b}].tag.AttributeModifiers",
                                   "target": "AttributeModifiers",
                                   "op": "replace"
                               },
                               {
                                   "source": "Inventory[{Slot:-106b}].tag.Damage",
                                   "target": "Damage",
                                   "op": "replace"
                               },
                               {
                                   "source": "Inventory[{Slot:-106b}].tag.Unbreakable",
                                   "target": "Unbreakable",
                                   "op": "replace"
                               },
                               {
                                   "source": "Inventory[{Slot:-106b}].tag.tcc_storage.tipped_swords.Lore",
                                   "target": "display.Lore",
                                   "op": "replace"
                               },
                               {
                                   "source": "Inventory[{Slot:-106b}].tag.display.Lore[-14]",
                                   "target": "display.Lore",
                                   "op": "append"
                               },
                               {
                                   "source": "Inventory[{Slot:-106b}].tag.display.Lore[-13]",
                                   "target": "display.Lore",
                                   "op": "append"
                               },
                               {
                                   "source": "Inventory[{Slot:-106b}].tag.display.Lore[-12]",
                                   "target": "display.Lore",
                                   "op": "append"
                               },
                               {
                                   "source": "Inventory[{Slot:-106b}].tag.display.Lore[-11]",
                                   "target": "display.Lore",
                                   "op": "append"
                               },
                               {
                                   "source": "Inventory[{Slot:-106b}].tag.display.Lore[-10]",
                                   "target": "display.Lore",
                                   "op": "append"
                               },
                               {
                                   "source": "Inventory[{Slot:-106b}].tag.display.Lore[-9]",
                                   "target": "display.Lore",
                                   "op": "append"
                               },
                               {
                                   "source": "Inventory[{Slot:-106b}].tag.display.Lore[-8]",
                                   "target": "display.Lore",
                                   "op": "append"
                               },
                               {
                                   "source": "Inventory[{Slot:-106b}].tag.display.Lore[-7]",
                                   "target": "display.Lore",
                                   "op": "append"
                               },
                               {
                                   "source": "Inventory[{Slot:-106b}].tag.display.Lore[-5]",
                                   "target": "display.Lore",
                                   "op": "append"
                               }
                        	],
                    		"conditions":[
                        		{
                           			"condition": "alternative",
                           			"terms": [
                           				{
                        					"condition": "entity_properties",
                        					"entity": "this",
                        					"predicate": {
                        						"nbt":"{Inventory:[{Slot:-106b,tag:{tcc:{Potion:\"minecraft:turtle_master\"}}}]}"
                        					}
                        				},
                        				{
                        					"condition": "entity_properties",
                        					"entity": "this",
                        					"predicate": {
                        						"nbt":"{Inventory:[{Slot:-106b,tag:{tcc:{Potion:\"minecraft:long_turtle_master\"}}}]}"
                        					}
                        				},
                        				{
                        					"condition": "entity_properties",
                        					"entity": "this",
                        					"predicate": {
                        						"nbt":"{Inventory:[{Slot:-106b,tag:{tcc:{Potion:\"minecraft:strong_turtle_master\"}}}]}"
                        					}
                        				}
                        			]
                        		}
                        	]
                        },
                        {
                           "function": "set_nbt",
                           "tag": "{CustomModelData:0}",
                    		"conditions":[
                        		{
                        			"condition": "entity_properties",
                        			"entity": "this",
                        			"predicate": {
                        				"nbt":"{Inventory:[{Slot:-106b,tag:{CustomModelData:9}}]}"
                        			}
                        		}
                        	]
                        },
                        {
                           "function": "set_nbt",
                           "tag": "{CustomModelData:1}",
                    		"conditions":[
                        		{
                        			"condition": "entity_properties",
                        			"entity": "this",
                        			"predicate": {
                        				"nbt":"{Inventory:[{Slot:-106b,tag:{CustomModelData:14}}]}"
                        			}
                        		}
                        	]
                        },
                        {
                           "function": "set_nbt",
                           "tag": "{CustomModelData:2}",
                    		"conditions":[
                        		{
                        			"condition": "entity_properties",
                        			"entity": "this",
                        			"predicate": {
                        				"nbt":"{Inventory:[{Slot:-106b,tag:{CustomModelData:15}}]}"
                        			}
                        		}
                        	]
                        },
                        {
                           "function": "set_nbt",
                           "tag": "{CustomModelData:3}",
                    		"conditions":[
                        		{
                        			"condition": "entity_properties",
                        			"entity": "this",
                        			"predicate": {
                        				"nbt":"{Inventory:[{Slot:-106b,tag:{CustomModelData:16}}]}"
                        			}
                        		}
                        	]
                        }
                    ]
                }
            ]
        }
    ]
}
