{
 "pools":[
		  {"rolls":1,
		   "entries":[
					  {"type":"minecraft:group",
					   "children":[
								   {
								    "type": "minecraft:loot_table",
								    "name": "decapitation:entities/mooshroom",
								    "weight": 1
								   }
								  ]
					  }				  
					 ]
		  },
		  {"rolls":1,
		   "entries":[
					  {"type":"minecraft:alternatives",
					   "children":[
								   {
								    "type": "minecraft:loot_table",
								    "name": "decapitation:heads/mooshroom/red",
								    "weight": 1,
									"conditions":[
												  {"condition":"minecraft:entity_properties",
												   "entity":"this",
												   "predicate":{
															    "type":"minecraft:mooshroom",
															    "nbt":"{Type:\"red\"}"
															   }
												  } 
											     ]
								   },
								   {
								    "type": "minecraft:loot_table",
								    "name": "decapitation:heads/mooshroom/brown",
								    "weight": 1,
									"conditions":[
												  {"condition":"minecraft:entity_properties",
												   "entity":"this",
												   "predicate":{
															    "type":"minecraft:mooshroom",
															    "nbt":"{Type:\"brown\"}"
															   }
												  } 
											     ]
								   }
								  ]
					  }				  
					 ]
		  }
		 ]
}
