{
 "pools":[
		  {"rolls":1,
		   "entries":[
					  {"type":"minecraft:group",
					   "children":[
								   {
								    "type": "minecraft:loot_table",
								    "name": "decapitation:entities/cat",
								    "weight": 1
								   }
								  ]
					  }				  
					 ]
		  },
		  {"rolls":1,
		   "entries":[
					  {"type":"minecraft:alternatives",
					   "children":[
								   {
								    "type": "minecraft:loot_table",
								    "name": "decapitation:heads/panda/playful",
								    "weight": 1,
									"conditions":[
												  {"condition":"minecraft:entity_properties",
												   "entity":"this",
												   "predicate":{
															    "type":"minecraft:panda",
															    "nbt":"{MainGene:\"playful\"}"
															   }
												  } 
											     ]
								   },
								   {
								    "type": "minecraft:loot_table",
								    "name": "decapitation:heads/panda/aggressive",
								    "weight": 1,
									"conditions":[
												  {"condition":"minecraft:entity_properties",
												   "entity":"this",
												   "predicate":{
															    "type":"minecraft:panda",
															    "nbt":"{MainGene:\"aggressive\"}"
															   }
												  } 
											     ]
								   },
								   {
								    "type": "minecraft:loot_table",
								    "name": "decapitation:heads/panda/weak",
								    "weight": 1,
									"conditions":[
												  {"condition":"minecraft:entity_properties",
												   "entity":"this",
												   "predicate":{
															    "type":"minecraft:panda",
															    "nbt":"{MainGene:\"weak\",HiddenGene:\"weak\"}"
															   }
												  } 
											     ]
								   },
								   {
								    "type": "minecraft:loot_table",
								    "name": "decapitation:heads/panda/brown",
								    "weight": 1,
									"conditions":[
												  {"condition":"minecraft:entity_properties",
												   "entity":"this",
												   "predicate":{
															    "type":"minecraft:panda",
															    "nbt":"{MainGene:\"brown\",HiddenGene:\"brown\"}"
															   }
												  } 
											     ]
								   },
								   {
								    "type": "minecraft:loot_table",
								    "name": "decapitation:heads/panda/worried",
								    "weight": 1,
									"conditions":[
												  {"condition":"minecraft:entity_properties",
												   "entity":"this",
												   "predicate":{
															    "type":"minecraft:panda",
															    "nbt":"{MainGene:\"worried\"}"
															   }
												  } 
											     ]
								   },
								   {
								    "type": "minecraft:loot_table",
								    "name": "decapitation:heads/panda/lazy",
								    "weight": 1,
									"conditions":[
												  {"condition":"minecraft:entity_properties",
												   "entity":"this",
												   "predicate":{
															    "type":"minecraft:panda",
															    "nbt":"{MainGene:\"lazy\"}"
															   }
												  } 
											     ]
								   },
								   {
								    "type": "minecraft:loot_table",
								    "name": "decapitation:heads/panda/normal",
								    "weight": 1
								   }
								  ]
					  }				  
					 ]
		  }
		 ]
}
