{
 "pools":[
		  {"rolls":1,
		   "entries":[
					  {"type":"minecraft:group",
					   "children":[
								   {
								    "type": "minecraft:loot_table",
								    "name": "decapitation:entities/zombie_villager",
								    "weight": 1
								   }
								  ]
					  }				  
					 ]
		  },
		  {"rolls":1,
		   "entries":[
					  {"type":"minecraft:alternatives",
					   "children":[
								   {
								    "type": "minecraft:loot_table",
								    "name": "decapitation:heads/zombie_villager/shepherd",
								    "weight": 1,
									"conditions":[
												  {"condition":"minecraft:entity_properties",
												   "entity":"this",
												   "predicate":{
															    "type":"minecraft:zombie_villager",
															    "nbt":"{VillagerData:{profession:\"minecraft:shepherd\"}}"
															   }
												  } 
											     ]
								   },
								   {
								    "type": "minecraft:loot_table",
								    "name": "decapitation:heads/zombie_villager/nitwit",
								    "weight": 1,
									"conditions":[
												  {"condition":"minecraft:entity_properties",
												   "entity":"this",
												   "predicate":{
															    "type":"minecraft:zombie_villager",
															    "nbt":"{VillagerData:{profession:\"minecraft:nitwit\"}}"
															   }
												  } 
											     ]
								   },
								   {
								    "type": "minecraft:loot_table",
								    "name": "decapitation:heads/zombie_villager/fisherman",
								    "weight": 1,
									"conditions":[
												  {"condition":"minecraft:entity_properties",
												   "entity":"this",
												   "predicate":{
															    "type":"minecraft:zombie_villager",
															    "nbt":"{VillagerData:{profession:\"minecraft:fisherman\"}}"
															   }
												  } 
											     ]
								   },
								   {
								    "type": "minecraft:loot_table",
								    "name": "decapitation:heads/zombie_villager/farmer",
								    "weight": 1,
									"conditions":[
												  {"condition":"minecraft:entity_properties",
												   "entity":"this",
												   "predicate":{
															    "type":"minecraft:zombie_villager",
															    "nbt":"{VillagerData:{profession:\"minecraft:farmer\"}}"
															   }
												  } 
											     ]
								   },
								   {
								    "type": "minecraft:loot_table",
								    "name": "decapitation:heads/zombie_villager/butcher",
								    "weight": 1,
									"conditions":[
												  {"condition":"minecraft:entity_properties",
												   "entity":"this",
												   "predicate":{
															    "type":"minecraft:zombie_villager",
															    "nbt":"{VillagerData:{profession:\"minecraft:butcher\"}}"
															   }
												  } 
											     ]
								   },
								   {
								    "type": "minecraft:loot_table",
								    "name": "decapitation:heads/zombie_villager/cleric",
								    "weight": 1,
									"conditions":[
												  {"condition":"minecraft:entity_properties",
												   "entity":"this",
												   "predicate":{
															    "type":"minecraft:zombie_villager",
															    "nbt":"{VillagerData:{profession:\"minecraft:cleric\"}}"
															   }
												  } 
											     ]
								   },
								   {
								    "type": "minecraft:loot_table",
								    "name": "decapitation:heads/zombie_villager/fletcher",
								    "weight": 1,
									"conditions":[
												  {"condition":"minecraft:entity_properties",
												   "entity":"this",
												   "predicate":{
															    "type":"minecraft:zombie_villager",
															    "nbt":"{VillagerData:{profession:\"minecraft:fletcher\"}}"
															   }
												  } 
											     ]
								   },
								   {
								    "type": "minecraft:loot_table",
								    "name": "decapitation:heads/zombie_villager/cartographer",
								    "weight": 1,
									"conditions":[
												  {"condition":"minecraft:entity_properties",
												   "entity":"this",
												   "predicate":{
															    "type":"minecraft:zombie_villager",
															    "nbt":"{VillagerData:{profession:\"minecraft:cartographer\"}}"
															   }
												  } 
											     ]
								   },
								   {
								    "type": "minecraft:loot_table",
								    "name": "decapitation:heads/zombie_villager/armorer",
								    "weight": 1,
									"conditions":[
												  {"condition":"minecraft:entity_properties",
												   "entity":"this",
												   "predicate":{
															    "type":"minecraft:zombie_villager",
															    "nbt":"{VillagerData:{profession:\"minecraft:armorer\"}}"
															   }
												  } 
											     ]
								   },
								   {
								    "type": "minecraft:loot_table",
								    "name": "decapitation:heads/zombie_villager/weaponsmith",
								    "weight": 1,
									"conditions":[
												  {"condition":"minecraft:entity_properties",
												   "entity":"this",
												   "predicate":{
															    "type":"minecraft:zombie_villager",
															    "nbt":"{VillagerData:{profession:\"minecraft:weaponsmith\"}}"
															   }
												  } 
											     ]
								   },
								   {
								    "type": "minecraft:loot_table",
								    "name": "decapitation:heads/zombie_villager/toolsmith",
								    "weight": 1,
									"conditions":[
												  {"condition":"minecraft:entity_properties",
												   "entity":"this",
												   "predicate":{
															    "type":"minecraft:zombie_villager",
															    "nbt":"{VillagerData:{profession:\"minecraft:toolsmith\"}}"
															   }
												  } 
											     ]
								   },
								   {
								    "type": "minecraft:loot_table",
								    "name": "decapitation:heads/zombie_villager/leatherworker",
								    "weight": 1,
									"conditions":[
												  {"condition":"minecraft:entity_properties",
												   "entity":"this",
												   "predicate":{
															    "type":"minecraft:zombie_villager",
															    "nbt":"{VillagerData:{profession:\"minecraft:leatherworker\"}}"
															   }
												  } 
											     ]
								   },
								   {
								    "type": "minecraft:loot_table",
								    "name": "decapitation:heads/zombie_villager/mason",
								    "weight": 1,
									"conditions":[
												  {"condition":"minecraft:entity_properties",
												   "entity":"this",
												   "predicate":{
															    "type":"minecraft:zombie_villager",
															    "nbt":"{VillagerData:{profession:\"minecraft:mason\"}}"
															   }
												  } 
											     ]
								   },
								   {
								    "type": "minecraft:loot_table",
								    "name": "decapitation:heads/zombie_villager/librarian",
								    "weight": 1,
									"conditions":[
												  {"condition":"minecraft:entity_properties",
												   "entity":"this",
												   "predicate":{
															    "type":"minecraft:zombie_villager",
															    "nbt":"{VillagerData:{profession:\"minecraft:librarian\"}}"
															   }
												  } 
											     ]
								   },
								   {
								    "type": "minecraft:loot_table",
								    "name": "decapitation:heads/zombie_villager/none",
								    "weight": 1,
									"conditions":[
												  {"condition":"minecraft:entity_properties",
												   "entity":"this",
												   "predicate":{
															    "type":"minecraft:zombie_villager",
															    "nbt":"{VillagerData:{profession:\"minecraft:none\"}}"
															   }
												  } 
											     ]
								   }
								  ]
					  }				  
					 ]
		  }
		 ]
}
