{
  "type": "minecraft:crafting_shaped",
  "group": "bark",
  "pattern": [
    "##",
    "##"
  ],
  "key": {
    "#": {
      "tag": "minecraft:birch_logs"
    }
  },
  "result": {
    "item": "minecraft:birch_wood",
    "count": 4
  }
}