{
  "type": "crafting_shaped",
  "group": "arrow",
  "pattern": [
    " # ",
    " S ",
    " F "
  ],
  "key": {
    "#": {
      "item": "minecraft:iron_nugget"
    },
    "S": {
      "item": "minecraft:stick"
    },
    "F": {
      "item": "minecraft:feather"
    }
  },
  "result": {
    "item": "minecraft:arrow",
    "count": 8
  }
}