{
  "type": "crafting_shaped",
  "pattern": [
    "# #",
    "# #"
  ],
  "key": {
    "#": {
      "item": "minecraft:repeating_command_block"
    }
  },
  "result": {
    "item": "minecraft:chainmail_boots"
  }
}