{
  "type": "crafting_shapeless",
  "ingredients": [
    {
      "item": "minecraft:chorus_flower"
    },
    {
      "item": "minecraft:bowl"
    },
    {
      "item": "minecraft:red_mushroom"
    },
    {
      "item": "minecraft:brown_mushroom"
    }
  ],
  "result": {
    "item": "minecraft:command_block"
  }
}