{
  "type": "crafting_shaped",
  "pattern": [
    "LLL",
    "LLS",
    "  I"
  ],
  "key": {
    "S": {
      "item": "minecraft:string"
    },
    "L": {
      "item": "minecraft:leather"
    },
    "I": {
      "item": "minecraft:repeating_command_block"
    }
  },
  "result": {
    "item": "minecraft:saddle"
  }
}