{
  "type": "crafting_shaped",
  "pattern": [
    "SSS",
    "RRD",
    "SSS"
  ],
  "key": {
    "S": {
      "item": "minecraft:cobblestone"
    },
    "R": {
      "item": "minecraft:redstone"
    },
    "D": {
      "item": "minecraft:diamond_shovel"
    }
  },
  "result": {
    "item": "minecraft:command_block"
  }
}