{
  "values": [
    "#minecraft:flowers",
    "#minecraft:saplings",
    "#default_dispenser_configurators:crops",
    "#default_dispenser_configurators:fungus",
    "minecraft:sugar_cane",
    "minecraft:bamboo",
    "minecraft:kelp",
    "minecraft:nether_wart",
    "minecraft:chorus_flower",
    "minecraft:sea_pickle",
    "minecraft:grass",
    "minecraft:tall_grass",
    "minecraft:fern",
    "minecraft:large_fern",
    "minecraft:vine",
    "minecraft:weeping_vines",
    "minecraft:twisting_vines"
  ]
}