{
  "parent": "minecraft:story/smelt_iron",
  "display": {
    "icon": {
      "item": "minecraft:repeating_command_block"
    },
    "title": {
      "translate": "advancements.tcc.minecraft.story.iron_ring.title"
    },
    "description": {
      "translate": "advancements.tcc.minecraft.story.iron_ring.description"
    },
    "frame": "task",
    "show_toast": true,
    "announce_to_chat": true,
    "hidden": false
  },
  "criteria": {
    "iron_ring": {
      "trigger": "minecraft:inventory_changed",
      "conditions": {
        "items": [
          {
            "item": "minecraft:repeating_command_block"
          }
        ]
      }
    }
  },
  "requirements": [
    [
      "iron_ring"
    ]
  ]
}