{
    "display": {
        "icon": {
            "item": "minecraft:chain_command_block"
        },
        "title": {
            "translate": "advancements.tcc.minecraft.story.obsidian_shard.title"
        },
        "description": {
            "translate": "advancements.tcc.minecraft.story.obsidian_shard.description"
        },
        "show_toast": true,
        "announce_to_chat": true,
        "frame": "task"
    },
    "parent": "minecraft:story/form_obsidian",
    "criteria": {
        "wrench": {
            "trigger": "minecraft:inventory_changed",
            "conditions": {
                "items": [
                    {
                        "item": "minecraft:chain_command_block"
                    }
                ]
            }
        }
    }
}
