{
    "display": {
        "icon": {
            "item": "minecraft:carrot_on_a_stick",
            "nbt": "{CustomModelData:8}"
        },
        "title": {
            "translate": "advancements.tcc.minecraft.story.wrench.title"
        },
        "description": {
            "translate": "advancements.tcc.minecraft.story.wrench.description"
        },
        "frame": "task"
    },
    "parent": "minecraft:story/smelt_iron",
    "criteria": {
        "wrench": {
            "trigger": "minecraft:inventory_changed",
            "conditions": {
                "items": [
                    {
                        "nbt": "{tcc:{Item:\"wrench\"}}"
                    }
                ]
            }
        }
    }
}