{
	"rewards": {
		"function": "killfeed:shot/illager/vex"
	},
	"criteria": {
		"kill": {
			"trigger": "minecraft:player_killed_entity",
			"conditions": {
				"entity": {
					"type": "vex"
				},
				"killing_blow": {
					"is_projectile": "true"
				}
			}
		}
	}
}