{
  "replace": false,
  "values": [
    "minecraft:armor_stand",
    "minecraft:painting",
    "minecraft:area_effect_cloud",
    "minecraft:item",
    "minecraft:item_frame",
    "minecraft:fishing_bobber",
    "minecraft:arrow",
    "minecraft:chest_minecart",
    "minecraft:minecart",
    "minecraft:furnace_minecart",
    "minecraft:command_block_minecart",
    "minecraft:egg",
    "minecraft:fireball",
    "minecraft:dragon_fireball",
    "minecraft:ender_pearl",
    "minecraft:end_crystal",
    "minecraft:evoker_fangs",
    "minecraft:eye_of_ender",
    "minecraft:falling_block",
    "minecraft:firework_rocket",
    "minecraft:hopper_minecart",
    "minecraft:leash_knot",
    "minecraft:llama_spit",
    "minecraft:potion",
    "minecraft:shulker_bullet",
    "minecraft:small_fireball",
    "minecraft:snowball",
    "minecraft:spawner_minecart",
    "minecraft:spectral_arrow",
    "minecraft:tnt",
    "minecraft:tnt_minecart",
    "minecraft:trident",
    "minecraft:wither_skull",
    "minecraft:experience_bottle",
    "minecraft:experience_orb",
    "minecraft:boat"
  ]
}
