{
  "type": "minecraft:crafting_shaped",
  "group": "food",
  "pattern": [
    "##",
    "##",
    "##"
  ],
  "key": {
    "#": {"tag":"minecraft:acacia_logs"}
  },
  "result": {
    "item": "minecraft:acacia_door",
    "count": 12
  }
}
