{
  "type": "minecraft:crafting_shaped",
  "group": "decoration",
  "pattern": [
    "##",
    "##"
  ],
  "key": {
    "#": {"item": "minecraft:andesite_stairs"}
  },
  "result": {
    "item": "minecraft:polished_andesite_stairs",
    "count": 4
  }
}
