{
  "type": "minecraft:crafting_shaped",
  "group": "food",
  "pattern": [
    "# #",
    " # "
  ],
  "key": {
    "#": {"item":"minecraft:iron_block"}
  },
  "result": {
    "item": "minecraft:bucket",
    "count": 9
  }
}
