{
  "type": "minecraft:crafting_shaped",
  "group": "wrok_stations",
  "pattern": [
    "# #",
    "###"
  ],
  "key": {
    "#": {"item":"minecraft:iron_block"}
  },
  "result": {
    "item": "minecraft:minecart",
    "count": 9
  }
}
