{
  "type": "minecraft:crafting_shapeless",
  "group": "decoration",
  "ingredients": [
    {"tag": "minecraft:wool"},
    {"tag": "minecraft:logs"}
  ],
  "result": {
    "item": "minecraft:painting"
  }
}
