{
  "type": "minecraft:crafting_shaped",
  "group": "decoration",
  "pattern": [
    " # ",
    " # ",
    "=#="
  ],
  "key": {
    "#": {"tag": "minecraft:logs"},
    "=": {"item": "minecraft:smooth_stone"}
  },
  "result": {
    "item": "minecraft:armor_stand",
    "count": 4
  }
}
