{
  "type": "minecraft:crafting_shaped",
  "group": "work_stations",
  "pattern": [
    "# #",
    "# #",
    "###"
  ],
  "key": {
    "#": {"tag": "minecraft:logs"}
  },
  "result": {
    "item": "minecraft:composter",
    "count": 8
  }
}
