{
  "type": "minecraft:crafting_shaped",
  "group": "transportation",
  "pattern": [
    "###",
    "#u#",
    "###"
  ],
  "key": {
    "#": {"item": "minecraft:cobblestone"},
    "u": {"item": "minecraft:minecart"}
  },
  "result": {
    "item": "minecraft:minecart_with_funace"
  }
}
