{
  "type": "minecraft:crafting_shaped",
  "group": "redstone",
  "pattern": [
    "^^^",
    " = ",
    "###"
  ],
  "key": {
    "^": {"item": "minecraft:redstone"},
    "|": {"tag": "minecraft:planks"},
    "#": {"item": "minecraft:stone"}
  },
  "result": {
    "item": "minecraft:repeater"
  }
}
