{
  "parent": "tcc:minecraft/husbandry/peculiar_berries",
  "display": {
    "icon": {
      "item": "minecraft:creeper_spawn_egg"
    },
    "title": {
      "translate": "advancements.tcc.minecraft.husbandry.creeper_spawn_egg.title"
    },
    "description": {
      "translate": "advancements.tcc.minecraft.husbandry.creeper_spawn_egg.description"
    },
    "frame": "task",
    "show_toast": true,
    "announce_to_chat": true,
    "hidden": false
  },
  "criteria": {
    "creeper_spawn_egg": {
      "trigger": "minecraft:inventory_changed",
      "conditions": {
        "items": [
          {
            "item": "minecraft:creeper_spawn_egg"
          }
        ]
      }
    }
  },
  "requirements": [
    [
      "creeper_spawn_egg"
    ]
  ]
}