{
  "type": "minecraft:crafting_shaped",
  "pattern": [
    " * ",
    " =*",
    "=  "
  ],
  "key": {
    "=": {
      "item": "minecraft:iron_ingot"
    },
	"*": {
		"item": "minecraft:iron_nugget"
	}
  },
  "result": {
    "item": "minecraft:cactus",
	"data": {
		"IsCactusWrench": true,
		"display": {
			"Name":"{\"text\": \"Wrench\"}"
		}
	}
  }
}