{
	"replace": false,
	"values": [
		"minecraft:bat",
		"minecraft:blaze",
		"minecraft:cat",
		"minecraft:cave_spider",
		"minecraft:chicken",
		"minecraft:cod",
		"minecraft:cow",
		"minecraft:creeper",
		"minecraft:dolphin",
		"minecraft:donkey",
		"minecraft:elder_guardian",
		"minecraft:ender_dragon",
		"minecraft:enderman",
		"minecraft:endermite",
		"minecraft:evoker",
		"minecraft:fox",
		"minecraft:ghast",
		"minecraft:giant",
		"minecraft:guardian",
		"minecraft:horse",
		"minecraft:illusioner",
		"minecraft:iron_golem",
		"minecraft:llama",
		"minecraft:magma_cube",
		"minecraft:mooshroom",
		"minecraft:mule",
		"minecraft:ocelot",
		"minecraft:panda",
		"minecraft:parrot",
		"minecraft:pig",
		"minecraft:pillager",
		"minecraft:polar_bear",
		"minecraft:pufferfish",
		"minecraft:rabbit",
		"minecraft:ravager",
		"minecraft:salmon",
		"minecraft:sheep",
		"minecraft:shulker",
		"minecraft:silverfish",
		"minecraft:slime",
		"minecraft:snow_golem",
		"minecraft:spider",
		"minecraft:squid",
		"minecraft:trader_llama",
		"minecraft:tropical_fish",
		"minecraft:turtle",
		"minecraft:vex",
		"minecraft:villager",
		"minecraft:vindicator",
		"minecraft:wandering_trader",
		"minecraft:witch",
		"minecraft:wolf"
	]
}