{
  "type":"crafting_shapeless",
  "group":"dyeing",

  "ingredients":
  [
    {"tag":"shulker_box_colors:not_green"},
    {"tag":"dyes:green"}

  ],
  "result": {"item": "minecraft:green_shulker_box"}
}
