{
  "type":"crafting_shapeless",
  "group":"dyeing",

  "ingredients":
  [
    {"tag":"shulker_box_colors:not_light_blue"},
    {"tag":"dyes:light_blue"}

  ],
  "result": {"item": "minecraft:light_blue_shulker_box"}
}
