{
  "type":"crafting_shapeless",
  "group":"dyeing",

  "ingredients":
  [
    {"tag":"shulker_box_colors:not_orage"},
    {"tag":"dyes:orage"}

  ],
  "result": {"item": "minecraft:orage_shulker_box"}
}
