{
  "type":"crafting_shapeless",
  "group":"dyeing",

  "ingredients":
  [
    {"tag":"shulker_box_colors:not_pink"},
    {"tag":"dyes:pink"}

  ],
  "result": {"item": "minecraft:pink_shulker_box"}
}
