{
  "type":"crafting_shaped",
  "group":"dyeing",

  "pattern":
  [
      "III",
      "IDI",
      "III"
  ],
  "key":
  {
    "I": {"tag":"glass_pane_colors:not_light_gray"},
    "D": {"tag":"dyes:light_gray"}
  },
  "result":
  {
    "item": "minecraft:light_gray_stained_glass_pane",
    "count": 8
  }
}
