{
    "type": "crafting_shaped",
	"group": "pressure_plate",
    "pattern": [
        "   ",
        "   ",
        " LL"
    ],
    "key": {
		"L": {
            "item": "minecraft:acacia_log"
        }
    },
    "result": {
        "item": "minecraft:acacia_pressure_plate",
        "count": 4
    }
}