{
    "type": "crafting_shaped",
	"group": "barrel",
    "pattern": [
        "PSP",
        "P P",
        "PSP"
    ],
    "key": {
        "P": {
            "tag": "minecraft:planks"
        },
		"S": {
            "tag": "minecraft:wooden_slabs"
        }
    },
    "result": {
        "item": "minecraft:barrel",
        "count": 1
    }
}