{
    "type": "crafting_shaped",
	"group": "birch_sign",
    "pattern": [
        "LLL",
        "LLL",
        " PP"
    ],
    "key": {
        "L": {
            "tag": "minecraft:birch_logs"
        },
		"P": {
            "tag": "minecraft:planks"
        }
    },
    "result": {
        "item": "minecraft:birch_sign",
        "count": 12
    }
}