{
    "type": "crafting_shaped",
	"group": "wooden_slab",
    "pattern": [
        "   ",
        "   ",
        "PPP"
    ],
    "key": {
		"P": {
            "item": "minecraft:birch_planks"
        }
    },
    "result": {
        "item": "minecraft:birch_slab",
        "count": 6
    }
}