{
    "type": "crafting_shapeless",
    "ingredients": [
        {
            "item": "minecraft:leather"
        },
        {
            "tag": "paint:paper_and_sugar_cane"
        },
		{
            "tag": "paint:paper_and_sugar_cane"
        },
		{
            "tag": "paint:paper_and_sugar_cane"
        }
    ],
    "result": {
        "item": "minecraft:book",
        "count": 1
    }
}