{
    "type": "crafting_shaped",
	"group": "bowl",
    "pattern": [
        "   ",
        "L L",
        " L "
    ],
    "key": {
        "L": {
            "tag": "minecraft:logs"
        }
    },
    "result": {
        "item": "minecraft:bowl",
        "count": 16
    }
}