{
    "type": "crafting_shapeless",
	"group": "bread",
    "ingredients": [
        {
            "item": "minecraft:hay_block"
        },
		{
            "item": "minecraft:hay_block"
        },
		{
            "item": "minecraft:hay_block"
        }
    ],
    "result": {
        "item": "minecraft:bread",
        "count": 9
    }
}