{
    "type": "crafting_shaped",
	"group": "cartography_table",
    "pattern": [
        "pp ",
        "PP ",
        "   "
    ],
    "key": {
        "p": {
            "tag": "paint:paper_and_sugar_cane"
        },
		"P": {
            "tag": "minecraft:planks"
        }
    },
    "result": {
        "item": "minecraft:cartography_table",
        "count": 1
    }
}