{
    "type": "crafting_shaped",
	"group": "chest_minecart",
    "pattern": [
        "PPP",
        "PmP",
        "PPP"
    ],
    "key": {
        "P": {
            "tag": "minecraft:planks"
        },
		"m": {
            "item": "minecraft:minecart"
        }
    },
    "result": {
        "item": "minecraft:chest_minecart",
        "count": 1
    }
}