{
    "type": "crafting_shaped",
	"group": "chest",
    "pattern": [
        "PPP",
        "P P",
        "PPP"
    ],
    "key": {
        "P": {
            "tag": "minecraft:planks"
        }
    },
    "result": {
        "item": "minecraft:chest",
        "count": 1
    }
}