{
    "type": "crafting_shaped",
	"group": "chest_minecart",
    "pattern": [
        "   ",
        "iCi",
        "iii"
    ],
    "key": {
        "i": {
            "item": "minecraft:iron_ingot"
        },
		"C": {
            "tag": "paint:chest_and_trapped_chest"
        }
    },
    "result": {
        "item": "minecraft:chest_minecart",
        "count": 1
    }
}