{
    "type": "crafting_shaped",
	"group": "chest_minecart",
    "pattern": [
        " L ",
        " L ",
        " m "
    ],
    "key": {
		"L": {
            "tag": "minecraft:logs"
        },
        "m": {
            "item": "minecraft:minecart"
        }
    },
    "result": {
        "item": "minecraft:chest_minecart",
        "count": 1
    }
}