{
    "type": "crafting_shaped",
	"group": "chiseled_quartz",
    "pattern": [
        " qq",
        "   ",
        " qq"
    ],
    "key": {
        "q": {
            "item": "minecraft:quartz"
        }
    },
    "result": {
        "item": "minecraft:chiseled_quartz_block",
        "count": 1
    }
}