{
    "type": "crafting_shaped",
	"group": "chiseled_sandstone",
    "pattern": [
        "   ",
        "  _",
        "  _"
    ],
    "key": {
        "_": {
            "item": "minecraft:sandstone_slab"
        }
    },
    "result": {
        "item": "minecraft:chiseled_sandstone",
        "count": 1
    }
}