{
    "type": "stonecutting",
	"group": "cobblestone_slab",
    "ingredient":
        {
            "item": "minecraft:cobblestone_stairs"
        },
    "result": "minecraft:cobblestone_slab",
	"count": 1
}