{
    "type": "crafting_shaped",
	"group": "cut_sandstone_slab",
    "pattern": [
        "   ",
        " SS",
        " SS"
    ],
    "key": {
		"S": {
            "item": "minecraft:sandstone_slab"
        }
    },
    "result": {
        "item": "minecraft:cut_sandstone_slab",
        "count": 4
    }
}