{
    "type": "crafting_shapeless",
	"group": "dispenser",
    "ingredients": [
        {
            "item": "minecraft:bow"
        },
        {
            "item": "minecraft:dropper"
        }
    ],
    "result": {
        "item": "minecraft:dispenser",
        "count": 1
    }
}