{
    "type": "crafting_shapeless",
	"group": "eye_of_ender",
    "ingredients": [
        {
            "item": "minecraft:blaze_rod"
        },
        {
            "item": "minecraft:ender_pearl"
        },
		{
            "item": "minecraft:ender_pearl"
        }
    ],
    "result": {
        "item": "minecraft:ender_eye",
        "count": 2
    }
}