{
    "type": "crafting_shaped",
	"group": "fletching_table",
    "pattern": [
        "ff ",
        "PP ",
        "PP "
    ],
    "key": {
        "f": {
            "item": "minecraft:flint"
        },
		"P": {
            "tag": "minecraft:planks"
        }
    },
    "result": {
        "item": "minecraft:fletching_table",
        "count": 1
    }
}