{
    "type": "crafting_shapeless",
	"group": "banner_patterns",
    "ingredients": [
        {
            "tag": "paint:paper_and_sugar_cane"
        },
		{
            "item": "minecraft:oxeye_daisy"
        }
    ],
    "result": {
        "item": "minecraft:flower_banner_pattern",
        "count": 1
    }
}