{
    "type": "crafting_shapeless",
	"group": "furnace_minecart",
    "ingredients": [
        {
            "item": "minecraft:furnace"
        },
		{
            "item": "minecraft:minecart"
        }
    ],
    "result": {
        "item": "minecraft:furnace_minecart",
        "count": 1
    }
}