{
    "type": "crafting_shapeless",
	"group": "wool",
    "ingredients": [
        {
            "tag": "paint:wool_except_gray"
        },
        {
            "tag": "paint:subs_for_gray_dye"
        }
    ],
    "result": {
        "item": "minecraft:gray_wool",
        "count": 1
    }
}