{
    "type": "crafting_shapeless",
	"group": "wool",
    "ingredients": [
        {
            "tag": "paint:wool_except_green"
        },
        {
            "tag": "paint:subs_for_green_dye"
        }
    ],
    "result": {
        "item": "minecraft:green_wool",
        "count": 1
    }
}