{
    "type": "crafting_shaped",
	"group": "grindstone",
    "pattern": [
        " S ",
        "PPP",
        "PPP"
    ],
    "key": {
		"S": {
            "item": "minecraft:stone"
        },
		"P": {
            "tag": "minecraft:planks"
        }
    },
    "result": {
        "item": "minecraft:grindstone",
        "count": 2
    }
}