{
    "type": "crafting_shaped",
	"group": "iron_trapdoor",
    "pattern": [
        "ii ",
        "ii ",
        "   "
    ],
    "key": {
		"i": {
            "item": "minecraft:iron_ingot"
        }
    },
    "result": {
        "item": "minecraft:iron_trapdoor",
        "count": 1
    }
}