{
    "type": "crafting_shapeless",
	"group": "item_frame",
    "ingredients": [
        {
            "item": "minecraft:leather"
        },
        {
            "tag": "minecraft:logs"
        }
    ],
    "result": {
        "item": "minecraft:item_frame",
        "count": 1
    }
}