{
    "type": "crafting_shaped",
	"group": "jungle_sign",
    "pattern": [
        "PPP",
        "PPP",
        " / "
    ],
    "key": {
        "/": {
            "item": "minecraft:stick"
        },
		"P": {
            "item": "minecraft:jungle_planks"
        }
    },
    "result": {
        "item": "minecraft:jungle_sign",
        "count": 3
    }
}