{
    "type": "crafting_shaped",
	"group": "ladder",
    "pattern": [
        "/ /",
        "///",
        "/ /"
    ],
    "key": {
        "/": {
            "item": "minecraft:stick"
        }
    },
    "result": {
        "item": "minecraft:ladder",
        "count": 3
    }
}