{
    "type": "crafting_shaped",
	"group": "lectern",
    "pattern": [
        " p ",
        " B ",
        " p "
    ],
    "key": {
        "p": {
            "tag": "minecraft:planks"
        },
		"B": {
            "item": "minecraft:bookshelf"
        }
    },
    "result": {
        "item": "minecraft:lectern",
        "count": 1
    }
}