{
    "type": "crafting_shapeless",
	"group": "lever",
    "ingredients": [
        {
            "item": "minecraft:cobblestone"
        },
		{
            "item": "minecraft:stick"
        }
    ],
    "result": {
        "item": "minecraft:lever",
        "count": 1
    }
}