{
    "type": "crafting_shapeless",
	"group": "wool",
    "ingredients": [
        {
            "tag": "paint:wool_except_light_blue"
        },
        {
            "tag": "paint:subs_for_light_blue_dye"
        }
    ],
    "result": {
        "item": "minecraft:light_blue_wool",
        "count": 1
    }
}