{
    "type": "crafting_shaped",
	"group": "carpet_from_carpet",
    "pattern": [
        "GGG",
        "GdG",
        "GGG"
    ],
    "key": {
	"d": {
            "tag": "paint:subs_for_lime_dye"
        },
        "G": {
            "tag": "paint:carpets_except_lime"
        }
    },
    "result": {
        "item": "minecraft:lime_carpet",
        "count": 8
    }
}