{
    "type": "crafting_shaped",
	"group": "oak_sign",
    "pattern": [
        "PPP",
        "PPP",
        " / "
    ],
    "key": {
        "/": {
            "item": "minecraft:stick"
        },
		"P": {
            "item": "minecraft:oak_planks"
        }
    },
    "result": {
        "item": "minecraft:oak_sign",
        "count": 3
    }
}