{
    "type": "crafting_shaped",
	"group": "painting",
    "pattern": [
        " P ",
        "PwP",
        " P "
    ],
    "key": {
        "P": {
            "tag": "minecraft:planks"
        },
		"w": {
            "tag": "minecraft:wool"
        }
    },
    "result": {
        "item": "minecraft:painting",
        "count": 1
    }
}