{
    "type": "crafting_shapeless",
	"group": "pink_dye",
    "ingredients": [
        {
            "tag": "paint:subs_for_white_dye"
        },
        {
            "tag": "paint:subs_for_red_dye"
        }
    ],
    "result": {
        "item": "minecraft:pink_dye",
        "count": 2
    }
}