{
    "type": "crafting_shaped",
	"group": "polished_andesite_stairs",
    "pattern": [
        "B  ",
        "BB ",
        "BBB"
    ],
    "key": {
		"B": {
            "item": "minecraft:polished_andesite"
        }
    },
    "result": {
        "item": "minecraft:polished_andesite_stairs",
        "count": 4
    }
}