{
    "type": "crafting_shaped",
	"group": "red_sandstone_slab",
    "pattern": [
        "   ",
        "   ",
        " ss"
    ],
    "key": {
		"s": {
            "item": "minecraft:red_sand"
        }
    },
    "result": {
        "item": "minecraft:red_sandstone_slab",
        "count": 1
    }
}