{
    "type": "stonecutting",
	"group": "sandstone_slab",
    "ingredient":
        {
            "item": "minecraft:sandstone_stairs"
        },
    "result": "minecraft:sandstone_slab",
	"count": 1
}