{
    "type": "crafting_shaped",
	"group": "stone_hoe",
    "pattern": [
        "ii ",
        " P ",
        "   "
    ],
    "key": {
		"i": {
            "item": "minecraft:cobblestone"
        },
		"P": {
            "tag": "minecraft:planks"
        }
    },
    "result": {
        "item": "minecraft:stone_hoe",
        "count": 1
    }
}