{
    "type": "crafting_shaped",
	"group": "tripwire_hook",
    "pattern": [
        "iii",
        " / ",
        " L "
    ],
    "key": {
		"/": {
            "item": "minecraft:stick"
        },
		"i": {
            "item": "minecraft:iron_ingot"
        },
        "L": {
            "tag": "minecraft:logs"
        }
    },
    "result": {
        "item": "minecraft:tripwire_hook",
        "count": 6
    }
}