{
    "type": "crafting_shapeless",
	"group": "tripwire_hook",
    "ingredients": [
        {
            "item": "minecraft:iron_ingot"
        },
		{
            "item": "minecraft:stick"
        },
		{
            "tag": "minecraft:planks"
        }
    ],
    "result": {
        "item": "minecraft:tripwire_hook",
        "count": 2
    }
}