{
    "type": "crafting_shapeless",
	"group": "white_dye",
    "ingredients": [
        {
            "tag": "paint:crafted_into_white_dye"
        }
    ],
    "result": {
        "item": "minecraft:white_dye",
        "count": 1
    }
}