{
  "type":"crafting_shapeless",
  "group":"dyeing",

  "ingredients":
  [
    {"tag":"shulker_box_colors:not_gray"},
    {"tag":"dyes:gray"}

  ],
  "result": {
    "item": "minecraft:gray_shulker_box",
    "data": {"$": "$ i0"}
  }
}
