{
  "type":"crafting_shapeless",
  "group":"dyeing",

  "ingredients":
  [
    {"tag":"shulker_box_colors:not_light_gray"},
    {"tag":"dyes:light_gray"}

  ],
"result": {
  "item": "minecraft:light_gray_shulker_box",
  "data": {"$": "$ i0"}
}
}
