{
  "type":"crafting_shapeless",
  "group":"dyeing",

  "ingredients":
  [
    {"tag":"shulker_box_colors:not_yellow"},
    {"tag":"dyes:yellow"}

  ],
  "result": {"item": "minecraft:yellow_shulker_box"}
}
