{
 "pools":[
		  {"rolls":1,
		   "entries":[
					  {
					   "type": "minecraft:item",
					   "name": "minecraft:player_head",
					   "weight": 1,
					   "functions": [
									 {"function": "set_name",
									  "name":{
														   "bold":"true",
														   "italic":"false",
														   "color":"yellow",
											  "text":"Ancient Cod Head",
											  "color":"yellow",
											  "italic":"false",
											  "bold":"true"
											  }
									 },
									 {"function": "set_nbt",
									  "tag": "{SkullOwner:{Id:\"8f718637-6901-4301-bd98-ebde0cc19ed8\",Properties:{textures:[{Value:\"eyJ0ZXh0dXJlcyI6eyJTS0lOIjp7InVybCI6Imh0dHA6Ly90ZXh0dXJlcy5taW5lY3JhZnQubmV0L3RleHR1cmUvNmY5OWI1ODBkNDVhNzg0ZTdhOTY0ZTdkM2IxZjk3Y2VjZTc0OTExMTczYmQyMWMxZDdjNTZhY2RjMzg1ZWQ1In19fQ==\"},{Signature:\'{\"bold\":true,\"italic\":false,\"color\":\"yellow\",\"text\":\"Ancient Cod Head\"}\',Value:\"\"},{Signature:\"TDP\",Value:\"\"}]}}}"
									 }
									]
					  }
					 ],
		   "conditions":[
			             {"condition":"minecraft:killed_by_player"},
						 {"condition":"minecraft:random_chance_with_looting",
						  "chance":0.05,
						  "looting_multiplier":0.02
					     }
					    ]
		  },
		  {"rolls":1,
		   "entries":[
					  {
					   "type": "minecraft:item",
					   "name": "minecraft:player_head",
					   "weight": 1,
					   "functions": [
									 {"function": "set_name",
									  "name":{
														   "bold":"true",
														   "italic":"false",
														   "color":"yellow",
											  "text":"Ancient Cod Head",
											  "color":"yellow",
											  "italic":"false",
											  "bold":"true"
											  }
									 },
									 {"function": "set_nbt",
									  "tag": "{SkullOwner:{Id:\"8f718637-6901-4301-bd98-ebde0cc19ed8\",Properties:{textures:[{Value:\"eyJ0ZXh0dXJlcyI6eyJTS0lOIjp7InVybCI6Imh0dHA6Ly90ZXh0dXJlcy5taW5lY3JhZnQubmV0L3RleHR1cmUvNmY5OWI1ODBkNDVhNzg0ZTdhOTY0ZTdkM2IxZjk3Y2VjZTc0OTExMTczYmQyMWMxZDdjNTZhY2RjMzg1ZWQ1In19fQ==\"},{Signature:\'{\"bold\":true,\"italic\":false,\"color\":\"yellow\",\"text\":\"Ancient Cod Head\"}\',Value:\"\"},{Signature:\"TDP\",Value:\"\"}]}}}"
									 }
									]
					  }
					 ],
		   "conditions":[
						 {"condition":"minecraft:entity_properties",
						 "entity":"killer",
						 "predicate":{
									  "type":"minecraft:creeper",
									  "nbt":"{powered:1b}"
									 }
						 } 
						]
		  }
		 ]
}