############################################################
# Description: A crafting recipe with NBT
# Creator: CreeperMagnet_
############################################################

advancement revoke @s only tcc:recipes/compendium
clear @s command_block
function tcc:commands/give/compendium
recipe take @s tcc:compendium
