{
  "type":"crafting_shapeless",
  "group":"dyeing",

  "ingredients":
  [
    {"tag":"concrete_powder_colors:not_black"},
    {"tag":"dyes:black"}

  ],
  "result": {"item": "minecraft:black_concrete_powder"}
}
