scoreboard players set @s bccm_tpD 0
scoreboard players operation @s bccm_tpX = @s bccm_homeX
scoreboard players operation @s bccm_tpY = @s bccm_homeY
scoreboard players operation @s bccm_tpZ = @s bccm_homeZ
function bertiecrafter:tp/internal/cm_startprocess