scoreboard players operation @s bccm_tpD = @s bccm_loc4D
scoreboard players operation @s bccm_tpX = @s bccm_loc4X
scoreboard players operation @s bccm_tpY = @s bccm_loc4Y
scoreboard players operation @s bccm_tpZ = @s bccm_loc4Z
function bertiecrafter:tp/internal/cm_startprocess