scoreboard players operation @s bccm_tpD = @s bccm_loc2D
scoreboard players operation @s bccm_tpX = @s bccm_loc2X
scoreboard players operation @s bccm_tpY = @s bccm_loc2Y
scoreboard players operation @s bccm_tpZ = @s bccm_loc2Z
function bertiecrafter:tp/internal/cm_startprocess