scoreboard players operation @s bccm_tpD = @s bccm_loc5D
scoreboard players operation @s bccm_tpX = @s bccm_loc5X
scoreboard players operation @s bccm_tpY = @s bccm_loc5Y
scoreboard players operation @s bccm_tpZ = @s bccm_loc5Z
function bertiecrafter:tp/internal/cm_startprocess