scoreboard players operation @s bccm_tpD = @s bccm_loc1D
scoreboard players operation @s bccm_tpX = @s bccm_loc1X
scoreboard players operation @s bccm_tpY = @s bccm_loc1Y
scoreboard players operation @s bccm_tpZ = @s bccm_loc1Z
function bertiecrafter:tp/internal/cm_startprocess