scoreboard players operation @s bccm_tpD = @s bccm_loc3D
scoreboard players operation @s bccm_tpX = @s bccm_loc3X
scoreboard players operation @s bccm_tpY = @s bccm_loc3Y
scoreboard players operation @s bccm_tpZ = @s bccm_loc3Z
function bertiecrafter:tp/internal/cm_startprocess