{
  "type":"crafting_shaped",
  "group":"dyeing",

  "pattern":
  [
      "III",
      "IDI",
      "III"
  ],
  "key":
  {
    "I": {"tag":"carpet_colors:not_orange"},
    "D": {"tag":"dyes:orange"}
  },
  "result":
  {
    "item": "minecraft:orange_carpet",
    "count": 8
  }
}
