{
  "type": "minecraft:crafting_shaped",
  "group": "carpet",
  "pattern": [
    "###",
    "#$#",
    "###"
  ],
  "key": {
    "#": {
      "item": "minecraft:white_carpet"
    },
    "$": {
      "item": "minecraft:brown_dye"
    }
  },
  "result": {
    "item": ""

  }
}