{
  "type": "minecraft:crafting_shaped",
  "group": "stained_terracotta",
  "pattern": [
    "###",
    "#X#",
    "###"
  ],
  "key": {
    "#": {
      "item": "minecraft:terracotta"
    },
    "X": {
      "item": "minecraft:green_dye"
    }
  },
  "result": {
    "item": ""

  }
}