{
  "type": "minecraft:crafting_shaped",
  "group": "pressure_plate",
  "pattern":
  [
    "##"
  ],
  "key": {
    "#": {
      "item": "minecraft:dark_oak_slab"
    }
  },
  "result": {
    "item": "minecraft:dark_oak_pressure_plate"

  }
}
