{
  "type": "minecraft:crafting_shapeless",
  "ingredients": [
    {
      "item": "minecraft:blaze_powder"
    },
    {
      "item": "minecraft:slime_ball"
    }
  ],
  "result": {
    "item": ""
  }
}