{
  "type":"crafting_shapeless",
  "group":"dyeing",

  "ingredients":
  [
    {"tag":"terracotta_colors:not_green"},
    {"tag":"dyes:green"}

  ],
  "result": {"item": "minecraft:green_terracotta"}
}
