{
  "type": "minecraft:crafting_shaped",
  "pattern": [
    "dej"
  ],
  "key": {
    "d": {
      "item": "minecraft:dried_kelp"
    },
    "e": {
      "item": "minecraft:suspicious_stew"
    },
    "j": {
      "item": "minecraft:beetroot_soup"
    }
   },
  "result": {
    "item": "minecraft:air"
  }
}