{
  "type": "minecraft:crafting_shaped",
  "pattern": [
    "dsd",
    "eje",
    "dsd"
  ],
  "key": {
    "d": {
      "tag": "minecraft:planks"
    },
    "e": {
      "item": "zoob:bait"
    },
    "s": {
      "item": "minecraft:string"
    },
    "j": {
      "item": "zoob:serrated_tooth"
    }
   },
  "result": {
    "item": "minecraft:air"
  }
}