{
  "rewards": {
    "function": "killfeed:shot/zombies/villagers/1/baby"
  },
  "criteria": {
    "kill": {
      "trigger": "minecraft:player_killed_entity",
      "conditions": {
        "entity": {
          "type": "zombie_villager",
          "flags": {
            "is_baby": true
        }
      },
      "killing_blow": {
        "is_projectile": "true"
      }
    }
  }
}
}