{
  "rewards": {
    "function": "killfeed:shot/zombies/villagers/1/fisherman"
  },
  "criteria": {
    "kill": {
      "trigger": "minecraft:player_killed_entity",
      "conditions": {
        "entity": {
          "type": "zombie_villager",
          "nbt": "{VillagerData:{profession: 'minecraft:fisherman'}}",
          "flags": {
              "is_baby": false
          }
      },
      "killing_blow": {
        "is_projectile": "true"
      }
    }
  }
}
}