{
    "display": {
        "icon": {
            "item": "minecraft:bow"
        },
        "title": {
            "translate": "advancements.tcc.quests.warrior.05.title"
        },
        "description": {
            "translate": "advancements.tcc.quests.warrior.05.description"
        },
        "show_toast": false,
        "announce_to_chat": false,
        "frame": "task"
    },
    "parent": "tcc:technical/items/quest_book/warrior/display/02",
    "criteria": {
        "run": {
            "trigger": "minecraft:impossible"
        }
    }
}