{
    "display": {
        "icon": {
            "item": "minecraft:bow"
        },
        "title": {
            "translate": "advancements.tcc.quests.rogue.02.title"
        },
        "description": {
            "translate": "advancements.tcc.quests.rogue.02.description"
        },
        "show_toast": false,
        "announce_to_chat": false,
        "frame": "goal"
    },
    "parent": "tcc:technical/items/quest_book/rogue/display/root",
    "criteria": {
        "run": {
            "trigger": "minecraft:impossible"
        }
    }
}