{
  "type":"crafting_shapeless",
  "group":"dyeing",

  "ingredients":
  [
    {"tag":"glass_colors:not_white"},
    {"tag":"dyes:white"}

  ],
  "result": {"item": "minecraft:white_stained_glass"}
}
