############################################################
# Description: Commands for the boomerang hitting a block
# Creator: CreeperMagnet_
############################################################

scoreboard players set @s tcc.boomerangm1 -1
scoreboard players set @s tcc.boomerangm2 -1
scoreboard players set @s tcc.boomerang 121
function tcc:items/boomerang/item/catch/item
kill @s