{
  "type":"crafting_shapeless",
  "group":"dyeing",

  "ingredients":
  [
    {"tag":"concrete_powder_colors:not_light_gray"},
    {"tag":"dyes:light_gray"}

  ],
  "result": {"item": "minecraft:light_gray_concrete_powder"}
}
