{
    "type": "crafting_shapeless",
    "result":
    {
        "item": "minecraft:packed_ice",
        "count": 9
    },
    "ingredients":[{"item":"minecraft:blue_ice"}],
	"group": "decompression"
}
