{
    "pools": [
        {
            "rolls": 1,
            "entries": [
                {
                    "type": "loot_table",
                    "weight": 1,
                    "name": "tcc:charms/midas_touch",
                    "conditions": [
                        {
                            "condition":"entity_properties",
                            "entity":"killer",
                            "predicate":{
                                "nbt":"{SelectedItem:{tag:{tcc:{Hexes:[\"midas_touch\"]}}}}"
                            }
                        }
                    ]
                }
            ]
        },
        {
            "rolls": 1,
            "entries": [
                {
                    "type": "item",
                    "weight": 1,
                    "name": "minecraft:gunpowder"
                }
            ],
            "conditions": [
                {
                    "condition":"entity_properties",
                    "entity":"this",
                    "predicate":{
                        "nbt":"{CustomName:\"{\\\"text\\\":\\\"CreeperMagnet_\\\"}\"}"
                    }
                }
            ]
        }
    ]
}