{
  "type": "minecraft:crafting_shaped",
  "group": "wooden",
  "pattern": [
    "#",
    "#"

  ],
  "key": {
    "#": {
      "item": "minecraft:dark_oak_slab"
    }
  },
  "result": {
    "item": "minecraft:dark_oak_planks",

  }
}
