{
  "type": "minecraft:crafting_shaped",
  "pattern": [
    "#",
    "#"

  ],
  "key": {
    "#": {
      "item": "minecraft:smooth_quartz_slab"
    }
  },
  "result": {
    "item": "minecraft:smooth_quartz"

  }
}