{
  "type": "minecraft:crafting_shaped",
  "group": "wooden",
  "pattern": [
    "#",
    "#"

  ],
  "key": {
    "#": {
      "item": "minecraft:spruce_slab"
    }
  },
  "result": {
    "item": "minecraft:spruce_planks",

  }
}
