{
  "type":"crafting_shaped",
  "group":"dyeing",

  "pattern":
  [
      "III",
      "IDI",
      "III"
  ],
  "key":
  {
    "I": {"tag":"wool_colors:not_yellow"},
    "D": {"tag":"dyes:yellow"}
  },
  "result":
  {
    "item": "minecraft:yellow_wool",
    "count": 8
  }
}
