{
    "criteria": {
        "run": {
            "trigger": "minecraft:placed_block",
            "conditions": {
                "block": "minecraft:barrier",
                "item": {
                    "nbt":"{tcc:{Item:\"chopper\"}}"
                }
            }
        }
    },
    "rewards": {
        "function": "tcc:blocks/block_breakers/chopper/placed"
    }
}
