{
  "type": "minecraft:crafting_shaped",
  "pattern": [
    "#  ",
    "## ",
    "###"
  ],
  "key": {
    "#": {
      "item": "minecraft:black_stained_glass"
    }
  },
  "result": {
    "item": "air"
  }
}