{
  "type": "minecraft:crafting_shaped",
  "pattern": [
    "#  ",
    "## "

  ],
  "key": {
    "#": {
      "item": "minecraft:polished_granite_slab"
    }
  },
  "result": {
    "item": "minecraft:polished_granite_stairs",
    "count": 2
  }
}