{
  "type": "minecraft:crafting_shaped",
  "pattern": [
    "#  ",
    "## "

  ],
  "key": {
    "#": {"item": "minecraft:purpur_slab"}
  },
  "result": {
    "item": "minecraft:purpur_stairs",
    "count": 2
  }
}
