{
  "type":"crafting_shapeless",
  "group":"dyeing",

  "ingredients":
  [
    {"tag":"glass_colors:not_black"},
    {"tag":"dyes:black"}

  ],
  "result": {"item": "minecraft:black_stained_glass"}
}
