{
  "type":"crafting_shaped",
  "group":"dyeing",

  "pattern":
  [
      "III",
      "IDI",
      "III"
  ],
  "key":
  {
    "I": {"tag":"carpet_colors:not_red"},
    "D": {"tag":"dyes:red"}
  },
  "result":
  {
    "item": "minecraft:red_carpet",
    "count": 8
  }
}
