{
 "pools":[
		  {"rolls":1,
		   "entries":[
					  {"type":"minecraft:alternatives",
					   "children":[
								   {
								    "type": "minecraft:item",
								    "name": "minecraft:player_head",
								    "weight": 1,
								    "functions": [
												  {"function": "set_name",
												   "name":{
														   "bold":"true",
														   "italic":"false",
														   "color":"yellow",
													 	   "text":"Ancient Pufferfish Head"
														  }
										  		  },
												  {"function": "set_nbt",
												   "tag": "{SkullOwner:{Id:\"b4630012-0e65-4a3d-bfd6-5024b782ab69\",Properties:{textures:[{Value:\"eyJ0ZXh0dXJlcyI6eyJTS0lOIjp7InVybCI6Imh0dHA6Ly90ZXh0dXJlcy5taW5lY3JhZnQubmV0L3RleHR1cmUvYTk1NTkzODg5OTNmZTc4MmY2N2JkNThkOThjNGRmNTZiY2Q0MzBlZGNiMmY2NmVmNTc3N2E3M2MyN2RlMyJ9fX0=\"},{Signature:\'{\"bold\":true,\"italic\":false,\"color\":\"yellow\",\"text\":\"Ancient Pufferfish Head\"}\',Value:\"\"},{Signature:\"TDP\",Value:\"\"}]}}}"
												  }
												 ],
									"conditions":[
												  {"condition":"minecraft:killed_by_player"},
												  {"condition":"minecraft:random_chance_with_looting",
												   "chance":0.05,
												   "looting_multiplier":0.02
												  }
											     ]
								   },
								   {
								    "type": "minecraft:item",
								    "name": "minecraft:player_head",
								    "weight": 1,
								    "functions": [
												  {"function": "set_name",
												   "name":{
														   "bold":"true",
														   "italic":"false",
														   "color":"yellow",
													 	   "text":"Ancient Pufferfish Head"
														  }
										  		  },
												  {"function": "set_nbt",
												   "tag": "{SkullOwner:{Id:\"b4630012-0e65-4a3d-bfd6-5024b782ab69\",Properties:{textures:[{Value:\"eyJ0ZXh0dXJlcyI6eyJTS0lOIjp7InVybCI6Imh0dHA6Ly90ZXh0dXJlcy5taW5lY3JhZnQubmV0L3RleHR1cmUvYTk1NTkzODg5OTNmZTc4MmY2N2JkNThkOThjNGRmNTZiY2Q0MzBlZGNiMmY2NmVmNTc3N2E3M2MyN2RlMyJ9fX0=\"},{Signature:\'{\"bold\":true,\"italic\":false,\"color\":\"yellow\",\"text\":\"Ancient Pufferfish Head\"}\',Value:\"\"},{Signature:\"TDP\",Value:\"\"}]}}}"
												  }
												 ],
									"conditions":[
												  {"condition":"minecraft:entity_properties",
												   "entity":"killer",
												   "predicate":{
															    "type":"minecraft:creeper",
															    "nbt":"{powered:1b}"
															   }
												  } 
											     ]
								   }
								  ]
						 }
					    ]
		  }
		 ]
}