{
  "pools": [
    {
      "rolls": 1,
      "entries": [
        {
          "type": "item",
          "weight": 30,
          "name": "minecraft:kelp"
        },
        {
          "type": "item",
          "weight": 60,
          "name": "minecraft:seagrass"
        },
        {
          "type": "item",
          "weight": 10,
          "name": "minecraft:blue_ice"
        },
        {
          "type": "item",
          "weight": 10,
          "name": "minecraft:cod"
        },
        {
          "type": "item",
          "weight": 60,
          "name": "minecraft:rotten_flesh"
        },
        {
          "type": "item",
          "weight": 10,
          "name": "minecraft:flint"
        },
        {
          "type": "item", 
          "weight": 3,
          "name": "minecraft:fishing_rod",
          "functions":[
            {
              "function": "set_damage",
              "damage": {
                "min": 0.3,
                "max": 1.0
              }
            }
          ]
        },
        {
          "type": "item",
          "weight": 1,
          "name": "minecraft:nautilus_shell"
        }
      ]
    }
  ]
}