{
  "pools": [
    {
      "rolls": 1,
      "entries": [
        {
          "type": "item",
          "weight": 30,
          "name": "minecraft:stone"
        },
        {
          "type": "item",
          "weight": 15,
          "name": "minecraft:mossy_cobblestone"
        },
        {
          "type": "item",
          "weight": 10,
          "name": "minecraft:gold_nugget"
        },
        {
          "type": "item",
          "weight": 60,
          "name": "minecraft:rotten_flesh"
        },
        {
          "type": "item",
          "weight": 20,
          "name": "minecraft:iron_nugget"
        },
        {
          "type": "item",
          "weight": 10,
          "name": "minecraft:spruce_sapling"
        },
        {
          "type": "item", 
          "weight": 3,
          "name": "minecraft:stone_pickaxe",
          "functions":[
            {
              "function": "set_damage",
              "damage": {
                "min": 0.3,
                "max": 1.0
              }
            }
          ]
        },
        {
          "type": "item",
          "weight": 1,
          "name": "minecraft:emerald"
        }
      ]
    }
  ]
}