{
  "type": "minecraft:crafting_shaped",
  "group": "signs",
  "pattern": [
    "=",
    "/"
  ],
  "key": {
    "=": {"item": "minecraft:acacia_slab"},
    "/": {"item": "minecraft:stick"}
  },
  "result": {
    "item": "minecraft:acacia_sign"
  }
}
