############################################################
# Description: Adds a quest book trade to a villager
# Creator: CreeperMagnet_
############################################################

tag @s add tcc.villager.cartographer.tagged
function tcc:technical/random/4
execute as @s[scores={tcc.random=1}] run data modify entity @s Offers.Recipes append value {maxUses:8,buy:{id:"minecraft:book",Count:1b},buyB:{id:"minecraft:iron_sword",Count:1b},sell:{Count:1b,id:"minecraft:carrot_on_a_stick",tag:{Unbreakable:1b,HideFlags:4,tcc:{Item:"quest_book",Quest:"warrior"},CustomModelData:10,display:{Name:"{\"translate\":\"item.tcc.quest_book\",\"italic\":\"false\"}",Lore:["{\"color\":\"gray\",\"italic\":\"false\",\"translate\":\"advancements.tcc.quests.warrior.root.title\"}","{\"translate\":\"tcc.lore.tooltip\"}"]}}},xp:1,uses:0,priceMultipler:0.2f,specialPrice:0,demand:0}
execute as @s[scores={tcc.random=2}] run data modify entity @s Offers.Recipes append value {maxUses:8,buy:{id:"minecraft:book",Count:1b},buyB:{id:"minecraft:golden_apple",Count:1b},sell:{Count:1b,id:"minecraft:carrot_on_a_stick",tag:{Unbreakable:1b,HideFlags:4,tcc:{Item:"quest_book",Quest:"healer"},CustomModelData:10,display:{Name:"{\"translate\":\"item.tcc.quest_book\",\"italic\":\"false\"}",Lore:["{\"color\":\"gray\",\"italic\":\"false\",\"translate\":\"advancements.tcc.quests.healer.root.title\"}","{\"translate\":\"tcc.lore.tooltip\"}"]}}},xp:1,uses:0,priceMultipler:0.2f,specialPrice:0,demand:0}
execute as @s[scores={tcc.random=3}] run data modify entity @s Offers.Recipes append value {maxUses:8,buy:{id:"minecraft:book",Count:1b},buyB:{id:"minecraft:enchanted_book",Count:1b},sell:{Count:1b,id:"minecraft:carrot_on_a_stick",tag:{Unbreakable:1b,HideFlags:4,tcc:{Item:"quest_book",Quest:"mage"},CustomModelData:10,display:{Name:"{\"translate\":\"item.tcc.quest_book\",\"italic\":\"false\"}",Lore:["{\"color\":\"gray\",\"italic\":\"false\",\"translate\":\"advancements.tcc.quests.mage.root.title\"}","{\"translate\":\"tcc.lore.tooltip\"}"]}}},xp:1,uses:0,priceMultipler:0.2f,specialPrice:0,demand:0}
execute as @s[scores={tcc.random=4}] run data modify entity @s Offers.Recipes append value {maxUses:8,buy:{id:"minecraft:book",Count:1b},buyB:{id:"minecraft:potion",Count:1b,tag:{Potion:"minecraft:invisibility"}},sell:{Count:1b,id:"minecraft:carrot_on_a_stick",tag:{Unbreakable:1b,HideFlags:4,tcc:{Item:"quest_book",Quest:"rogue"},CustomModelData:10,display:{Name:"{\"translate\":\"item.tcc.quest_book\",\"italic\":\"false\"}",Lore:["{\"color\":\"gray\",\"italic\":\"false\",\"translate\":\"advancements.tcc.quests.rogue.root.title\"}","{\"translate\":\"tcc.lore.tooltip\"}"]}}},xp:1,uses:0,priceMultipler:0.2f,specialPrice:0,demand:0}

data modify entity @s Offers.Recipes append value {maxUses:8,buy:{id:"minecraft:carrot_on_a_stick",Count:1b,tag:{CustomModelData:24,Unbreakable:1b,HideFlags:4,tcc:{Item:"quest_book_complete"},display:{Name:"{\"translate\":\"item.tcc.quest_book_complete\",\"italic\":\"false\"}"}}},buyB:{},sell:{id:"minecraft:emerald_block",Count:1},xp:4,uses:0,priceMultipler:0.2f,specialPrice:0,demand:0}
function tcc:technical/random/5_8
execute store result entity @s Offers.Recipes[3].sell.Count byte 1 run scoreboard players get @s tcc.random
scoreboard players reset @s tcc.random
