############################################################
# Description: Chooses a random kind of item to add to charm trades
# Creator: CreeperMagnet_
############################################################

function tcc:technical/random/5
execute as @s[scores={tcc.random=1}] run data modify entity @s Offers.Recipes append value {maxUses:8,buyB:{id:"minecraft:diamond_shovel",Count:1b},buy:{id:"minecraft:emerald",Count:1b},sell:{Count:1b,id:"minecraft:diamond_shovel",tag:{tcc:{Charms:["sifting"]},CustomModelData:1,display:{Lore:["{\"color\":\"dark_green\",\"italic\":\"false\",\"translate\":\"tcc.lore.charms.prefix\",\"with\":[{\"translate\":\"tcc.lore.charms.sifting\"}]}"]}}},xp:1,uses:0,priceMultipler:0.2f,specialPrice:0,demand:0}
execute as @s[scores={tcc.random=2}] run data modify entity @s Offers.Recipes append value {maxUses:8,buyB:{id:"minecraft:golden_shovel",Count:1b},buy:{id:"minecraft:emerald",Count:1b},sell:{Count:1b,id:"minecraft:golden_shovel",tag:{tcc:{Charms:["sifting"]},CustomModelData:1,display:{Lore:["{\"color\":\"dark_green\",\"italic\":\"false\",\"translate\":\"tcc.lore.charms.prefix\",\"with\":[{\"translate\":\"tcc.lore.charms.sifting\"}]}"]}}},xp:1,uses:0,priceMultipler:0.2f,specialPrice:0,demand:0}
execute as @s[scores={tcc.random=3}] run data modify entity @s Offers.Recipes append value {maxUses:8,buyB:{id:"minecraft:iron_shovel",Count:1b},buy:{id:"minecraft:emerald",Count:1b},sell:{Count:1b,id:"minecraft:iron_shovel",tag:{tcc:{Charms:["sifting"]},CustomModelData:1,display:{Lore:["{\"color\":\"dark_green\",\"italic\":\"false\",\"translate\":\"tcc.lore.charms.prefix\",\"with\":[{\"translate\":\"tcc.lore.charms.sifting\"}]}"]}}},xp:1,uses:0,priceMultipler:0.2f,specialPrice:0,demand:0}
execute as @s[scores={tcc.random=4}] run data modify entity @s Offers.Recipes append value {maxUses:8,buyB:{id:"minecraft:stone_shovel",Count:1b},buy:{id:"minecraft:emerald",Count:1b},sell:{Count:1b,id:"minecraft:stone_shovel",tag:{tcc:{Charms:["sifting"]},CustomModelData:1,display:{Lore:["{\"color\":\"dark_green\",\"italic\":\"false\",\"translate\":\"tcc.lore.charms.prefix\",\"with\":[{\"translate\":\"tcc.lore.charms.sifting\"}]}"]}}},xp:1,uses:0,priceMultipler:0.2f,specialPrice:0,demand:0}
execute as @s[scores={tcc.random=5}] run data modify entity @s Offers.Recipes append value {maxUses:8,buyB:{id:"minecraft:wooden_shovel",Count:1b},buy:{id:"minecraft:emerald",Count:1b},sell:{Count:1b,id:"minecraft:wooden_shovel",tag:{tcc:{Charms:["sifting"]},CustomModelData:1,display:{Lore:["{\"color\":\"dark_green\",\"italic\":\"false\",\"translate\":\"tcc.lore.charms.prefix\",\"with\":[{\"translate\":\"tcc.lore.charms.sifting\"}]}"]}}},xp:1,uses:0,priceMultipler:0.2f,specialPrice:0,demand:0}
scoreboard players reset @s tcc.random
