{
  "rewards": {
      "function": "killfeed:shot/cats/cat.8"
  },
  "criteria": {
    "kill": {
      "trigger": "minecraft:player_killed_entity",
      "conditions": {
        "entity": {
          "type": "cat",
          "nbt": "{CatType:8}",
          "flags": {
            "is_baby": false
        }
        },
        "killing_blow": {
          "is_projectile": "true"
        }
      }
    }
  }
}