{
  "type": "minecraft:crafting_shaped",
  "pattern": [
    "##"
  ],
  "key": {
    "#": {
      "item": "minecraft:pink_stained_glass"
    }
  },
  "result": {
    "item": "mo_glass:pink_stained_glass_slab",
    "count": 4
  }
}