{
  "type": "minecraft:crafting_shaped",
  "pattern": [
    "##"
  ],
  "key": {
    "#": {
      "item": "mo_glass:light_gray_stained_glass_stairs"
    }
  },
  "result": {
    "item": "mo_glass:light_gray_stained_glass_slab",
    "count": 3
  }
}