{
  "type": "minecraft:crafting_shaped",
  "pattern": [
    "##"
  ],
  "key": {
    "#": {
      "item": "minecraft:polished_blackstone_slab"
    }
  },
  "result": {
    "item": "minecraft:polished_blackstone_pressure_plate"
  }
}