{
 "pools":[
		  {"rolls":1,
		   "entries":[
					  {"type":"minecraft:alternatives",
					   "children":[
								   {
								    "type": "minecraft:item",
								    "name": "minecraft:player_head",
								    "weight": 1,
								    "functions": [
												  {"function": "set_name",
												   "name":{
														   "bold":"true",
														   "italic":"false",
														   "color":"yellow",
													 	   "text":"Taiga Fletcher Head"
														  }
										  		  },
												  {"function": "set_nbt",
												   "tag": "{SkullOwner:{Id:\"2720125b-932e-4e9f-9e68-d82703fcbda5\",Properties:{textures:[{Value:\"eyJ0ZXh0dXJlcyI6eyJTS0lOIjp7InVybCI6Imh0dHA6Ly90ZXh0dXJlcy5taW5lY3JhZnQubmV0L3RleHR1cmUvMjJkNjc3NjY4ODQwN2FhYzFiNDUxY2Q2OWEwYThiZmRlYzFmOWE3MDFhYjg2YTM5ZDM3NzdlNDQ4NjM5NTAzZSJ9fX0=\"},{Signature:\'{\"bold\":true,\"italic\":false,\"color\":\"yellow\",\"text\":\"Taiga Fletcher Head\"}\',Value:\"\"},{Signature:\"TDP\",Value:\"\"}]}}}"
												  }
												 ],
									"conditions":[
												  {"condition":"minecraft:killed_by_player"},
												  {"condition":"minecraft:random_chance_with_looting",
												   "chance":0.14,
												   "looting_multiplier":0.02
												  }
											     ]
								   },
								   {
								    "type": "minecraft:item",
								    "name": "minecraft:player_head",
								    "weight": 1,
								    "functions": [
												  {"function": "set_name",
												   "name":{
														   "bold":"true",
														   "italic":"false",
														   "color":"yellow",
													 	   "text":"Taiga Fletcher Head"
														  }
										  		  },
												  {"function": "set_nbt",
												   "tag": "{SkullOwner:{Id:\"2720125b-932e-4e9f-9e68-d82703fcbda5\",Properties:{textures:[{Value:\"eyJ0ZXh0dXJlcyI6eyJTS0lOIjp7InVybCI6Imh0dHA6Ly90ZXh0dXJlcy5taW5lY3JhZnQubmV0L3RleHR1cmUvMjJkNjc3NjY4ODQwN2FhYzFiNDUxY2Q2OWEwYThiZmRlYzFmOWE3MDFhYjg2YTM5ZDM3NzdlNDQ4NjM5NTAzZSJ9fX0=\"},{Signature:\'{\"bold\":true,\"italic\":false,\"color\":\"yellow\",\"text\":\"Taiga Fletcher Head\"}\',Value:\"\"},{Signature:\"TDP\",Value:\"\"}]}}}"
												  }
												 ],
									"conditions":[
												  {"condition":"minecraft:entity_properties",
												   "entity":"killer",
												   "predicate":{
															    "type":"minecraft:creeper",
															    "nbt":"{powered:1b}"
															   }
												  } 
											     ]
								   }
								  ],
					   "conditions":[
									 {"condition":"minecraft:entity_properties",
									  "entity":"this",
									  "predicate":{
												   "type":"minecraft:villager",
												   "nbt":"{VillagerData:{type:\"minecraft:taiga\"}}"
											      }
					   			     }
									]
					  },
					  {"type":"minecraft:alternatives",
					   "children":[
								   {
								    "type": "minecraft:item",
								    "name": "minecraft:player_head",
								    "weight": 1,
								    "functions": [
												  {"function": "set_name",
												   "name":{
														   "bold":"true",
														   "italic":"false",
														   "color":"yellow",
													 	   "text":"Swamp Fletcher Head"
														  }
										  		  },
												  {"function": "set_nbt",
												   "tag": "{SkullOwner:{Id:\"2720125b-932e-4e9f-9e68-d82703fcbda5\",Properties:{textures:[{Value:\"eyJ0ZXh0dXJlcyI6eyJTS0lOIjp7InVybCI6Imh0dHA6Ly90ZXh0dXJlcy5taW5lY3JhZnQubmV0L3RleHR1cmUvMjJkNjc3NjY4ODQwN2FhYzFiNDUxY2Q2OWEwYThiZmRlYzFmOWE3MDFhYjg2YTM5ZDM3NzdlNDQ4NjM5NTAzZSJ9fX0=\"},{Signature:\'{\"bold\":true,\"italic\":false,\"color\":\"yellow\",\"text\":\"Swamp Fletcher Head\"}\',Value:\"\"},{Signature:\"TDP\",Value:\"\"}]}}}"
												  }
												 ],
									"conditions":[
												  {"condition":"minecraft:killed_by_player"},
												  {"condition":"minecraft:random_chance_with_looting",
												   "chance":0.14,
												   "looting_multiplier":0.02
												  }
											     ]
								   },
								   {
								    "type": "minecraft:item",
								    "name": "minecraft:player_head",
								    "weight": 1,
								    "functions": [
												  {"function": "set_name",
												   "name":{
														   "bold":"true",
														   "italic":"false",
														   "color":"yellow",
													 	   "text":"Swamp Fletcher Head"
														  }
										  		  },
												  {"function": "set_nbt",
												   "tag": "{SkullOwner:{Id:\"2720125b-932e-4e9f-9e68-d82703fcbda5\",Properties:{textures:[{Value:\"eyJ0ZXh0dXJlcyI6eyJTS0lOIjp7InVybCI6Imh0dHA6Ly90ZXh0dXJlcy5taW5lY3JhZnQubmV0L3RleHR1cmUvMjJkNjc3NjY4ODQwN2FhYzFiNDUxY2Q2OWEwYThiZmRlYzFmOWE3MDFhYjg2YTM5ZDM3NzdlNDQ4NjM5NTAzZSJ9fX0=\"},{Signature:\'{\"bold\":true,\"italic\":false,\"color\":\"yellow\",\"text\":\"Swamp Fletcher Head\"}\',Value:\"\"},{Signature:\"TDP\",Value:\"\"}]}}}"
												  }
												 ],
									"conditions":[
												  {"condition":"minecraft:entity_properties",
												   "entity":"killer",
												   "predicate":{
															    "type":"minecraft:creeper",
															    "nbt":"{powered:1b}"
															   }
												  } 
											     ]
								   }
								  ],
					   "conditions":[
									 {"condition":"minecraft:entity_properties",
									  "entity":"this",
									  "predicate":{
												   "type":"minecraft:villager",
												   "nbt":"{VillagerData:{type:\"minecraft:swamp\"}}"
											      }
					   			     }
									]
					  },
					  {"type":"minecraft:alternatives",
					   "children":[
								   {
								    "type": "minecraft:item",
								    "name": "minecraft:player_head",
								    "weight": 1,
								    "functions": [
												  {"function": "set_name",
												   "name":{
														   "bold":"true",
														   "italic":"false",
														   "color":"yellow",
													 	   "text":"Jungle Fletcher Head"
														  }
										  		  },
												  {"function": "set_nbt",
												   "tag": "{SkullOwner:{Id:\"2720125b-932e-4e9f-9e68-d82703fcbda5\",Properties:{textures:[{Value:\"eyJ0ZXh0dXJlcyI6eyJTS0lOIjp7InVybCI6Imh0dHA6Ly90ZXh0dXJlcy5taW5lY3JhZnQubmV0L3RleHR1cmUvMjJkNjc3NjY4ODQwN2FhYzFiNDUxY2Q2OWEwYThiZmRlYzFmOWE3MDFhYjg2YTM5ZDM3NzdlNDQ4NjM5NTAzZSJ9fX0=\"},{Signature:\'{\"bold\":true,\"italic\":false,\"color\":\"yellow\",\"text\":\"Jungle Fletcher Head\"}\',Value:\"\"},{Signature:\"TDP\",Value:\"\"}]}}}"
												  }
												 ],
									"conditions":[
												  {"condition":"minecraft:killed_by_player"},
												  {"condition":"minecraft:random_chance_with_looting",
												   "chance":0.14,
												   "looting_multiplier":0.02
												  }
											     ]
								   },
								   {
								    "type": "minecraft:item",
								    "name": "minecraft:player_head",
								    "weight": 1,
								    "functions": [
												  {"function": "set_name",
												   "name":{
														   "bold":"true",
														   "italic":"false",
														   "color":"yellow",
													 	   "text":"Jungle Fletcher Head"
														  }
										  		  },
												  {"function": "set_nbt",
												   "tag": "{SkullOwner:{Id:\"2720125b-932e-4e9f-9e68-d82703fcbda5\",Properties:{textures:[{Value:\"eyJ0ZXh0dXJlcyI6eyJTS0lOIjp7InVybCI6Imh0dHA6Ly90ZXh0dXJlcy5taW5lY3JhZnQubmV0L3RleHR1cmUvMjJkNjc3NjY4ODQwN2FhYzFiNDUxY2Q2OWEwYThiZmRlYzFmOWE3MDFhYjg2YTM5ZDM3NzdlNDQ4NjM5NTAzZSJ9fX0=\"},{Signature:\'{\"bold\":true,\"italic\":false,\"color\":\"yellow\",\"text\":\"Jungle Fletcher Head\"}\',Value:\"\"},{Signature:\"TDP\",Value:\"\"}]}}}"
												  }
												 ],
									"conditions":[
												  {"condition":"minecraft:entity_properties",
												   "entity":"killer",
												   "predicate":{
															    "type":"minecraft:creeper",
															    "nbt":"{powered:1b}"
															   }
												  } 
											     ]
								   }
								  ],
					   "conditions":[
									 {"condition":"minecraft:entity_properties",
									  "entity":"this",
									  "predicate":{
												   "type":"minecraft:villager",
												   "nbt":"{VillagerData:{type:\"minecraft:jungle\"}}"
											      }
					   			     }
									]
					  },
					  {"type":"minecraft:alternatives",
					   "children":[
								   {
								    "type": "minecraft:item",
								    "name": "minecraft:player_head",
								    "weight": 1,
								    "functions": [
												  {"function": "set_name",
												   "name":{
														   "bold":"true",
														   "italic":"false",
														   "color":"yellow",
													 	   "text":"Desert Fletcher Head"
														  }
										  		  },
												  {"function": "set_nbt",
												   "tag": "{SkullOwner:{Id:\"2720125b-932e-4e9f-9e68-d82703fcbda5\",Properties:{textures:[{Value:\"eyJ0ZXh0dXJlcyI6eyJTS0lOIjp7InVybCI6Imh0dHA6Ly90ZXh0dXJlcy5taW5lY3JhZnQubmV0L3RleHR1cmUvMjJkNjc3NjY4ODQwN2FhYzFiNDUxY2Q2OWEwYThiZmRlYzFmOWE3MDFhYjg2YTM5ZDM3NzdlNDQ4NjM5NTAzZSJ9fX0=\"},{Signature:\'{\"bold\":true,\"italic\":false,\"color\":\"yellow\",\"text\":\"Desert Fletcher Head\"}\',Value:\"\"},{Signature:\"TDP\",Value:\"\"}]}}}"
												  }
												 ],
									"conditions":[
												  {"condition":"minecraft:killed_by_player"},
												  {"condition":"minecraft:random_chance_with_looting",
												   "chance":0.14,
												   "looting_multiplier":0.02
												  }
											     ]
								   },
								   {
								    "type": "minecraft:item",
								    "name": "minecraft:player_head",
								    "weight": 1,
								    "functions": [
												  {"function": "set_name",
												   "name":{
														   "bold":"true",
														   "italic":"false",
														   "color":"yellow",
													 	   "text":"Desert Fletcher Head"
														  }
										  		  },
												  {"function": "set_nbt",
												   "tag": "{SkullOwner:{Id:\"2720125b-932e-4e9f-9e68-d82703fcbda5\",Properties:{textures:[{Value:\"eyJ0ZXh0dXJlcyI6eyJTS0lOIjp7InVybCI6Imh0dHA6Ly90ZXh0dXJlcy5taW5lY3JhZnQubmV0L3RleHR1cmUvMjJkNjc3NjY4ODQwN2FhYzFiNDUxY2Q2OWEwYThiZmRlYzFmOWE3MDFhYjg2YTM5ZDM3NzdlNDQ4NjM5NTAzZSJ9fX0=\"},{Signature:\'{\"bold\":true,\"italic\":false,\"color\":\"yellow\",\"text\":\"Desert Fletcher Head\"}\',Value:\"\"},{Signature:\"TDP\",Value:\"\"}]}}}"
												  }
												 ],
									"conditions":[
												  {"condition":"minecraft:entity_properties",
												   "entity":"killer",
												   "predicate":{
															    "type":"minecraft:creeper",
															    "nbt":"{powered:1b}"
															   }
												  } 
											     ]
								   }
								  ],
					   "conditions":[
									 {"condition":"minecraft:entity_properties",
									  "entity":"this",
									  "predicate":{
												   "type":"minecraft:villager",
												   "nbt":"{VillagerData:{type:\"minecraft:desert\"}}"
											      }
					   			     }
									]
					  },
					  {"type":"minecraft:alternatives",
					   "children":[
								   {
								    "type": "minecraft:item",
								    "name": "minecraft:player_head",
								    "weight": 1,
								    "functions": [
												  {"function": "set_name",
												   "name":{
														   "bold":"true",
														   "italic":"false",
														   "color":"yellow",
													 	   "text":"Savanna Fletcher Head"
														  }
										  		  },
												  {"function": "set_nbt",
												   "tag": "{SkullOwner:{Id:\"2720125b-932e-4e9f-9e68-d82703fcbda5\",Properties:{textures:[{Value:\"eyJ0ZXh0dXJlcyI6eyJTS0lOIjp7InVybCI6Imh0dHA6Ly90ZXh0dXJlcy5taW5lY3JhZnQubmV0L3RleHR1cmUvMjJkNjc3NjY4ODQwN2FhYzFiNDUxY2Q2OWEwYThiZmRlYzFmOWE3MDFhYjg2YTM5ZDM3NzdlNDQ4NjM5NTAzZSJ9fX0=\"},{Signature:\'{\"bold\":true,\"italic\":false,\"color\":\"yellow\",\"text\":\"Savanna Fletcher Head\"}\',Value:\"\"},{Signature:\"TDP\",Value:\"\"}]}}}"
												  }
												 ],
									"conditions":[
												  {"condition":"minecraft:killed_by_player"},
												  {"condition":"minecraft:random_chance_with_looting",
												   "chance":0.14,
												   "looting_multiplier":0.02
												  }
											     ]
								   },
								   {
								    "type": "minecraft:item",
								    "name": "minecraft:player_head",
								    "weight": 1,
								    "functions": [
												  {"function": "set_name",
												   "name":{
														   "bold":"true",
														   "italic":"false",
														   "color":"yellow",
													 	   "text":"Savanna Fletcher Head"
														  }
										  		  },
												  {"function": "set_nbt",
												   "tag": "{SkullOwner:{Id:\"2720125b-932e-4e9f-9e68-d82703fcbda5\",Properties:{textures:[{Value:\"eyJ0ZXh0dXJlcyI6eyJTS0lOIjp7InVybCI6Imh0dHA6Ly90ZXh0dXJlcy5taW5lY3JhZnQubmV0L3RleHR1cmUvMjJkNjc3NjY4ODQwN2FhYzFiNDUxY2Q2OWEwYThiZmRlYzFmOWE3MDFhYjg2YTM5ZDM3NzdlNDQ4NjM5NTAzZSJ9fX0=\"},{Signature:\'{\"bold\":true,\"italic\":false,\"color\":\"yellow\",\"text\":\"Savanna Fletcher Head\"}\',Value:\"\"},{Signature:\"TDP\",Value:\"\"}]}}}"
												  }
												 ],
									"conditions":[
												  {"condition":"minecraft:entity_properties",
												   "entity":"killer",
												   "predicate":{
															    "type":"minecraft:creeper",
															    "nbt":"{powered:1b}"
															   }
												  } 
											     ]
								   }
								  ],
					   "conditions":[
									 {"condition":"minecraft:entity_properties",
									  "entity":"this",
									  "predicate":{
												   "type":"minecraft:villager",
												   "nbt":"{VillagerData:{type:\"minecraft:savanna\"}}"
											      }
					   			     }
									]
					  },
					  {"type":"minecraft:alternatives",
					   "children":[
								   {
								    "type": "minecraft:item",
								    "name": "minecraft:player_head",
								    "weight": 1,
								    "functions": [
												  {"function": "set_name",
												   "name":{
														   "bold":"true",
														   "italic":"false",
														   "color":"yellow",
													 	   "text":"Snow Fletcher Head"
														  }
										  		  },
												  {"function": "set_nbt",
												   "tag": "{SkullOwner:{Id:\"2720125b-932e-4e9f-9e68-d82703fcbda5\",Properties:{textures:[{Value:\"eyJ0ZXh0dXJlcyI6eyJTS0lOIjp7InVybCI6Imh0dHA6Ly90ZXh0dXJlcy5taW5lY3JhZnQubmV0L3RleHR1cmUvMjJkNjc3NjY4ODQwN2FhYzFiNDUxY2Q2OWEwYThiZmRlYzFmOWE3MDFhYjg2YTM5ZDM3NzdlNDQ4NjM5NTAzZSJ9fX0=\"},{Signature:\'{\"bold\":true,\"italic\":false,\"color\":\"yellow\",\"text\":\"Snow Fletcher Head\"}\',Value:\"\"},{Signature:\"TDP\",Value:\"\"}]}}}"
												  }
												 ],
									"conditions":[
												  {"condition":"minecraft:killed_by_player"},
												  {"condition":"minecraft:random_chance_with_looting",
												   "chance":0.14,
												   "looting_multiplier":0.02
												  }
											     ]
								   },
								   {
								    "type": "minecraft:item",
								    "name": "minecraft:player_head",
								    "weight": 1,
								    "functions": [
												  {"function": "set_name",
												   "name":{
														   "bold":"true",
														   "italic":"false",
														   "color":"yellow",
													 	   "text":"Snow Fletcher Head"
														  }
										  		  },
												  {"function": "set_nbt",
												   "tag": "{SkullOwner:{Id:\"2720125b-932e-4e9f-9e68-d82703fcbda5\",Properties:{textures:[{Value:\"eyJ0ZXh0dXJlcyI6eyJTS0lOIjp7InVybCI6Imh0dHA6Ly90ZXh0dXJlcy5taW5lY3JhZnQubmV0L3RleHR1cmUvMjJkNjc3NjY4ODQwN2FhYzFiNDUxY2Q2OWEwYThiZmRlYzFmOWE3MDFhYjg2YTM5ZDM3NzdlNDQ4NjM5NTAzZSJ9fX0=\"},{Signature:\'{\"bold\":true,\"italic\":false,\"color\":\"yellow\",\"text\":\"Snow Fletcher Head\"}\',Value:\"\"},{Signature:\"TDP\",Value:\"\"}]}}}"
												  }
												 ],
									"conditions":[
												  {"condition":"minecraft:entity_properties",
												   "entity":"killer",
												   "predicate":{
															    "type":"minecraft:creeper",
															    "nbt":"{powered:1b}"
															   }
												  } 
											     ]
								   }
								  ],
					   "conditions":[
									 {"condition":"minecraft:entity_properties",
									  "entity":"this",
									  "predicate":{
												   "type":"minecraft:villager",
												   "nbt":"{VillagerData:{type:\"minecraft:snow\"}}"
											      }
					   			     }
									]
					  },
					  {"type":"minecraft:alternatives",
					   "children":[
								   {
								    "type": "minecraft:item",
								    "name": "minecraft:player_head",
								    "weight": 1,
								    "functions": [
												  {"function": "set_name",
												   "name":{
														   "bold":"true",
														   "italic":"false",
														   "color":"yellow",
													 	   "text":"Plains Fletcher Head"
														  }
										  		  },
												  {"function": "set_nbt",
												   "tag": "{SkullOwner:{Id:\"2720125b-932e-4e9f-9e68-d82703fcbda5\",Properties:{textures:[{Value:\"eyJ0ZXh0dXJlcyI6eyJTS0lOIjp7InVybCI6Imh0dHA6Ly90ZXh0dXJlcy5taW5lY3JhZnQubmV0L3RleHR1cmUvMjJkNjc3NjY4ODQwN2FhYzFiNDUxY2Q2OWEwYThiZmRlYzFmOWE3MDFhYjg2YTM5ZDM3NzdlNDQ4NjM5NTAzZSJ9fX0=\"},{Signature:\'{\"bold\":true,\"italic\":false,\"color\":\"yellow\",\"text\":\"Plains Fletcher Head\"}\',Value:\"\"},{Signature:\"TDP\",Value:\"\"}]}}}"
												  }
												 ],
									"conditions":[
												  {"condition":"minecraft:killed_by_player"},
												  {"condition":"minecraft:random_chance_with_looting",
												   "chance":0.14,
												   "looting_multiplier":0.02
												  }
											     ]
								   },
								   {
								    "type": "minecraft:item",
								    "name": "minecraft:player_head",
								    "weight": 1,
								    "functions": [
												  {"function": "set_name",
												   "name":{
														   "bold":"true",
														   "italic":"false",
														   "color":"yellow",
													 	   "text":"Plains Fletcher Head"
														  }
										  		  },
												  {"function": "set_nbt",
												   "tag": "{SkullOwner:{Id:\"2720125b-932e-4e9f-9e68-d82703fcbda5\",Properties:{textures:[{Value:\"eyJ0ZXh0dXJlcyI6eyJTS0lOIjp7InVybCI6Imh0dHA6Ly90ZXh0dXJlcy5taW5lY3JhZnQubmV0L3RleHR1cmUvMjJkNjc3NjY4ODQwN2FhYzFiNDUxY2Q2OWEwYThiZmRlYzFmOWE3MDFhYjg2YTM5ZDM3NzdlNDQ4NjM5NTAzZSJ9fX0=\"},{Signature:\'{\"bold\":true,\"italic\":false,\"color\":\"yellow\",\"text\":\"Plains Fletcher Head\"}\',Value:\"\"},{Signature:\"TDP\",Value:\"\"}]}}}"
												  }
												 ],
									"conditions":[
												  {"condition":"minecraft:entity_properties",
												   "entity":"killer",
												   "predicate":{
															    "type":"minecraft:creeper",
															    "nbt":"{powered:1b}"
															   }
												  } 
											     ]
								   }
								  ],
					   "conditions":[
									 {"condition":"minecraft:entity_properties",
									  "entity":"this",
									  "predicate":{
												   "type":"minecraft:villager",
												   "nbt":"{VillagerData:{type:\"minecraft:plains\"}}"
											      }
					   			     }
									]
					  }
					 ]
		  }
		 ]
}