{
  "type": "minecraft:crafting_shaped",
  "pattern": [
    "#  ",
    "## "
  ],
  "key": {
    "#": {
      "item": "mo_glass:gray_stained_glass_slab"
    }
  },
  "result": {
    "item": "mo_glass:gray_stained_glass_stairs",
    "count": 2
  }
}