{
  "type": "minecraft:crafting_shaped",
  "pattern": [
    "#  ",
    "## "
  ],
  "key": {
    "#": {
      "item": "minecraft:glass"
    }
  },
  "result": {
    "item": "mo_glass:glass_stairs",
    "count": 4
  }
}