############################################################
# Description: Sets a random iron ring charm
# Creator: CreeperMagnet_
############################################################

function tcc:technical/random/25
execute as @s[scores={tcc.random=1}] run data modify entity @s Offers.Recipes append value {maxUses:8,buyB:{id:"minecraft:repeating_command_block",Count:1b},buy:{id:"minecraft:emerald",Count:1b},sell:{Count:1b,id:"minecraft:repeating_command_block",tag:{AttributeModifiers:[{Name:"generic.attackDamage",AttributeName:"generic.attackDamage",Amount:0.15,UUIDMost:167487,UUIDLeast:186746,Operation:1,Slot:"offhand"}],tcc:{Charms:["overkill"]},CustomModelData:1,display:{Lore:["{\"color\":\"dark_green\",\"italic\":\"false\",\"translate\":\"tcc.lore.charms.prefix\",\"with\":[{\"translate\":\"tcc.lore.charms.overkill\"}]}"]}}},xp:1,uses:0,priceMultipler:0.2f,specialPrice:0,demand:0}
execute as @s[scores={tcc.random=2}] run data modify entity @s Offers.Recipes append value {maxUses:8,buyB:{id:"minecraft:repeating_command_block",Count:1b},buy:{id:"minecraft:emerald",Count:1b},sell:{Count:1b,id:"minecraft:repeating_command_block",tag:{AttributeModifiers:[{Name:"generic.attackSpeed",AttributeName:"generic.attackSpeed",Amount:0.30,UUIDMost:167487,UUIDLeast:186746,Operation:1,Slot:"offhand"}],tcc:{Charms:["dexterity"]},CustomModelData:1,display:{Lore:["{\"color\":\"dark_green\",\"italic\":\"false\",\"translate\":\"tcc.lore.charms.prefix\",\"with\":[{\"translate\":\"tcc.lore.charms.dexterity\"}]}"]}}},xp:1,uses:0,priceMultipler:0.2f,specialPrice:0,demand:0}
execute as @s[scores={tcc.random=3}] run data modify entity @s Offers.Recipes append value {maxUses:8,buyB:{id:"minecraft:repeating_command_block",Count:1b},buy:{id:"minecraft:emerald",Count:1b},sell:{Count:1b,id:"minecraft:repeating_command_block",tag:{AttributeModifiers:[{Name:"generic.maxHealth",AttributeName:"generic.maxHealth",Amount:4,UUIDMost:167487,UUIDLeast:186746,Operation:0,Slot:"offhand"}],tcc:{Charms:["shielding"]},CustomModelData:1,display:{Lore:["{\"color\":\"dark_green\",\"italic\":\"false\",\"translate\":\"tcc.lore.charms.prefix\",\"with\":[{\"translate\":\"tcc.lore.charms.shielding\"}]}"]}}},xp:1,uses:0,priceMultipler:0.2f,specialPrice:0,demand:0}
execute as @s[scores={tcc.random=4}] run data modify entity @s Offers.Recipes append value {maxUses:8,buyB:{id:"minecraft:repeating_command_block",Count:1b},buy:{id:"minecraft:emerald",Count:1b},sell:{Count:1b,id:"minecraft:repeating_command_block",tag:{AttributeModifiers:[{Name:"generic.knockbackResistance",AttributeName:"generic.knockbackResistance",Amount:0.5,UUIDMost:167487,UUIDLeast:186746,Operation:0,Slot:"offhand"}],tcc:{Charms:["fortitude"]},CustomModelData:1,display:{Lore:["{\"color\":\"dark_green\",\"italic\":\"false\",\"translate\":\"tcc.lore.charms.prefix\",\"with\":[{\"translate\":\"tcc.lore.charms.fortitude\"}]}"]}}},xp:1,uses:0,priceMultipler:0.2f,specialPrice:0,demand:0}
execute as @s[scores={tcc.random=5}] run data modify entity @s Offers.Recipes append value {maxUses:8,buyB:{id:"minecraft:repeating_command_block",Count:1b},buy:{id:"minecraft:emerald",Count:1b},sell:{Count:1b,id:"minecraft:repeating_command_block",tag:{AttributeModifiers:[{Name:"generic.movementSpeed",AttributeName:"generic.movementSpeed",Amount:0.25,UUIDMost:167487,UUIDLeast:186746,Operation:1,Slot:"offhand"}],tcc:{Charms:["dashing"]},CustomModelData:1,display:{Lore:["{\"color\":\"dark_green\",\"italic\":\"false\",\"translate\":\"tcc.lore.charms.prefix\",\"with\":[{\"translate\":\"tcc.lore.charms.dashing\"}]}"]}}},xp:1,uses:0,priceMultipler:0.2f,specialPrice:0,demand:0}
execute as @s[scores={tcc.random=6}] run data modify entity @s Offers.Recipes append value {maxUses:8,buyB:{id:"minecraft:repeating_command_block",Count:1b},buy:{id:"minecraft:emerald",Count:1b},sell:{Count:1b,id:"minecraft:repeating_command_block",tag:{AttributeModifiers:[{Name:"generic.movementSpeed",AttributeName:"generic.movementSpeed",Amount:-0.25,UUIDMost:167487,UUIDLeast:186746,Operation:1,Slot:"offhand"}],tcc:{Hexes:["dawdling"]},CustomModelData:2,display:{Lore:["{\"color\":\"dark_red\",\"italic\":\"false\",\"translate\":\"tcc.lore.hexes.prefix\",\"with\":[{\"translate\":\"tcc.lore.hexes.dawdling\"}]}"]}}},xp:1,uses:0,priceMultipler:0.2f,specialPrice:0,demand:0}
execute as @s[scores={tcc.random=7}] run data modify entity @s Offers.Recipes append value {maxUses:8,buyB:{id:"minecraft:repeating_command_block",Count:1b},buy:{id:"minecraft:emerald",Count:1b},sell:{Count:1b,id:"minecraft:repeating_command_block",tag:{AttributeModifiers:[{Name:"generic.maxHealth",AttributeName:"generic.maxHealth",Amount:-4,UUIDMost:167487,UUIDLeast:186746,Operation:0,Slot:"offhand"}],tcc:{Hexes:["lifestealing"]},CustomModelData:2,display:{Lore:["{\"color\":\"dark_red\",\"italic\":\"false\",\"translate\":\"tcc.lore.hexes.prefix\",\"with\":[{\"translate\":\"tcc.lore.hexes.lifestealing\"}]}"]}}},xp:1,uses:0,priceMultipler:0.2f,specialPrice:0,demand:0}
execute as @s[scores={tcc.random=8}] run data modify entity @s Offers.Recipes append value {maxUses:8,buyB:{id:"minecraft:repeating_command_block",Count:1b},buy:{id:"minecraft:emerald",Count:1b},sell:{Count:1b,id:"minecraft:repeating_command_block",tag:{AttributeModifiers:[{Name:"generic.attackSpeed",AttributeName:"generic.attackSpeed",Amount:-0.30,UUIDMost:167487,UUIDLeast:186746,Operation:1,Slot:"offhand"}],tcc:{Hexes:["sloth"]},CustomModelData:2,display:{Lore:["{\"color\":\"dark_red\",\"italic\":\"false\",\"translate\":\"tcc.lore.hexes.prefix\",\"with\":[{\"translate\":\"tcc.lore.hexes.sloth\"}]}"]}}},xp:1,uses:0,priceMultipler:0.2f,specialPrice:0,demand:0}
execute as @s[scores={tcc.random=9}] run data modify entity @s Offers.Recipes append value {maxUses:8,buyB:{id:"minecraft:repeating_command_block",Count:1b},buy:{id:"minecraft:emerald",Count:1b},sell:{Count:1b,id:"minecraft:repeating_command_block",tag:{AttributeModifiers:[{Name:"generic.attackDamage",AttributeName:"generic.attackDamage",Amount:-0.15,UUIDMost:167487,UUIDLeast:186746,Operation:1,Slot:"offhand"}],tcc:{Hexes:["feebleness"]},CustomModelData:2,display:{Lore:["{\"color\":\"dark_red\",\"italic\":\"false\",\"translate\":\"tcc.lore.hexes.prefix\",\"with\":[{\"translate\":\"tcc.lore.charms.feebleness\"}]}"]}}},xp:1,uses:0,priceMultipler:0.2f,specialPrice:0,demand:0}

execute as @s[scores={tcc.random=10}] run data modify entity @s Offers.Recipes append value {maxUses:8,buyB:{id:"minecraft:repeating_command_block",Count:1b},buy:{id:"minecraft:emerald",Count:1b},sell:{Count:1b,id:"minecraft:repeating_command_block",tag:{AttributeModifiers:[{Name:"generic.attackDamage",AttributeName:"generic.attackDamage",Amount:0.15,UUIDMost:167487,UUIDLeast:186746,Operation:1,Slot:"offhand"},{Name:"generic.movementSpeed",AttributeName:"generic.movementSpeed",Amount:-0.25,UUIDMost:167487,UUIDLeast:186746,Operation:1,Slot:"offhand"}],tcc:{Charms:["overkill"],Hexes:["dawdling"]},CustomModelData:3,display:{Lore:["{\"color\":\"dark_green\",\"italic\":\"false\",\"translate\":\"tcc.lore.charms.prefix\",\"with\":[{\"translate\":\"tcc.lore.charms.overkill\"}]}","{\"color\":\"dark_red\",\"italic\":\"false\",\"translate\":\"tcc.lore.hexes.prefix\",\"with\":[{\"translate\":\"tcc.lore.hexes.dawdling\"}]}"]}}},xp:1,uses:0,priceMultipler:0.2f,specialPrice:0,demand:0}
execute as @s[scores={tcc.random=11}] run data modify entity @s Offers.Recipes append value {maxUses:8,buyB:{id:"minecraft:repeating_command_block",Count:1b},buy:{id:"minecraft:emerald",Count:1b},sell:{Count:1b,id:"minecraft:repeating_command_block",tag:{AttributeModifiers:[{Name:"generic.attackDamage",AttributeName:"generic.attackDamage",Amount:0.15,UUIDMost:167487,UUIDLeast:186746,Operation:1,Slot:"offhand"},{Name:"generic.attackSpeed",AttributeName:"generic.attackSpeed",Amount:-0.30,UUIDMost:167487,UUIDLeast:186746,Operation:1,Slot:"offhand"}],tcc:{Charms:["overkill"],Hexes:["sloth"]},CustomModelData:3,display:{Lore:["{\"color\":\"dark_green\",\"italic\":\"false\",\"translate\":\"tcc.lore.charms.prefix\",\"with\":[{\"translate\":\"tcc.lore.charms.overkill\"}]}","{\"color\":\"dark_red\",\"italic\":\"false\",\"translate\":\"tcc.lore.hexes.prefix\",\"with\":[{\"translate\":\"tcc.lore.hexes.sloth\"}]}"]}}},xp:1,uses:0,priceMultipler:0.2f,specialPrice:0,demand:0}
execute as @s[scores={tcc.random=12}] run data modify entity @s Offers.Recipes append value {maxUses:8,buyB:{id:"minecraft:repeating_command_block",Count:1b},buy:{id:"minecraft:emerald",Count:1b},sell:{Count:1b,id:"minecraft:repeating_command_block",tag:{AttributeModifiers:[{Name:"generic.attackDamage",AttributeName:"generic.attackDamage",Amount:0.15,UUIDMost:167487,UUIDLeast:186746,Operation:1,Slot:"offhand"},{Name:"generic.maxHealth",AttributeName:"generic.maxHealth",Amount:-4,UUIDMost:167487,UUIDLeast:186746,Operation:0,Slot:"offhand"}],tcc:{Charms:["overkill"],Hexes:["lifestealing"]},CustomModelData:3,display:{Lore:["{\"color\":\"dark_green\",\"italic\":\"false\",\"translate\":\"tcc.lore.charms.prefix\",\"with\":[{\"translate\":\"tcc.lore.charms.overkill\"}]}","{\"color\":\"dark_red\",\"italic\":\"false\",\"translate\":\"tcc.lore.hexes.prefix\",\"with\":[{\"translate\":\"tcc.lore.hexes.lifestealing\"}]}"]}}},xp:1,uses:0,priceMultipler:0.2f,specialPrice:0,demand:0}

execute as @s[scores={tcc.random=13}] run data modify entity @s Offers.Recipes append value {maxUses:8,buyB:{id:"minecraft:repeating_command_block",Count:1b},buy:{id:"minecraft:emerald",Count:1b},sell:{Count:1b,id:"minecraft:repeating_command_block",tag:{AttributeModifiers:[{Name:"generic.movementSpeed",AttributeName:"generic.movementSpeed",Amount:0.25,UUIDMost:167487,UUIDLeast:186746,Operation:1,Slot:"offhand"},{Name:"generic.attackSpeed",AttributeName:"generic.attackSpeed",Amount:-0.30,UUIDMost:167487,UUIDLeast:186746,Operation:1,Slot:"offhand"}],tcc:{Charms:["dashing"],Hexes:["sloth"]},CustomModelData:3,display:{Lore:["{\"color\":\"dark_green\",\"italic\":\"false\",\"translate\":\"tcc.lore.charms.prefix\",\"with\":[{\"translate\":\"tcc.lore.charms.dashing\"}]}","{\"color\":\"dark_red\",\"italic\":\"false\",\"translate\":\"tcc.lore.hexes.prefix\",\"with\":[{\"translate\":\"tcc.lore.hexes.sloth\"}]}"]}}},xp:1,uses:0,priceMultipler:0.2f,specialPrice:0,demand:0}
execute as @s[scores={tcc.random=14}] run data modify entity @s Offers.Recipes append value {maxUses:8,buyB:{id:"minecraft:repeating_command_block",Count:1b},buy:{id:"minecraft:emerald",Count:1b},sell:{Count:1b,id:"minecraft:repeating_command_block",tag:{AttributeModifiers:[{Name:"generic.movementSpeed",AttributeName:"generic.movementSpeed",Amount:0.25,UUIDMost:167487,UUIDLeast:186746,Operation:1,Slot:"offhand"},{Name:"generic.attackDamage",AttributeName:"generic.attackDamage",Amount:-0.15,UUIDMost:167487,UUIDLeast:186746,Operation:1,Slot:"offhand"}],tcc:{Charms:["dashing"],Hexes:["feebleness"]},CustomModelData:3,display:{Lore:["{\"color\":\"dark_green\",\"italic\":\"false\",\"translate\":\"tcc.lore.charms.prefix\",\"with\":[{\"translate\":\"tcc.lore.charms.dashing\"}]}","{\"color\":\"dark_red\",\"italic\":\"false\",\"translate\":\"tcc.lore.hexes.prefix\",\"with\":[{\"translate\":\"tcc.lore.hexes.feebleness\"}]}"]}}},xp:1,uses:0,priceMultipler:0.2f,specialPrice:0,demand:0}
execute as @s[scores={tcc.random=15}] run data modify entity @s Offers.Recipes append value {maxUses:8,buyB:{id:"minecraft:repeating_command_block",Count:1b},buy:{id:"minecraft:emerald",Count:1b},sell:{Count:1b,id:"minecraft:repeating_command_block",tag:{AttributeModifiers:[{Name:"generic.movementSpeed",AttributeName:"generic.movementSpeed",Amount:0.25,UUIDMost:167487,UUIDLeast:186746,Operation:1,Slot:"offhand"},{Name:"generic.maxHealth",AttributeName:"generic.maxHealth",Amount:-4,UUIDMost:167487,UUIDLeast:186746,Operation:0,Slot:"offhand"}],tcc:{Charms:["dashing"],Hexes:["lifestealing"]},CustomModelData:3,display:{Lore:["{\"color\":\"dark_green\",\"italic\":\"false\",\"translate\":\"tcc.lore.charms.prefix\",\"with\":[{\"translate\":\"tcc.lore.charms.dashing\"}]}","{\"color\":\"dark_red\",\"italic\":\"false\",\"translate\":\"tcc.lore.hexes.prefix\",\"with\":[{\"translate\":\"tcc.lore.hexes.lifestealing\"}]}"]}}},xp:1,uses:0,priceMultipler:0.2f,specialPrice:0,demand:0}

execute as @s[scores={tcc.random=16}] run data modify entity @s Offers.Recipes append value {maxUses:8,buyB:{id:"minecraft:repeating_command_block",Count:1b},buy:{id:"minecraft:emerald",Count:1b},sell:{Count:1b,id:"minecraft:repeating_command_block",tag:{AttributeModifiers:[{Name:"generic.attackSpeed",AttributeName:"generic.attackSpeed",Amount:0.30,UUIDMost:167487,UUIDLeast:186746,Operation:1,Slot:"offhand"},{Name:"generic.movementSpeed",AttributeName:"generic.movementSpeed",Amount:-0.25,UUIDMost:167487,UUIDLeast:186746,Operation:1,Slot:"offhand"}],tcc:{Charms:["dexterity"],Hexes:["dawdling"]},CustomModelData:3,display:{Lore:["{\"color\":\"dark_green\",\"italic\":\"false\",\"translate\":\"tcc.lore.charms.prefix\",\"with\":[{\"translate\":\"tcc.lore.charms.dexterity\"}]}","{\"color\":\"dark_red\",\"italic\":\"false\",\"translate\":\"tcc.lore.hexes.prefix\",\"with\":[{\"translate\":\"tcc.lore.hexes.dawdling\"}]}"]}}},xp:1,uses:0,priceMultipler:0.2f,specialPrice:0,demand:0}
execute as @s[scores={tcc.random=17}] run data modify entity @s Offers.Recipes append value {maxUses:8,buyB:{id:"minecraft:repeating_command_block",Count:1b},buy:{id:"minecraft:emerald",Count:1b},sell:{Count:1b,id:"minecraft:repeating_command_block",tag:{AttributeModifiers:[{Name:"generic.attackSpeed",AttributeName:"generic.attackSpeed",Amount:0.30,UUIDMost:167487,UUIDLeast:186746,Operation:1,Slot:"offhand"},{Name:"generic.attackDamage",AttributeName:"generic.attackDamage",Amount:-0.15,UUIDMost:167487,UUIDLeast:186746,Operation:1,Slot:"offhand"}],tcc:{Charms:["dexterity"],Hexes:["feebleness"]},CustomModelData:3,display:{Lore:["{\"color\":\"dark_green\",\"italic\":\"false\",\"translate\":\"tcc.lore.charms.prefix\",\"with\":[{\"translate\":\"tcc.lore.charms.dexterity\"}]}","{\"color\":\"dark_red\",\"italic\":\"false\",\"translate\":\"tcc.lore.hexes.prefix\",\"with\":[{\"translate\":\"tcc.lore.hexes.feebleness\"}]}"]}}},xp:1,uses:0,priceMultipler:0.2f,specialPrice:0,demand:0}
execute as @s[scores={tcc.random=18}] run data modify entity @s Offers.Recipes append value {maxUses:8,buyB:{id:"minecraft:repeating_command_block",Count:1b},buy:{id:"minecraft:emerald",Count:1b},sell:{Count:1b,id:"minecraft:repeating_command_block",tag:{AttributeModifiers:[{Name:"generic.attackSpeed",AttributeName:"generic.attackSpeed",Amount:0.30,UUIDMost:167487,UUIDLeast:186746,Operation:1,Slot:"offhand"},{Name:"generic.maxHealth",AttributeName:"generic.maxHealth",Amount:-4,UUIDMost:167487,UUIDLeast:186746,Operation:0,Slot:"offhand"}],tcc:{Charms:["dexterity"],Hexes:["lifestealing"]},CustomModelData:3,display:{Lore:["{\"color\":\"dark_green\",\"italic\":\"false\",\"translate\":\"tcc.lore.charms.prefix\",\"with\":[{\"translate\":\"tcc.lore.charms.dexterity\"}]}","{\"color\":\"dark_red\",\"italic\":\"false\",\"translate\":\"tcc.lore.hexes.prefix\",\"with\":[{\"translate\":\"tcc.lore.hexes.lifestealing\"}]}"]}}},xp:1,uses:0,priceMultipler:0.2f,specialPrice:0,demand:0}

execute as @s[scores={tcc.random=19}] run data modify entity @s Offers.Recipes append value {maxUses:8,buyB:{id:"minecraft:repeating_command_block",Count:1b},buy:{id:"minecraft:emerald",Count:1b},sell:{Count:1b,id:"minecraft:repeating_command_block",tag:{AttributeModifiers:[{Name:"generic.maxHealth",AttributeName:"generic.maxHealth",Amount:4,UUIDMost:167487,UUIDLeast:186746,Operation:0,Slot:"offhand"},{Name:"generic.movementSpeed",AttributeName:"generic.movementSpeed",Amount:-0.25,UUIDMost:167487,UUIDLeast:186746,Operation:1,Slot:"offhand"}],tcc:{Charms:["shielding"],Hexes:["dawdling"]},CustomModelData:3,display:{Lore:["{\"color\":\"dark_green\",\"italic\":\"false\",\"translate\":\"tcc.lore.charms.prefix\",\"with\":[{\"translate\":\"tcc.lore.charms.shielding\"}]}","{\"color\":\"dark_red\",\"italic\":\"false\",\"translate\":\"tcc.lore.hexes.prefix\",\"with\":[{\"translate\":\"tcc.lore.hexes.dawdling\"}]}"]}}},xp:1,uses:0,priceMultipler:0.2f,specialPrice:0,demand:0}
execute as @s[scores={tcc.random=20}] run data modify entity @s Offers.Recipes append value {maxUses:8,buyB:{id:"minecraft:repeating_command_block",Count:1b},buy:{id:"minecraft:emerald",Count:1b},sell:{Count:1b,id:"minecraft:repeating_command_block",tag:{AttributeModifiers:[{Name:"generic.maxHealth",AttributeName:"generic.maxHealth",Amount:4,UUIDMost:167487,UUIDLeast:186746,Operation:0,Slot:"offhand"},{Name:"generic.attackSpeed",AttributeName:"generic.attackSpeed",Amount:-0.30,UUIDMost:167487,UUIDLeast:186746,Operation:1,Slot:"offhand"}],tcc:{Charms:["shielding"],Hexes:["sloth"]},CustomModelData:3,display:{Lore:["{\"color\":\"dark_green\",\"italic\":\"false\",\"translate\":\"tcc.lore.charms.prefix\",\"with\":[{\"translate\":\"tcc.lore.charms.shielding\"}]}","{\"color\":\"dark_red\",\"italic\":\"false\",\"translate\":\"tcc.lore.hexes.prefix\",\"with\":[{\"translate\":\"tcc.lore.hexes.sloth\"}]}"]}}},xp:1,uses:0,priceMultipler:0.2f,specialPrice:0,demand:0}
execute as @s[scores={tcc.random=21}] run data modify entity @s Offers.Recipes append value {maxUses:8,buyB:{id:"minecraft:repeating_command_block",Count:1b},buy:{id:"minecraft:emerald",Count:1b},sell:{Count:1b,id:"minecraft:repeating_command_block",tag:{AttributeModifiers:[{Name:"generic.maxHealth",AttributeName:"generic.maxHealth",Amount:4,UUIDMost:167487,UUIDLeast:186746,Operation:0,Slot:"offhand"},{Name:"generic.attackDamage",AttributeName:"generic.attackDamage",Amount:-0.15,UUIDMost:167487,UUIDLeast:186746,Operation:1,Slot:"offhand"}],tcc:{Charms:["shielding"],Hexes:["feebleness"]},CustomModelData:3,display:{Lore:["{\"color\":\"dark_green\",\"italic\":\"false\",\"translate\":\"tcc.lore.charms.prefix\",\"with\":[{\"translate\":\"tcc.lore.charms.shielding\"}]}","{\"color\":\"dark_red\",\"italic\":\"false\",\"translate\":\"tcc.lore.hexes.prefix\",\"with\":[{\"translate\":\"tcc.lore.hexes.feebleness\"}]}"]}}},xp:1,uses:0,priceMultipler:0.2f,specialPrice:0,demand:0}

execute as @s[scores={tcc.random=22}] run data modify entity @s Offers.Recipes append value {maxUses:8,buyB:{id:"minecraft:repeating_command_block",Count:1b},buy:{id:"minecraft:emerald",Count:1b},sell:{Count:1b,id:"minecraft:repeating_command_block",tag:{AttributeModifiers:[{Name:"generic.knockbackResistance",AttributeName:"generic.knockbackResistance",Amount:0.5,UUIDMost:167487,UUIDLeast:186746,Operation:0,Slot:"offhand"},{Name:"generic.movementSpeed",AttributeName:"generic.movementSpeed",Amount:-0.25,UUIDMost:167487,UUIDLeast:186746,Operation:1,Slot:"offhand"}],tcc:{Charms:["fortitude"],Hexes:["dawdling"]},CustomModelData:3,display:{Lore:["{\"color\":\"dark_green\",\"italic\":\"false\",\"translate\":\"tcc.lore.charms.prefix\",\"with\":[{\"translate\":\"tcc.lore.charms.fortitude\"}]}","{\"color\":\"dark_red\",\"italic\":\"false\",\"translate\":\"tcc.lore.hexes.prefix\",\"with\":[{\"translate\":\"tcc.lore.hexes.dawdling\"}]}"]}}},xp:1,uses:0,priceMultipler:0.2f,specialPrice:0,demand:0}
execute as @s[scores={tcc.random=23}] run data modify entity @s Offers.Recipes append value {maxUses:8,buyB:{id:"minecraft:repeating_command_block",Count:1b},buy:{id:"minecraft:emerald",Count:1b},sell:{Count:1b,id:"minecraft:repeating_command_block",tag:{AttributeModifiers:[{Name:"generic.knockbackResistance",AttributeName:"generic.knockbackResistance",Amount:0.5,UUIDMost:167487,UUIDLeast:186746,Operation:0,Slot:"offhand"},{Name:"generic.attackSpeed",AttributeName:"generic.attackSpeed",Amount:-0.30,UUIDMost:167487,UUIDLeast:186746,Operation:1,Slot:"offhand"}],tcc:{Charms:["fortitude"],Hexes:["sloth"]},CustomModelData:3,display:{Lore:["{\"color\":\"dark_green\",\"italic\":\"false\",\"translate\":\"tcc.lore.charms.prefix\",\"with\":[{\"translate\":\"tcc.lore.charms.fortitude\"}]}","{\"color\":\"dark_red\",\"italic\":\"false\",\"translate\":\"tcc.lore.hexes.prefix\",\"with\":[{\"translate\":\"tcc.lore.hexes.sloth\"}]}"]}}},xp:1,uses:0,priceMultipler:0.2f,specialPrice:0,demand:0}
execute as @s[scores={tcc.random=24}] run data modify entity @s Offers.Recipes append value {maxUses:8,buyB:{id:"minecraft:repeating_command_block",Count:1b},buy:{id:"minecraft:emerald",Count:1b},sell:{Count:1b,id:"minecraft:repeating_command_block",tag:{AttributeModifiers:[{Name:"generic.knockbackResistance",AttributeName:"generic.knockbackResistance",Amount:0.5,UUIDMost:167487,UUIDLeast:186746,Operation:0,Slot:"offhand"},{Name:"generic.attackDamage",AttributeName:"generic.attackDamage",Amount:-0.15,UUIDMost:167487,UUIDLeast:186746,Operation:1,Slot:"offhand"}],tcc:{Charms:["fortitude"],Hexes:["feebleness"]},CustomModelData:3,display:{Lore:["{\"color\":\"dark_green\",\"italic\":\"false\",\"translate\":\"tcc.lore.charms.prefix\",\"with\":[{\"translate\":\"tcc.lore.charms.fortitude\"}]}","{\"color\":\"dark_red\",\"italic\":\"false\",\"translate\":\"tcc.lore.hexes.prefix\",\"with\":[{\"translate\":\"tcc.lore.hexes.feebleness\"}]}"]}}},xp:1,uses:0,priceMultipler:0.2f,specialPrice:0,demand:0}
execute as @s[scores={tcc.random=25}] run data modify entity @s Offers.Recipes append value {maxUses:8,buyB:{id:"minecraft:repeating_command_block",Count:1b},buy:{id:"minecraft:emerald",Count:1b},sell:{Count:1b,id:"minecraft:repeating_command_block",tag:{AttributeModifiers:[{Name:"generic.knockbackResistance",AttributeName:"generic.knockbackResistance",Amount:0.5,UUIDMost:167487,UUIDLeast:186746,Operation:0,Slot:"offhand"},{Name:"generic.maxHealth",AttributeName:"generic.maxHealth",Amount:-4,UUIDMost:167487,UUIDLeast:186746,Operation:0,Slot:"offhand"}],tcc:{Charms:["fortitude"],Hexes:["lifestealing"]},CustomModelData:3,display:{Lore:["{\"color\":\"dark_green\",\"italic\":\"false\",\"translate\":\"tcc.lore.charms.prefix\",\"with\":[{\"translate\":\"tcc.lore.charms.fortitude\"}]}","{\"color\":\"dark_red\",\"italic\":\"false\",\"translate\":\"tcc.lore.hexes.prefix\",\"with\":[{\"translate\":\"tcc.lore.hexes.lifestealing\"}]}"]}}},xp:1,uses:0,priceMultipler:0.2f,specialPrice:0,demand:0}


scoreboard players reset @s tcc.random
