{
  "parent": "tcc:recipes/root",
  "rewards": {
    "function":"tcc:recipes/golden_apple_pie",
    "loot": ["tcc:recipes/golden_apple_pie"]
  },
  "criteria": {
    "has_the_recipe": {
      "trigger": "minecraft:recipe_unlocked",
      "conditions": {
        "recipe": "tcc:golden_apple_pie"
      }
    }
  }
}
