{
  "parent": "tcc:recipes/root",
  "rewards": {
    "function":"tcc:recipes/levitation_suspicious_stew",
    "loot": ["tcc:recipes/levitation_suspicious_stew"]
  },
  "criteria": {
    "has_the_recipe": {
      "trigger": "minecraft:recipe_unlocked",
      "conditions": {
        "recipe": "tcc:levitation_suspicious_stew"
      }
    }
  }
}