{
  "parent": "tcc:recipes/root",
  "rewards": {
    "recipes": [
      "tcc:saddle"
    ]
  },
  "criteria": {
    "has_ring": {
      "trigger": "minecraft:inventory_changed",
      "conditions": {
        "items": [
          {
            "item": "minecraft:repeating_command_block"
          }
        ]
      }
    },
    "has_the_recipe": {
      "trigger": "minecraft:recipe_unlocked",
      "conditions": {
        "recipe": "tcc:saddle"
      }
    }
  },
  "requirements": [
    [
      "has_ring",
      "has_the_recipe"
    ]
  ]
}