{
  "type": "minecraft:chest",
  "pools": [
    {
      "rolls": 1,
      "entries": [
        {
          "type": "minecraft:item",
          "weight": 1,
          "functions": [
            {
              "function": "minecraft:set_nbt",
              "tag": "{tcc:{Item:\"muffin\"},CustomModelData:2,display:{Name:\"{\\\"translate\\\":\\\"item.tcc.muffin\\\",\\\"italic\\\":\\\"false\\\"}\",Lore:[\"{\\\"translate\\\":\\\"tcc.lore.tooltip\\\"}\"]}}"
            }
          ],
          "name": "minecraft:tropical_fish"
        }
      ]
    }
  ]
}
