{
  "type": "minecraft:chest",
  "pools": [
    {
      "rolls": 1,
      "entries": [
        {
          "type": "minecraft:item",
          "weight": 1,
          "functions": [
            {
              "function": "minecraft:set_nbt",
              "tag": "{AttributeModifiers:[{AttributeName:\"generic.attackDamage\",Name:\"generic.attackDamage\",Amount:4,Operation:0,UUIDMost:1,UUIDLeast:1,Slot:\"mainhand\"},{AttributeName:\"generic.attackSpeed\",Name:\"generic.attackSpeed\",Amount:-2,Operation:0,UUIDMost:1,UUIDLeast:1,Slot:\"mainhand\"}],HideFlags:2,tcc:{Item:\"swordfish\"},CustomModelData:3,display:{Name:\"{\\\"translate\\\":\\\"item.tcc.swordfish\\\",\\\"italic\\\":\\\"false\\\"}\",Lore:[\"{\\\"translate\\\":\\\"tcc.lore.tooltip\\\"}\",\"{\\\"text\\\":\\\" \\\"}\",\"{\\\"translate\\\":\\\"item.modifiers.mainhand\\\",\\\"color\\\":\\\"gray\\\",\\\"italic\\\":\\\"false\\\"}\",\"[{\\\"text\\\":\\\" \\\"},{\\\"translate\\\":\\\"attribute.modifier.equals.0\\\",\\\"italic\\\":\\\"false\\\",\\\"color\\\":\\\"dark_green\\\",\\\"with\\\":[\\\"2\\\",{\\\"translate\\\":\\\"attribute.name.generic.attackSpeed\\\"}]}]\",\"[{\\\"text\\\":\\\" \\\"},{\\\"translate\\\":\\\"attribute.modifier.equals.0\\\",\\\"italic\\\":\\\"false\\\",\\\"color\\\":\\\"dark_green\\\",\\\"with\\\":[\\\"4\\\",{\\\"translate\\\":\\\"attribute.name.generic.attackDamage\\\"}]}]\"]}}"
            }
          ],
          "name": "minecraft:tropical_fish"
        }
      ]
    }
  ]
}