{
  "type": "minecraft:block",
  "pools": [
    {
      "rolls": 1,
      "entries": [
        {
          "type": "minecraft:item",
          "name": "minecraft:creeper_head",
		  "functions":[
					   {"function":"set_name",
					    "name":{
							    "bold":"true",
							    "italic":"false",
							    "color":"yellow",
						 	    "text":"Creeper Head"
							   }
					   } 
					  ]
        }
      ]
    }
  ]
}