{
  "type":"crafting_shaped",
  "group":"dyeing",

  "pattern":
  [
      "III",
      "IDI",
      "III"
  ],
  "key":
  {
    "I": {"tag":"concrete_powder_colors:not_blue"},
    "D": {"tag":"dyes:blue"}
  },
  "result":
  {
    "item": "minecraft:blue_concrete_powder",
    "count": 8
  }
}
