{
  "type":"crafting_shaped",
  "group":"dyeing",

  "pattern":
  [
      "III",
      "IDI",
      "III"
  ],
  "key":
  {
    "I": {"tag":"concrete_powder_colors:not_white"},
    "D": {"tag":"dyes:white"}
  },
  "result":
  {
    "item": "minecraft:white_concrete_powder",
    "count": 8
  }
}
