{
  "type": "minecraft:crafting_shaped",
  "group": "wooden",
  "pattern": [
    "##",
    "##"

  ],
  "key": {
    "#": {
      "item": "minecraft:dark_oak_stairs"
    }
  },
  "result": {
    "item": "minecraft:dark_oak_planks",
    "count": 3

  }
}
