{
  "type": "minecraft:crafting_shaped",
  "pattern": [
    "##",
    "##"

  ],
  "key": {
    "#": {"item": "minecraft:red_sandstone_stairs"}
  },
  "result": {
    "item": "minecraft:red_sandstone",
    "count": 3

  }
}
