############################################################
# Description: Generates a random number, either 1 or 2
# Creator: CreeperMagnet_
############################################################

function tcc:technical/random/4
execute as @s[scores={tcc.random=4}] run function tcc:technical/random/3