############################################################
# Description: Generates a random number, from 1 to 5
# Creator: CreeperMagnet_
############################################################

function tcc:technical/random/8
execute as @s[scores={tcc.random=6..8}] run function tcc:technical/random/5
