############################################################
# Description: Generates a random number, from 1 to 7
# Creator: CreeperMagnet_
############################################################

function tcc:technical/random/8
execute as @s[scores={tcc.random=8}] run function tcc:technical/random/6
