{
  "type": "minecraft:crafting_shaped",
  "group": "slabs",
  "pattern": [
    "##"
  ],
  "key": {
    "#": {
      "tag": "minecraft:acacia_log"
    }
  },
  "result": {
    "item": "minecraft:acacia_slab",
    "count": 16
  }
}
