{
  "type": "minecraft:crafting_shaped",
  "group": "decoration",
  "pattern": [
    "@  ",
    "=@ ",
    "==@"
  ],
  "key": {
    "=": {"item":"minecraft:nether_brick"},
    "@": {"item": "minecraft:nether_wart"}
  },
  "result": {
    "item": "minecraft:red_nether_brick_stairs",
    "count": 2
  }
}
