{
  "type":"crafting_shapeless",
  "group":"dyeing",

  "ingredients":
  [
    {"tag":"glazed_terracotta_colors:not_green"},
    {"tag":"dyes:green"}

  ],
  "result": {"item": "minecraft:green_glazed_terracotta"}
}
