{
  "type":"crafting_shapeless",
  "group":"dyeing",

  "ingredients":
  [
    {"tag":"glazed_terracotta_colors:not_magenta"},
    {"tag":"dyes:magenta"}

  ],
  "result": {"item": "minecraft:magenta_glazed_terracotta"}
}
