{
  "type":"crafting_shapeless",
  "group":"dyeing",

  "ingredients":
  [
    {"tag":"glazed_terracotta_colors:not_yellow"},
    {"tag":"dyes:yellow"}

  ],
  "result": {"item": "minecraft:yellow_glazed_terracotta"}
}
