{
  "type":"crafting_shapeless",
  "group":"dyeing",

  "ingredients":
  [
    {"tag":"concrete_powder_colors:not_brown"},
    {"tag":"dyes:brown"}

  ],
  "result": {"item": "minecraft:brown_concrete_powder"}
}
