{
  "type":"crafting_shapeless",
  "group":"dyeing",

  "ingredients":
  [
    {"tag":"concrete_powder_colors:not_magenta"},
    {"tag":"dyes:magenta"}

  ],
  "result": {"item": "minecraft:magenta_concrete_powder"}
}
