{
  "type":"crafting_shapeless",
  "group":"dyeing",

  "ingredients":
  [
    {"tag":"concrete_powder_colors:not_orage"},
    {"tag":"dyes:orage"}

  ],
  "result": {"item": "minecraft:orage_concrete_powder"}
}
