{
  "type":"crafting_shapeless",
  "group":"dyeing",

  "ingredients":
  [
    {"tag":"concrete_powder_colors:not_purple"},
    {"tag":"dyes:purple"}

  ],
  "result": {"item": "minecraft:purple_concrete_powder"}
}
