{
  "type":"crafting_shapeless",
  "group":"dyeing",

  "ingredients":
  [
    {"tag":"concrete_powder_colors:not_white"},
    {"tag":"dyes:white"}

  ],
  "result": {"item": "minecraft:white_concrete_powder"}
}
