{
  "values":
  [
    "minecraft:red_banner",
    "minecraft:orange_banner",
    "minecraft:yellow_banner",
    "minecraft:lime_banner",
    "minecraft:green_banner",

    "minecraft:light_blue_banner",
    "minecraft:blue_banner",
    "minecraft:purple_banner",
    "minecraft:magenta_banner",
    "minecraft:pink_banner",
    "minecraft:white_banner",
    "minecraft:light_gray_banner",
    "minecraft:gray_banner",
    "minecraft:black_banner",
    "minecraft:brown_banner"
  ]
}
