{
    "pools": [
        {
            "rolls": 1,
            "entries": [
                {
                    "type": "item",
                    "weight": 1,
                    "name": "minecraft:diamond_sword",
                    "functions": [
                        {
                           "function": "copy_nbt",
                           "source": "this",
                           "ops": [
                               {
                                   "source": "SelectedItem.tag.tcc",
                                   "target": "tcc",
                                   "op": "replace"
                               },
                               {
                                   "source": "SelectedItem.tag.Enchantments",
                                   "target": "Enchantments",
                                   "op": "replace"
                               },
                               {
                                   "source": "SelectedItem.tag.display.Name",
                                   "target": "display.Name",
                                   "op": "replace"
                               },
                               {
                                   "source": "SelectedItem.tag.Damage",
                                   "target": "Damage",
                                   "op": "replace"
                               },
                               {
                                   "source": "SelectedItem.tag.Unbreakable",
                                   "target": "Unbreakable",
                                   "op": "replace"
                               },
                               {
                                   "source": "SelectedItem.tag.HideFlags",
                                   "target": "HideFlags",
                                   "op": "replace"
                               },
                               {
                                   "source": "SelectedItem.tag.AttributeModifiers",
                                   "target": "AttributeModifiers",
                                   "op": "replace"
                               },
                               {
                                   "source": "SelectedItem.tag.CustomModelData",
                                   "target": "CustomModelData",
                                   "op": "replace"
                               },
                               {
                                   "source": "SelectedItem.tag.tcc_storage.Lore[-20]",
                                   "target": "display.Lore",
                                   "op": "append"
                               },
                               {
                                   "source": "SelectedItem.tag.tcc_storage.Lore[-19]",
                                   "target": "display.Lore",
                                   "op": "append"
                               },
                               {
                                   "source": "SelectedItem.tag.tcc_storage.Lore[-18]",
                                   "target": "display.Lore",
                                   "op": "append"
                               },
                               {
                                   "source": "SelectedItem.tag.tcc_storage.Lore[-17]",
                                   "target": "display.Lore",
                                   "op": "append"
                               },
                               {
                                   "source": "SelectedItem.tag.tcc_storage.Lore[-16]",
                                   "target": "display.Lore",
                                   "op": "append"
                               },
                               {
                                   "source": "SelectedItem.tag.tcc_storage.Lore[-15]",
                                   "target": "display.Lore",
                                   "op": "append"
                               },
                               {
                                   "source": "SelectedItem.tag.tcc_storage.Lore[-14]",
                                   "target": "display.Lore",
                                   "op": "append"
                               },
                               {
                                   "source": "SelectedItem.tag.tcc_storage.Lore[-13]",
                                   "target": "display.Lore",
                                   "op": "append"
                               },
                               {
                                   "source": "SelectedItem.tag.tcc_storage.Lore[-12]",
                                   "target": "display.Lore",
                                   "op": "append"
                               },
                               {
                                   "source": "SelectedItem.tag.tcc_storage.Lore[-11]",
                                   "target": "display.Lore",
                                   "op": "append"
                               },
                               {
                                   "source": "SelectedItem.tag.tcc_storage.Lore[-10]",
                                   "target": "display.Lore",
                                   "op": "append"
                               },
                               {
                                   "source": "SelectedItem.tag.tcc_storage.Lore[-9]",
                                   "target": "display.Lore",
                                   "op": "append"
                               },
                               {
                                   "source": "SelectedItem.tag.tcc_storage.Lore[-8]",
                                   "target": "display.Lore",
                                   "op": "append"
                               },
                               {
                                   "source": "SelectedItem.tag.tcc_storage.Lore[-7]",
                                   "target": "display.Lore",
                                   "op": "append"
                               },
                               {
                                   "source": "SelectedItem.tag.tcc_storage.Lore[-6]",
                                   "target": "display.Lore",
                                   "op": "append"
                               },
                               {
                                   "source": "SelectedItem.tag.tcc_storage.Lore[-5]",
                                   "target": "display.Lore",
                                   "op": "append"
                               },
                               {
                                   "source": "SelectedItem.tag.tcc_storage.Lore[-4]",
                                   "target": "display.Lore",
                                   "op": "append"
                               },
                               {
                                   "source": "SelectedItem.tag.tcc_storage.Lore[-3]",
                                   "target": "display.Lore",
                                   "op": "append"
                               },
                               {
                                   "source": "SelectedItem.tag.tcc_storage.Lore[-2]",
                                   "target": "display.Lore",
                                   "op": "append"
                               },
                               {
                                   "source": "SelectedItem.tag.display.Lore[0]",
                                   "target": "display.Lore",
                                   "op": "append"
                               }
                        	 ],
                     		"conditions":[
                         		{
                            			"condition": "inverted",
                            			"term": {
                         				"condition": "entity_properties",
                         				"entity": "this",
                         				"predicate": {
                         					"nbt":"{SelectedItem:{tag:{tcc:{Potion:\"minecraft:healing\"}}}}"
                         				}
                         			}
                         		},
                         		{
                            			"condition": "inverted",
                            			"term": {
                         				"condition": "entity_properties",
                         				"entity": "this",
                         				"predicate": {
                         					"nbt":"{SelectedItem:{tag:{tcc:{Potion:\"minecraft:strong_healing\"}}}}"
                         				}
                         			}
                         		}
                         	]
                        },
                        {
                           "function": "copy_nbt",
                           "source": "this",
                           "ops": [
                               {
                                   "source": "SelectedItem.tag.tcc",
                                   "target": "tcc",
                                   "op": "replace"
                               },
                               {
                                   "source": "SelectedItem.tag.Enchantments",
                                   "target": "Enchantments",
                                   "op": "replace"
                               },
                               {
                                   "source": "SelectedItem.tag.display.Name",
                                   "target": "display.Name",
                                   "op": "replace"
                               },
                               {
                                   "source": "SelectedItem.tag.Damage",
                                   "target": "Damage",
                                   "op": "replace"
                               },
                               {
                                   "source": "SelectedItem.tag.Unbreakable",
                                   "target": "Unbreakable",
                                   "op": "replace"
                               },
                               {
                                   "source": "SelectedItem.tag.HideFlags",
                                   "target": "HideFlags",
                                   "op": "replace"
                               },
                               {
                                   "source": "SelectedItem.tag.AttributeModifiers",
                                   "target": "AttributeModifiers",
                                   "op": "replace"
                               },
                               {
                                   "source": "SelectedItem.tag.CustomModelData",
                                   "target": "CustomModelData",
                                   "op": "replace"
                               },
                               {
                                   "source": "SelectedItem.tag.tcc_storage.Lore[-20]",
                                   "target": "display.Lore",
                                   "op": "append"
                               },
                               {
                                   "source": "SelectedItem.tag.tcc_storage.Lore[-19]",
                                   "target": "display.Lore",
                                   "op": "append"
                               },
                               {
                                   "source": "SelectedItem.tag.tcc_storage.Lore[-18]",
                                   "target": "display.Lore",
                                   "op": "append"
                               },
                               {
                                   "source": "SelectedItem.tag.tcc_storage.Lore[-17]",
                                   "target": "display.Lore",
                                   "op": "append"
                               },
                               {
                                   "source": "SelectedItem.tag.tcc_storage.Lore[-16]",
                                   "target": "display.Lore",
                                   "op": "append"
                               },
                               {
                                   "source": "SelectedItem.tag.tcc_storage.Lore[-15]",
                                   "target": "display.Lore",
                                   "op": "append"
                               },
                               {
                                   "source": "SelectedItem.tag.tcc_storage.Lore[-14]",
                                   "target": "display.Lore",
                                   "op": "append"
                               },
                               {
                                   "source": "SelectedItem.tag.tcc_storage.Lore[-13]",
                                   "target": "display.Lore",
                                   "op": "append"
                               },
                               {
                                   "source": "SelectedItem.tag.tcc_storage.Lore[-12]",
                                   "target": "display.Lore",
                                   "op": "append"
                               },
                               {
                                   "source": "SelectedItem.tag.tcc_storage.Lore[-11]",
                                   "target": "display.Lore",
                                   "op": "append"
                               },
                               {
                                   "source": "SelectedItem.tag.tcc_storage.Lore[-10]",
                                   "target": "display.Lore",
                                   "op": "append"
                               },
                               {
                                   "source": "SelectedItem.tag.tcc_storage.Lore[-9]",
                                   "target": "display.Lore",
                                   "op": "append"
                               },
                               {
                                   "source": "SelectedItem.tag.tcc_storage.Lore[-8]",
                                   "target": "display.Lore",
                                   "op": "append"
                               },
                               {
                                   "source": "SelectedItem.tag.tcc_storage.Lore[-7]",
                                   "target": "display.Lore",
                                   "op": "append"
                               },
                               {
                                   "source": "SelectedItem.tag.tcc_storage.Lore[-6]",
                                   "target": "display.Lore",
                                   "op": "append"
                               },
                               {
                                   "source": "SelectedItem.tag.display.Lore[0]",
                                   "target": "display.Lore",
                                   "op": "append"
                               },
                               {
                                   "source": "SelectedItem.tag.tcc_storage.Lore[-4]",
                                   "target": "display.Lore",
                                   "op": "append"
                               },
                               {
                                   "source": "SelectedItem.tag.tcc_storage.Lore[-3]",
                                   "target": "display.Lore",
                                   "op": "append"
                               },
                               {
                                   "source": "SelectedItem.tag.tcc_storage.Lore[-2]",
                                   "target": "display.Lore",
                                   "op": "append"
                               },
                               {
                                   "source": "SelectedItem.tag.tcc_storage.Lore[-1]",
                                   "target": "display.Lore",
                                   "op": "append"
                               }
                        	 ],
                     		"conditions":[
                         		{
                            			"condition": "alternative",
                            			"terms": [
                            			  {
                         					  "condition": "entity_properties",
                         					  "entity": "this",
                         					  "predicate": {
                         						  "nbt":"{SelectedItem:{tag:{tcc:{Potion:\"minecraft:healing\"}}}}"
                         					  }
                         				  },
                         				  {
                         					  "condition": "entity_properties",
                         					  "entity": "this",
                         					  "predicate": {
                         						  "nbt":"{SelectedItem:{tag:{tcc:{Potion:\"minecraft:strong_healing\"}}}}"
                         					  }
                         				  }
                         			  ]
                         		}
                         	]
                        }
                    ]
                }
            ]
        }
    ]
}
