############################################################
# Description: Sets a random boomerang charm
# Creator: CreeperMagnet_
############################################################

function tcc:technical/random/7
execute as @s[scores={tcc.random=1}] run data modify entity @s Offers.Recipes append value {maxUses:8,buyB:{id:"minecraft:carrot_on_a_stick",Count:1b,tag:{Unbreakable:1b,CustomModelData:1,HideFlags:4,tcc:{Item:"boomerang",Durability:300,Tags:["mendable"]},display:{Lore:['{"translate":"tcc.lore.durability","with":[300,300]}','{"translate":"tcc.lore.tooltip"}'], Name: '{"translate":"item.tcc.boomerang","italic":"false"}'}}},buy:{id:"minecraft:emerald",Count:1b},sell:{Count:1b,id:"minecraft:carrot_on_a_stick",tag:{Unbreakable:1b,CustomModelData:2,HideFlags:4,tcc:{Item:"boomerang",Durability:300,Charms:["bouncing"],Tags:["mendable"]},display:{Lore:["{\"color\":\"dark_green\",\"italic\":\"false\",\"translate\":\"tcc.lore.charms.prefix\",\"with\":[{\"translate\":\"tcc.lore.charms.bouncing\"}]}",'{"translate":"tcc.lore.durability","with":[300,300]}','{"translate":"tcc.lore.tooltip"}'], Name: '{"translate":"item.tcc.boomerang","italic":"false"}'}}},xp:1,uses:0,priceMultipler:0.2f,specialPrice:0,demand:0}
execute as @s[scores={tcc.random=2}] run data modify entity @s Offers.Recipes append value {maxUses:8,buyB:{id:"minecraft:carrot_on_a_stick",Count:1b,tag:{Unbreakable:1b,CustomModelData:1,HideFlags:4,tcc:{Item:"boomerang",Durability:300,Tags:["mendable"]},display:{Lore:['{"translate":"tcc.lore.durability","with":[300,300]}','{"translate":"tcc.lore.tooltip"}'], Name: '{"translate":"item.tcc.boomerang","italic":"false"}'}}},buy:{id:"minecraft:emerald",Count:1b},sell:{Count:1b,id:"minecraft:carrot_on_a_stick",tag:{Unbreakable:1b,CustomModelData:2,HideFlags:4,tcc:{Item:"boomerang",Durability:300,Charms:["seeking"],Tags:["mendable"]},display:{Lore:["{\"color\":\"dark_green\",\"italic\":\"false\",\"translate\":\"tcc.lore.charms.prefix\",\"with\":[{\"translate\":\"tcc.lore.charms.seeking\"}]}",'{"translate":"tcc.lore.durability","with":[300,300]}','{"translate":"tcc.lore.tooltip"}'], Name: '{"translate":"item.tcc.boomerang","italic":"false"}'}}},xp:1,uses:0,priceMultipler:0.2f,specialPrice:0,demand:0}
execute as @s[scores={tcc.random=3}] run data modify entity @s Offers.Recipes append value {maxUses:8,buyB:{id:"minecraft:carrot_on_a_stick",Count:1b,tag:{Unbreakable:1b,CustomModelData:1,HideFlags:4,tcc:{Item:"boomerang",Durability:300,Tags:["mendable"]},display:{Lore:['{"translate":"tcc.lore.durability","with":[300,300]}','{"translate":"tcc.lore.tooltip"}'], Name: '{"translate":"item.tcc.boomerang","italic":"false"}'}}},buy:{id:"minecraft:emerald",Count:1b},sell:{Count:1b,id:"minecraft:carrot_on_a_stick",tag:{Unbreakable:1b,CustomModelData:2,HideFlags:4,tcc:{Item:"boomerang",Durability:300,Charms:["flowing"],Tags:["mendable"]},display:{Lore:["{\"color\":\"dark_green\",\"italic\":\"false\",\"translate\":\"tcc.lore.charms.prefix\",\"with\":[{\"translate\":\"tcc.lore.charms.flowing\"}]}",'{"translate":"tcc.lore.durability","with":[300,300]}','{"translate":"tcc.lore.tooltip"}'], Name: '{"translate":"item.tcc.boomerang","italic":"false"}'}}},xp:1,uses:0,priceMultipler:0.2f,specialPrice:0,demand:0}
execute as @s[scores={tcc.random=4}] run data modify entity @s Offers.Recipes append value {maxUses:8,buyB:{id:"minecraft:carrot_on_a_stick",Count:1b,tag:{Unbreakable:1b,CustomModelData:1,HideFlags:4,tcc:{Item:"boomerang",Durability:300,Tags:["mendable"]},display:{Lore:['{"translate":"tcc.lore.durability","with":[300,300]}','{"translate":"tcc.lore.tooltip"}'], Name: '{"translate":"item.tcc.boomerang","italic":"false"}'}}},buy:{id:"minecraft:emerald",Count:1b},sell:{Count:1b,id:"minecraft:carrot_on_a_stick",tag:{Unbreakable:1b,CustomModelData:2,HideFlags:4,tcc:{Item:"boomerang",Durability:300,Charms:["bouncing","seeking"],Tags:["mendable"]},display:{Lore:["{\"color\":\"dark_green\",\"italic\":\"false\",\"translate\":\"tcc.lore.charms.prefix\",\"with\":[{\"translate\":\"tcc.lore.charms.bouncing\"}]}","{\"color\":\"dark_green\",\"italic\":\"false\",\"translate\":\"tcc.lore.charms.prefix\",\"with\":[{\"translate\":\"tcc.lore.charms.seeking\"}]}",'{"translate":"tcc.lore.durability","with":[300,300]}','{"translate":"tcc.lore.tooltip"}'], Name: '{"translate":"item.tcc.boomerang","italic":"false"}'}}},xp:1,uses:0,priceMultipler:0.2f,specialPrice:0,demand:0}
execute as @s[scores={tcc.random=5}] run data modify entity @s Offers.Recipes append value {maxUses:8,buyB:{id:"minecraft:carrot_on_a_stick",Count:1b,tag:{Unbreakable:1b,CustomModelData:1,HideFlags:4,tcc:{Item:"boomerang",Durability:300,Tags:["mendable"]},display:{Lore:['{"translate":"tcc.lore.durability","with":[300,300]}','{"translate":"tcc.lore.tooltip"}'], Name: '{"translate":"item.tcc.boomerang","italic":"false"}'}}},buy:{id:"minecraft:emerald",Count:1b},sell:{Count:1b,id:"minecraft:carrot_on_a_stick",tag:{Unbreakable:1b,CustomModelData:2,HideFlags:4,tcc:{Item:"boomerang",Durability:300,Charms:["bouncing","flowing"],Tags:["mendable"]},display:{Lore:["{\"color\":\"dark_green\",\"italic\":\"false\",\"translate\":\"tcc.lore.charms.prefix\",\"with\":[{\"translate\":\"tcc.lore.charms.bouncing\"}]}","{\"color\":\"dark_green\",\"italic\":\"false\",\"translate\":\"tcc.lore.charms.prefix\",\"with\":[{\"translate\":\"tcc.lore.charms.flowing\"}]}",'{"translate":"tcc.lore.durability","with":[300,300]}','{"translate":"tcc.lore.tooltip"}'], Name: '{"translate":"item.tcc.boomerang","italic":"false"}'}}},xp:1,uses:0,priceMultipler:0.2f,specialPrice:0,demand:0}
execute as @s[scores={tcc.random=6}] run data modify entity @s Offers.Recipes append value {maxUses:8,buyB:{id:"minecraft:carrot_on_a_stick",Count:1b,tag:{Unbreakable:1b,CustomModelData:1,HideFlags:4,tcc:{Item:"boomerang",Durability:300,Tags:["mendable"]},display:{Lore:['{"translate":"tcc.lore.durability","with":[300,300]}','{"translate":"tcc.lore.tooltip"}'], Name: '{"translate":"item.tcc.boomerang","italic":"false"}'}}},buy:{id:"minecraft:emerald",Count:1b},sell:{Count:1b,id:"minecraft:carrot_on_a_stick",tag:{Unbreakable:1b,CustomModelData:2,HideFlags:4,tcc:{Item:"boomerang",Durability:300,Charms:["seeking","flowing"],Tags:["mendable"]},display:{Lore:["{\"color\":\"dark_green\",\"italic\":\"false\",\"translate\":\"tcc.lore.charms.prefix\",\"with\":[{\"translate\":\"tcc.lore.charms.seeking\"}]}","{\"color\":\"dark_green\",\"italic\":\"false\",\"translate\":\"tcc.lore.charms.prefix\",\"with\":[{\"translate\":\"tcc.lore.charms.flowing\"}]}",'{"translate":"tcc.lore.durability","with":[300,300]}','{"translate":"tcc.lore.tooltip"}'], Name: '{"translate":"item.tcc.boomerang","italic":"false"}'}}},xp:1,uses:0,priceMultipler:0.2f,specialPrice:0,demand:0}
execute as @s[scores={tcc.random=7}] run data modify entity @s Offers.Recipes append value {maxUses:8,buyB:{id:"minecraft:carrot_on_a_stick",Count:1b,tag:{Unbreakable:1b,CustomModelData:1,HideFlags:4,tcc:{Item:"boomerang",Durability:300,Tags:["mendable"]},display:{Lore:['{"translate":"tcc.lore.durability","with":[300,300]}','{"translate":"tcc.lore.tooltip"}'], Name: '{"translate":"item.tcc.boomerang","italic":"false"}'}}},buy:{id:"minecraft:emerald",Count:1b},sell:{Count:1b,id:"minecraft:carrot_on_a_stick",tag:{Unbreakable:1b,CustomModelData:2,HideFlags:4,tcc:{Item:"boomerang",Durability:300,Charms:["bouncing","seeking","flowing"],Tags:["mendable"]},display:{Lore:["{\"color\":\"dark_green\",\"italic\":\"false\",\"translate\":\"tcc.lore.charms.prefix\",\"with\":[{\"translate\":\"tcc.lore.charms.bouncing\"}]}","{\"color\":\"dark_green\",\"italic\":\"false\",\"translate\":\"tcc.lore.charms.prefix\",\"with\":[{\"translate\":\"tcc.lore.charms.seeking\"}]}","{\"color\":\"dark_green\",\"italic\":\"false\",\"translate\":\"tcc.lore.charms.prefix\",\"with\":[{\"translate\":\"tcc.lore.charms.flowing\"}]}",'{"translate":"tcc.lore.durability","with":[300,300]}','{"translate":"tcc.lore.tooltip"}'], Name: '{"translate":"item.tcc.boomerang","italic":"false"}'}}},xp:1,uses:0,priceMultipler:0.2f,specialPrice:0,demand:0}



scoreboard players reset @s tcc.random
