############################################################
# Description: Sets a random obsidian scythe charm
# Creator: CreeperMagnet_
############################################################

function tcc:technical/random/7
execute as @s[scores={tcc.random=1}] run data modify entity @s Offers.Recipes append value {maxUses:8,buyB:{id:"minecraft:carrot_on_a_stick",Count:1b,tag:{CustomModelData:13,HideFlags:6,Unbreakable:1b,tcc:{Item:"obsidian_scythe",Durability:750,Tags:["mendable"]},display:{Lore:['{"text":" "}','{"translate":"item.modifiers.mainhand","color":"gray","italic":"false"}','[{"text":" "},{"translate":"attribute.modifier.equals.0","italic":"false","color":"dark_green","with":["3.5",{"translate":"attribute.name.generic.attackSpeed"}]}]','[{"text":" "},{"translate":"attribute.modifier.equals.0","italic":"false","color":"dark_green","with":["2",{"translate":"attribute.name.generic.attackDamage"}]}]','{"translate":"tcc.lore.durability","with":[750,750]}','{"translate":"tcc.lore.tooltip"}'],Name:'{"translate":"item.tcc.obsidian_scythe","italic":"false"}'}}},buy:{id:"minecraft:emerald",Count:1b},sell:{Count:1b,id:"minecraft:carrot_on_a_stick",tag:{CustomModelData:21,HideFlags:6,Unbreakable:1b,tcc:{Item:"obsidian_scythe",Durability:750,Charms:["reaping"],Tags:["mendable","charmed_item_tick"]},display:{Lore:["{\"color\":\"dark_green\",\"italic\":\"false\",\"translate\":\"tcc.lore.charms.prefix\",\"with\":[{\"translate\":\"tcc.lore.charms.reaping\"}]}",'{"text":" "}','{"translate":"item.modifiers.mainhand","color":"gray","italic":"false"}','[{"text":" "},{"translate":"attribute.modifier.equals.0","italic":"false","color":"dark_green","with":["3.5",{"translate":"attribute.name.generic.attackSpeed"}]}]','[{"text":" "},{"translate":"attribute.modifier.equals.0","italic":"false","color":"dark_green","with":["2",{"translate":"attribute.name.generic.attackDamage"}]}]','{"translate":"tcc.lore.durability","with":[750,750]}','{"translate":"tcc.lore.tooltip"}'],Name:'{"translate":"item.tcc.obsidian_scythe","italic":"false"}'}}},xp:1,uses:0,priceMultipler:0.2f,specialPrice:0,demand:0}
execute as @s[scores={tcc.random=2}] run data modify entity @s Offers.Recipes append value {maxUses:8,buyB:{id:"minecraft:carrot_on_a_stick",Count:1b,tag:{CustomModelData:13,HideFlags:6,Unbreakable:1b,tcc:{Item:"obsidian_scythe",Durability:750,Tags:["mendable"]},display:{Lore:['{"text":" "}','{"translate":"item.modifiers.mainhand","color":"gray","italic":"false"}','[{"text":" "},{"translate":"attribute.modifier.equals.0","italic":"false","color":"dark_green","with":["3.5",{"translate":"attribute.name.generic.attackSpeed"}]}]','[{"text":" "},{"translate":"attribute.modifier.equals.0","italic":"false","color":"dark_green","with":["2",{"translate":"attribute.name.generic.attackDamage"}]}]','{"translate":"tcc.lore.durability","with":[750,750]}','{"translate":"tcc.lore.tooltip"}'],Name:'{"translate":"item.tcc.obsidian_scythe","italic":"false"}'}}},buy:{id:"minecraft:emerald",Count:1b},sell:{Count:1b,id:"minecraft:carrot_on_a_stick",tag:{CustomModelData:21,HideFlags:6,Unbreakable:1b,tcc:{Item:"obsidian_scythe",Durability:750,Charms:["leeching"],Tags:["mendable"]},display:{Lore:["{\"color\":\"dark_green\",\"italic\":\"false\",\"translate\":\"tcc.lore.charms.prefix\",\"with\":[{\"translate\":\"tcc.lore.charms.leeching\"}]}",'{"text":" "}','{"translate":"item.modifiers.mainhand","color":"gray","italic":"false"}','[{"text":" "},{"translate":"attribute.modifier.equals.0","italic":"false","color":"dark_green","with":["3.5",{"translate":"attribute.name.generic.attackSpeed"}]}]','[{"text":" "},{"translate":"attribute.modifier.equals.0","italic":"false","color":"dark_green","with":["2",{"translate":"attribute.name.generic.attackDamage"}]}]','{"translate":"tcc.lore.durability","with":[750,750]}','{"translate":"tcc.lore.tooltip"}'],Name:'{"translate":"item.tcc.obsidian_scythe","italic":"false"}'}}},xp:1,uses:0,priceMultipler:0.2f,specialPrice:0,demand:0}
execute as @s[scores={tcc.random=3}] run data modify entity @s Offers.Recipes append value {maxUses:8,buyB:{id:"minecraft:carrot_on_a_stick",Count:1b,tag:{CustomModelData:13,HideFlags:6,Unbreakable:1b,tcc:{Item:"obsidian_scythe",Durability:750,Tags:["mendable"]},display:{Lore:['{"text":" "}','{"translate":"item.modifiers.mainhand","color":"gray","italic":"false"}','[{"text":" "},{"translate":"attribute.modifier.equals.0","italic":"false","color":"dark_green","with":["3.5",{"translate":"attribute.name.generic.attackSpeed"}]}]','[{"text":" "},{"translate":"attribute.modifier.equals.0","italic":"false","color":"dark_green","with":["2",{"translate":"attribute.name.generic.attackDamage"}]}]','{"translate":"tcc.lore.durability","with":[750,750]}','{"translate":"tcc.lore.tooltip"}'],Name:'{"translate":"item.tcc.obsidian_scythe","italic":"false"}'}}},buy:{id:"minecraft:emerald",Count:1b},sell:{Count:1b,id:"minecraft:carrot_on_a_stick",tag:{CustomModelData:21,HideFlags:6,Unbreakable:1b,tcc:{Item:"obsidian_scythe",Durability:750,Charms:["reaping","leeching"],Tags:["mendable","charmed_item_tick"]},display:{Lore:["{\"color\":\"dark_green\",\"italic\":\"false\",\"translate\":\"tcc.lore.charms.prefix\",\"with\":[{\"translate\":\"tcc.lore.charms.reaping\"}]}","{\"color\":\"dark_green\",\"italic\":\"false\",\"translate\":\"tcc.lore.charms.prefix\",\"with\":[{\"translate\":\"tcc.lore.charms.leeching\"}]}",'{"text":" "}','{"translate":"item.modifiers.mainhand","color":"gray","italic":"false"}','[{"text":" "},{"translate":"attribute.modifier.equals.0","italic":"false","color":"dark_green","with":["3.5",{"translate":"attribute.name.generic.attackSpeed"}]}]','[{"text":" "},{"translate":"attribute.modifier.equals.0","italic":"false","color":"dark_green","with":["2",{"translate":"attribute.name.generic.attackDamage"}]}]','{"translate":"tcc.lore.durability","with":[750,750]}','{"translate":"tcc.lore.tooltip"}'],Name:'{"translate":"item.tcc.obsidian_scythe","italic":"false"}'}}},xp:1,uses:0,priceMultipler:0.2f,specialPrice:0,demand:0}

execute as @s[scores={tcc.random=4}] run data modify entity @s Offers.Recipes append value {maxUses:8,buyB:{id:"minecraft:carrot_on_a_stick",Count:1b,tag:{CustomModelData:13,HideFlags:6,Unbreakable:1b,tcc:{Item:"obsidian_scythe",Durability:750,Tags:["mendable"]},display:{Lore:['{"text":" "}','{"translate":"item.modifiers.mainhand","color":"gray","italic":"false"}','[{"text":" "},{"translate":"attribute.modifier.equals.0","italic":"false","color":"dark_green","with":["3.5",{"translate":"attribute.name.generic.attackSpeed"}]}]','[{"text":" "},{"translate":"attribute.modifier.equals.0","italic":"false","color":"dark_green","with":["2",{"translate":"attribute.name.generic.attackDamage"}]}]','{"translate":"tcc.lore.durability","with":[750,750]}','{"translate":"tcc.lore.tooltip"}'],Name:'{"translate":"item.tcc.obsidian_scythe","italic":"false"}'}}},buy:{id:"minecraft:emerald",Count:1b},sell:{Count:1b,id:"minecraft:carrot_on_a_stick",tag:{CustomModelData:23,HideFlags:6,Unbreakable:1b,tcc:{Item:"obsidian_scythe",Durability:750,Charms:["reaping"],Hexes:["rotting"],Tags:["mendable","charmed_item_tick"]},display:{Lore:["{\"color\":\"dark_green\",\"italic\":\"false\",\"translate\":\"tcc.lore.charms.prefix\",\"with\":[{\"translate\":\"tcc.lore.charms.reaping\"}]}","{\"color\":\"dark_red\",\"italic\":\"false\",\"translate\":\"tcc.lore.hexes.prefix\",\"with\":[{\"translate\":\"tcc.lore.hexes.rotting\"}]}",'{"text":" "}','{"translate":"item.modifiers.mainhand","color":"gray","italic":"false"}','[{"text":" "},{"translate":"attribute.modifier.equals.0","italic":"false","color":"dark_green","with":["3.5",{"translate":"attribute.name.generic.attackSpeed"}]}]','[{"text":" "},{"translate":"attribute.modifier.equals.0","italic":"false","color":"dark_green","with":["2",{"translate":"attribute.name.generic.attackDamage"}]}]','{"translate":"tcc.lore.durability","with":[750,750]}','{"translate":"tcc.lore.tooltip"}'],Name:'{"translate":"item.tcc.obsidian_scythe","italic":"false"}'}}},xp:1,uses:0,priceMultipler:0.2f,specialPrice:0,demand:0}
execute as @s[scores={tcc.random=5}] run data modify entity @s Offers.Recipes append value {maxUses:8,buyB:{id:"minecraft:carrot_on_a_stick",Count:1b,tag:{CustomModelData:13,HideFlags:6,Unbreakable:1b,tcc:{Item:"obsidian_scythe",Durability:750,Tags:["mendable"]},display:{Lore:['{"text":" "}','{"translate":"item.modifiers.mainhand","color":"gray","italic":"false"}','[{"text":" "},{"translate":"attribute.modifier.equals.0","italic":"false","color":"dark_green","with":["3.5",{"translate":"attribute.name.generic.attackSpeed"}]}]','[{"text":" "},{"translate":"attribute.modifier.equals.0","italic":"false","color":"dark_green","with":["2",{"translate":"attribute.name.generic.attackDamage"}]}]','{"translate":"tcc.lore.durability","with":[750,750]}','{"translate":"tcc.lore.tooltip"}'],Name:'{"translate":"item.tcc.obsidian_scythe","italic":"false"}'}}},buy:{id:"minecraft:emerald",Count:1b},sell:{Count:1b,id:"minecraft:carrot_on_a_stick",tag:{CustomModelData:23,HideFlags:6,Unbreakable:1b,tcc:{Item:"obsidian_scythe",Durability:750,Charms:["leeching"],Hexes:["rotting"],Tags:["mendable"]},display:{Lore:["{\"color\":\"dark_green\",\"italic\":\"false\",\"translate\":\"tcc.lore.charms.prefix\",\"with\":[{\"translate\":\"tcc.lore.charms.leeching\"}]}","{\"color\":\"dark_red\",\"italic\":\"false\",\"translate\":\"tcc.lore.hexes.prefix\",\"with\":[{\"translate\":\"tcc.lore.hexes.rotting\"}]}",'{"text":" "}','{"translate":"item.modifiers.mainhand","color":"gray","italic":"false"}','[{"text":" "},{"translate":"attribute.modifier.equals.0","italic":"false","color":"dark_green","with":["3.5",{"translate":"attribute.name.generic.attackSpeed"}]}]','[{"text":" "},{"translate":"attribute.modifier.equals.0","italic":"false","color":"dark_green","with":["2",{"translate":"attribute.name.generic.attackDamage"}]}]','{"translate":"tcc.lore.durability","with":[750,750]}','{"translate":"tcc.lore.tooltip"}'],Name:'{"translate":"item.tcc.obsidian_scythe","italic":"false"}'}}},xp:1,uses:0,priceMultipler:0.2f,specialPrice:0,demand:0}
execute as @s[scores={tcc.random=6}] run data modify entity @s Offers.Recipes append value {maxUses:8,buyB:{id:"minecraft:carrot_on_a_stick",Count:1b,tag:{CustomModelData:13,HideFlags:6,Unbreakable:1b,tcc:{Item:"obsidian_scythe",Durability:750,Tags:["mendable"]},display:{Lore:['{"text":" "}','{"translate":"item.modifiers.mainhand","color":"gray","italic":"false"}','[{"text":" "},{"translate":"attribute.modifier.equals.0","italic":"false","color":"dark_green","with":["3.5",{"translate":"attribute.name.generic.attackSpeed"}]}]','[{"text":" "},{"translate":"attribute.modifier.equals.0","italic":"false","color":"dark_green","with":["2",{"translate":"attribute.name.generic.attackDamage"}]}]','{"translate":"tcc.lore.durability","with":[750,750]}','{"translate":"tcc.lore.tooltip"}'],Name:'{"translate":"item.tcc.obsidian_scythe","italic":"false"}'}}},buy:{id:"minecraft:emerald",Count:1b},sell:{Count:1b,id:"minecraft:carrot_on_a_stick",tag:{CustomModelData:23,HideFlags:6,Unbreakable:1b,tcc:{Item:"obsidian_scythe",Durability:750,Charms:["reaping","leeching"],Hexes:["rotting"],Tags:["mendable","charmed_item_tick"]},display:{Lore:["{\"color\":\"dark_green\",\"italic\":\"false\",\"translate\":\"tcc.lore.charms.prefix\",\"with\":[{\"translate\":\"tcc.lore.charms.reaping\"}]}","{\"color\":\"dark_green\",\"italic\":\"false\",\"translate\":\"tcc.lore.charms.prefix\",\"with\":[{\"translate\":\"tcc.lore.charms.leeching\"}]}","{\"color\":\"dark_red\",\"italic\":\"false\",\"translate\":\"tcc.lore.hexes.prefix\",\"with\":[{\"translate\":\"tcc.lore.hexes.rotting\"}]}",'{"text":" "}','{"translate":"item.modifiers.mainhand","color":"gray","italic":"false"}','[{"text":" "},{"translate":"attribute.modifier.equals.0","italic":"false","color":"dark_green","with":["3.5",{"translate":"attribute.name.generic.attackSpeed"}]}]','[{"text":" "},{"translate":"attribute.modifier.equals.0","italic":"false","color":"dark_green","with":["2",{"translate":"attribute.name.generic.attackDamage"}]}]','{"translate":"tcc.lore.durability","with":[750,750]}','{"translate":"tcc.lore.tooltip"}'],Name:'{"translate":"item.tcc.obsidian_scythe","italic":"false"}'}}},xp:1,uses:0,priceMultipler:0.2f,specialPrice:0,demand:0}

execute as @s[scores={tcc.random=7}] run data modify entity @s Offers.Recipes append value {maxUses:8,buyB:{id:"minecraft:carrot_on_a_stick",Count:1b,tag:{CustomModelData:13,HideFlags:6,Unbreakable:1b,tcc:{Item:"obsidian_scythe",Durability:750,Tags:["mendable"]},display:{Lore:['{"text":" "}','{"translate":"item.modifiers.mainhand","color":"gray","italic":"false"}','[{"text":" "},{"translate":"attribute.modifier.equals.0","italic":"false","color":"dark_green","with":["3.5",{"translate":"attribute.name.generic.attackSpeed"}]}]','[{"text":" "},{"translate":"attribute.modifier.equals.0","italic":"false","color":"dark_green","with":["2",{"translate":"attribute.name.generic.attackDamage"}]}]','{"translate":"tcc.lore.durability","with":[750,750]}','{"translate":"tcc.lore.tooltip"}'],Name:'{"translate":"item.tcc.obsidian_scythe","italic":"false"}'}}},buy:{id:"minecraft:emerald",Count:1b},sell:{Count:1b,id:"minecraft:carrot_on_a_stick",tag:{CustomModelData:22,HideFlags:6,Unbreakable:1b,tcc:{Item:"obsidian_scythe",Durability:750,Hexes:["rotting"],Tags:["mendable"]},display:{Lore:["{\"color\":\"dark_red\",\"italic\":\"false\",\"translate\":\"tcc.lore.hexes.prefix\",\"with\":[{\"translate\":\"tcc.lore.hexes.rotting\"}]}",'{"text":" "}','{"translate":"item.modifiers.mainhand","color":"gray","italic":"false"}','[{"text":" "},{"translate":"attribute.modifier.equals.0","italic":"false","color":"dark_green","with":["3.5",{"translate":"attribute.name.generic.attackSpeed"}]}]','[{"text":" "},{"translate":"attribute.modifier.equals.0","italic":"false","color":"dark_green","with":["2",{"translate":"attribute.name.generic.attackDamage"}]}]','{"translate":"tcc.lore.durability","with":[750,750]}','{"translate":"tcc.lore.tooltip"}'],Name:'{"translate":"item.tcc.obsidian_scythe","italic":"false"}'}}},xp:1,uses:0,priceMultipler:0.2f,specialPrice:0,demand:0}

scoreboard players reset @s tcc.random
