############################################################
# Description: Sets a random saddle charm
# Creator: CreeperMagnet_
############################################################

function tcc:technical/random/7
execute as @s[scores={tcc.random=1}] run data modify entity @s Offers.Recipes append value {maxUses:8,buyB:{id:"minecraft:saddle",Count:1b},buy:{id:"minecraft:emerald",Count:1b},sell:{Count:1b,id:"minecraft:saddle",tag:{tcc:{Charms:["leaping"]},CustomModelData:1,display:{Lore:["{\"color\":\"dark_green\",\"italic\":\"false\",\"translate\":\"tcc.lore.charms.prefix\",\"with\":[{\"translate\":\"tcc.lore.charms.leaping\"}]}"]}}},xp:1,uses:0,priceMultipler:0.2f,specialPrice:0,demand:0}
execute as @s[scores={tcc.random=2}] run data modify entity @s Offers.Recipes append value {maxUses:8,buyB:{id:"minecraft:saddle",Count:1b},buy:{id:"minecraft:emerald",Count:1b},sell:{Count:1b,id:"minecraft:saddle",tag:{tcc:{Charms:["galloping"]},CustomModelData:1,display:{Lore:["{\"color\":\"dark_green\",\"italic\":\"false\",\"translate\":\"tcc.lore.charms.prefix\",\"with\":[{\"translate\":\"tcc.lore.charms.galloping\"}]}"]}}},xp:1,uses:0,priceMultipler:0.2f,specialPrice:0,demand:0}
execute as @s[scores={tcc.random=3}] run data modify entity @s Offers.Recipes append value {maxUses:8,buyB:{id:"minecraft:saddle",Count:1b},buy:{id:"minecraft:emerald",Count:1b},sell:{Count:1b,id:"minecraft:saddle",tag:{tcc:{Charms:["frost_trotting"]},CustomModelData:1,display:{Lore:["{\"color\":\"dark_green\",\"italic\":\"false\",\"translate\":\"tcc.lore.charms.prefix\",\"with\":[{\"translate\":\"tcc.lore.charms.frost_trotting\"}]}"]}}},xp:1,uses:0,priceMultipler:0.2f,specialPrice:0,demand:0}
execute as @s[scores={tcc.random=4}] run data modify entity @s Offers.Recipes append value {maxUses:8,buyB:{id:"minecraft:saddle",Count:1b},buy:{id:"minecraft:emerald",Count:1b},sell:{Count:1b,id:"minecraft:saddle",tag:{tcc:{Charms:["galloping","leaping"]},CustomModelData:1,display:{Lore:["{\"color\":\"dark_green\",\"italic\":\"false\",\"translate\":\"tcc.lore.charms.prefix\",\"with\":[{\"translate\":\"tcc.lore.charms.galloping\"}]}","{\"color\":\"dark_green\",\"italic\":\"false\",\"translate\":\"tcc.lore.charms.prefix\",\"with\":[{\"translate\":\"tcc.lore.charms.leaping\"}]}"]}}},xp:1,uses:0,priceMultipler:0.2f,specialPrice:0,demand:0}
execute as @s[scores={tcc.random=5}] run data modify entity @s Offers.Recipes append value {maxUses:8,buyB:{id:"minecraft:saddle",Count:1b},buy:{id:"minecraft:emerald",Count:1b},sell:{Count:1b,id:"minecraft:saddle",tag:{tcc:{Charms:["galloping","frost_trotting"]},CustomModelData:1,display:{Lore:["{\"color\":\"dark_green\",\"italic\":\"false\",\"translate\":\"tcc.lore.charms.prefix\",\"with\":[{\"translate\":\"tcc.lore.charms.galloping\"}]}","{\"color\":\"dark_green\",\"italic\":\"false\",\"translate\":\"tcc.lore.charms.prefix\",\"with\":[{\"translate\":\"tcc.lore.charms.frost_trotting\"}]}"]}}},xp:1,uses:0,priceMultipler:0.2f,specialPrice:0,demand:0}
execute as @s[scores={tcc.random=6}] run data modify entity @s Offers.Recipes append value {maxUses:8,buyB:{id:"minecraft:saddle",Count:1b},buy:{id:"minecraft:emerald",Count:1b},sell:{Count:1b,id:"minecraft:saddle",tag:{tcc:{Charms:["leaping","frost_trotting"]},CustomModelData:1,display:{Lore:["{\"color\":\"dark_green\",\"italic\":\"false\",\"translate\":\"tcc.lore.charms.prefix\",\"with\":[{\"translate\":\"tcc.lore.charms.leaping\"}]}","{\"color\":\"dark_green\",\"italic\":\"false\",\"translate\":\"tcc.lore.charms.prefix\",\"with\":[{\"translate\":\"tcc.lore.charms.frost_trotting\"}]}"]}}},xp:1,uses:0,priceMultipler:0.2f,specialPrice:0,demand:0}
execute as @s[scores={tcc.random=7}] run data modify entity @s Offers.Recipes append value {maxUses:8,buyB:{id:"minecraft:saddle",Count:1b},buy:{id:"minecraft:emerald",Count:1b},sell:{Count:1b,id:"minecraft:saddle",tag:{tcc:{Charms:["galloping","leaping","frost_trotting"]},CustomModelData:1,display:{Lore:["{\"color\":\"dark_green\",\"italic\":\"false\",\"translate\":\"tcc.lore.charms.prefix\",\"with\":[{\"translate\":\"tcc.lore.charms.galloping\"}]}","{\"color\":\"dark_green\",\"italic\":\"false\",\"translate\":\"tcc.lore.charms.prefix\",\"with\":[{\"translate\":\"tcc.lore.charms.leaping\"}]}","{\"color\":\"dark_green\",\"italic\":\"false\",\"translate\":\"tcc.lore.charms.prefix\",\"with\":[{\"translate\":\"tcc.lore.charms.frost_trotting\"}]}"]}}},xp:1,uses:0,priceMultipler:0.2f,specialPrice:0,demand:0}


scoreboard players reset @s tcc.random
