{
  "type": "minecraft:crafting_shaped",
  "pattern": [
    "##",
    "##"
  ],
  "key": {
    "#": {
      "tag": "slabs:sandstone"
    }
  },
  "result": {
    "item": "minecraft:chiseled_sandstone",
    "count": 2
  }
}
