{
	// The maximum number of Maps (Filled & Empty combined) allowed to be inside an Atlas.
	"maxMapCount": 512,
	// Scale the mini-map to a given pixel size. (Default is 64)
	"forceMiniMapScaling": 64,
	// If 'true', the Mini-Map of the Active Map will be drawn on the HUD while the Atlas is on your hot-bar or off-hand.
	"drawMiniMapHUD": false,
	// If 'true', Atlases will be able to store Empty Maps and auto-fill them as you explore.
	"enableEmptyMapEntryAndFill": false,
	// If 'true', Atlases will require to be held in Main or Off Hands to be displayed or updated.
	"forceUseInHands": false
}