{
  "planted_block": "brown_mushroom",
  "grown_block": "mushroom_stem",
  "planted_on_block": "mycelium",
  "conversion_map": {
    "#leaves": "mycelium",
    "#logs": "coarse_dirt"
  },
  "min_radius": 5,
  "max_radius": 7,
  "min_relative_Y": -5,
  "max_relative_Y": 2,
  "require_contiguity": true
}