{
  "planted_block": "red_mushroom",
  "grown_block": "mushroom_stem",
  "planted_on_block": "podzol",
  "conversion_map": {
    "#leaves": "podzol",
    "#logs": "coarse_dirt"
  },
  "min_radius": 3,
  "max_radius": 5,
  "min_relative_Y": -4,
  "max_relative_Y": 2,
  "require_contiguity": true
}