{
    "criteria": {
        "inventory_changed": {
            "trigger": "minecraft:cured_zombie_villager"
        }
    },
    "rewards": {
        "function": "tcc:items/quest_book/healer/trigger/02"
    },
    "parent": "tcc:technical/root"
}