{
    "type": "crafting_shaped",
	"group": "armor_stand",
    "pattern": [
        "L L",
        " L ",
        " SS"
    ],
    "key": {
		"L": {
            "tag": "minecraft:logs"
        },
		"S": {
            "item": "minecraft:stone"
        }
    },
    "result": {
        "item": "minecraft:armor_stand",
        "count": 4
    }
}