{
    "type": "crafting_shaped",
	"group": "arrow",
    "pattern": [
        " ^^",
        " P ",
        " ff"
    ],
    "key": {
		"^": {
            "item": "minecraft:flint"
        },
		"P": {
            "tag": "minecraft:planks"
        },
		"f": {
            "item": "minecraft:feather"
        }
    },
    "result": {
        "item": "minecraft:arrow",
        "count": 8
    }
}