{
    "type": "crafting_shaped",
	"group": "bee_hive",
    "pattern": [
        "bbb",
        "LLL",
        "bbb"
    ],
    "key": {
        "b": {
            "item": "minecraft:honeycomb"
        },
		"L": {
            "tag": "minecraft:logs"
        }
    },
    "result": {
        "item": "minecraft:bee_hive",
        "count": 2
    }
}