{
    "type": "crafting_shapeless",
	"group": "blue_dye",
    "ingredients": [
        {
            "tag": "paint:crafted_into_blue_dye"
        }
    ],
    "result": {
        "item": "minecraft:blue_dye",
        "count": 1
    }
}