{
    "type": "crafting_shaped",
	"group": "stained_glass_pane_from_dye",
    "pattern": [
        "GGG",
        "GdG",
        "GGG"
    ],
    "key": {
	"d": {
            "tag": "paint:subs_for_blue_dye"
        },
        "G": {
            "item": "minecraft:glass_pane"
        }
    },
    "result": {
        "item": "minecraft:blue_stained_glass_pane",
        "count": 8
    }
}