{
    "type": "crafting_shapeless",
	"group": "bone_block",
    "ingredients": [
        {
            "item": "minecraft:bone_meal"
        },
        {
            "item": "minecraft:bone_meal"
        },
		{
            "item": "minecraft:bone_meal"
        },
		{
            "item": "minecraft:bone_meal"
        },
		{
            "item": "minecraft:bone_meal"
        },
		{
            "item": "minecraft:bone_meal"
        },
		{
            "item": "minecraft:bone_meal"
        },
		{
            "item": "minecraft:bone_meal"
        },
		{
            "item": "minecraft:bone_meal"
        }
    ],
    "result": {
        "item": "minecraft:bone_block",
        "count": 1
    }
}