{
    "type": "crafting_shaped",
	"group": "brick_slab",
    "pattern": [
        "   ",
        "   ",
        " bb"
    ],
    "key": {
		"b": {
            "item": "minecraft:brick"
        }
    },
    "result": {
        "item": "minecraft:brick_slab",
        "count": 1
    }
}