{
    "type": "crafting_shaped",
	"group": "bucket",
    "pattern": [
        "   ",
        "i i",
        " i "
    ],
    "key": {
	"i": {
            "item": "minecraft:iron_ingot"
        }
    },
    "result": {
        "item": "minecraft:bucket",
        "count": 1
    }
}