{
    "type": "crafting_shaped",
	"group": "cut_sandstone_slab",
    "pattern": [
        "   ",
        "   ",
        "SSS"
    ],
    "key": {
		"S": {
            "item": "minecraft:cut_sandstone"
        }
    },
    "result": {
        "item": "minecraft:cut_sandstone_slab",
        "count": 6
    }
}