{
    "type": "crafting_shapeless",
	"group": "dark_prismarine",
    "ingredients": [
        {
            "tag": "paint:subs_for_black_dye"
        },
		{
            "item": "minecraft:prismarine"
        },
		{
            "item": "minecraft:prismarine"
        }
    ],
    "result": {
        "item": "minecraft:dark_prismarine",
        "count": 1
    }
}