{
    "type": "crafting_shaped",
	"group": "dark_prismarine",
    "pattern": [
        "sss",
        "sds",
        "sss"
    ],
    "key": {
        "s": {
            "item": "minecraft:prismarine_shard"
        },
		"d": {
            "tag": "paint:subs_for_black_dye"
        }
    },
    "result": {
        "item": "minecraft:dark_prismarine",
        "count": 1
    }
}