{
    "type": "crafting_shaped",
	"group": "diamond_axe",
    "pattern": [
        "ii ",
        "iP ",
        "   "
    ],
    "key": {
		"i": {
            "item": "minecraft:diamond"
        },
		"P": {
            "tag": "minecraft:planks"
        }
    },
    "result": {
        "item": "minecraft:diamond_axe",
        "count": 1
    }
}