{
    "type": "crafting_shaped",
	"group": "diamond_hoe",
    "pattern": [
        "ii ",
        " / ",
        " / "
    ],
    "key": {
		"i": {
            "item": "minecraft:diamond"
        },
		"/": {
            "item": "minecraft:stick"
        }
    },
    "result": {
        "item": "minecraft:diamond_hoe",
        "count": 1
    }
}