{
    "type": "crafting_shaped",
	"group": "dispenser",
    "pattern": [
        "SSS",
        "SbS",
        "SrS"
    ],
    "key": {
        "b": {
            "item": "minecraft:bow"
        },
		"r": {
            "item": "minecraft:redstone"
        },
		"S": {
            "item": "minecraft:cobblestone"
        }
    },
    "result": {
        "item": "minecraft:dispenser",
        "count": 1
    }
}