{
    "type": "stonecutting",
	"group": "end_stone_brick_slab",
    "ingredient":
        {
            "item": "minecraft:end_stone_brick_stairs"
        },
    "result": "minecraft:end_stone_brick_slab",
	"count": 1
}