{
    "type": "crafting_shapeless",
	"group": "fermented_spider_eye",
    "ingredients": [
        {
            "item": "minecraft:brown_mushroom"
        },
		{
            "tag": "paint:sugar_and_sugar_cane"
        },
		{
            "item": "minecraft:spider_eye"
        }
    ],
    "result": {
        "item": "minecraft:fermented_spider_eye",
        "count": 1
    }
}