{
    "type": "crafting_shaped",
	"group": "fletching_table",
    "pattern": [
        "ff ",
        "L  ",
        "   "
    ],
    "key": {
        "f": {
            "item": "minecraft:flint"
        },
		"L": {
            "tag": "minecraft:logs"
        }
    },
    "result": {
        "item": "minecraft:fletching_table",
        "count": 1
    }
}