{
    "type": "crafting_shaped",
	"group": "glistering_melon",
    "pattern": [
        "ggg",
        "gMg",
        "ggg"
    ],
    "key": {
        "g": {
            "item": "minecraft:gold_nugget"
        },
		"M": {
            "item": "minecraft:melon_slice"
        }
    },
    "result": {
        "item": "minecraft:glistering_melon_slice",
        "count": 1
    }
}