{
    "type": "crafting_shaped",
	"group": "golden_pickaxe",
    "pattern": [
        "iii",
        " / ",
        " / "
    ],
    "key": {
		"i": {
            "item": "minecraft:gold_ingot"
        },
		"/": {
            "item": "minecraft:stick"
        }
    },
    "result": {
        "item": "minecraft:golden_pickaxe",
        "count": 1
    }
}