{
    "type": "crafting_shaped",
	"group": "grindstone",
    "pattern": [
        "/S/",
        "P P",
        "   "
    ],
    "key": {
        "/": {
            "item": "minecraft:stick"
        },
		"S": {
            "item": "minecraft:stone_slab"
        },
		"P": {
            "tag": "minecraft:planks"
        }
    },
    "result": {
        "item": "minecraft:grindstone",
        "count": 1
    }
}