{
    "type": "crafting_shaped",
	"group": "iron_door",
    "pattern": [
        " II",
        " II",
        " II"
    ],
    "key": {
		"I": {
            "item": "minecraft:iron_block"
        }
    },
    "result": {
        "item": "minecraft:iron_door",
        "count": 27
    }
}