{
    "type": "crafting_shaped",
	"group": "iron_axe",
    "pattern": [
        "ii ",
        "i/ ",
        " / "
    ],
    "key": {
		"i": {
            "item": "minecraft:iron_ingot"
        },
		"/": {
            "item": "minecraft:stick"
        }
    },
    "result": {
        "item": "minecraft:iron_axe",
        "count": 1
    }
}
