{
    "type": "crafting_shaped",
	"group": "fence_gate",
    "pattern": [
        "   ",
        "/P/",
        "/P/"
    ],
    "key": {
		"/": {
            "item": "minecraft:stick"
        },
        "P": {
            "item": "minecraft:jungle_planks"
        }
    },
    "result": {
        "item": "minecraft:jungle_fence_gate",
        "count": 1
    }
}