{
    "type": "crafting_shaped",
	"group": "ladder",
    "pattern": [
        "P P",
        "PPP",
        "P P"
    ],
    "key": {
        "P": {
            "tag": "minecraft:planks"
        }
    },
    "result": {
        "item": "minecraft:ladder",
        "count": 6
    }
}