{
    "type": "crafting_shapeless",
	"group": "lever",
    "ingredients": [
        {
            "item": "minecraft:cobblestone"
        },
		{
            "item": "minecraft:cobblestone"
        },
        {
            "tag": "minecraft:planks"
        }
    ],
    "result": {
        "item": "minecraft:lever",
        "count": 2
    }
}