{
    "type": "crafting_shapeless",
	"group": "light_blue_dye",
    "ingredients": [
        {
            "tag": "paint:subs_for_blue_dye"
        },
		{
            "tag": "paint:subs_for_white_dye"
        }
    ],
    "result": {
        "item": "minecraft:light_blue_dye",
        "count": 2
    }
}