{
    "type": "crafting_shapeless",
	"group": "light_gray_dye",
    "ingredients": [
        {
            "item": "minecraft:bone"
        },
        {
            "item": "minecraft:gray_dye"
        },
		{
            "item": "minecraft:gray_dye"
        },
		{
            "item": "minecraft:gray_dye"
        }
    ],
    "result": {
        "item": "minecraft:light_gray_dye",
        "count": 6
    }
}