{
    "type": "crafting_shaped",
    "pattern": [
        "ppp",
        "pcp",
        "ppp"
    ],
    "key": {
        "c": {
            "item": "minecraft:compass"
        },
		"p": {
            "tag": "paint:paper_and_sugar_cane"
        }
    },
    "result": {
        "item": "minecraft:map",
        "count": 1
    }
}