{
    "type": "crafting_shapeless",
	"group": "orange_dye",
    "ingredients": [
        {
            "tag": "paint:subs_for_red_dye"
        },
	{
            "tag": "paint:subs_for_red_dye"
        },
        {
            "item": "minecraft:sunflower"
        }
    ],
    "result": {
        "item": "minecraft:orange_dye",
        "count": 4
    }
}