{
    "type": "crafting_shapeless",
	"group": "painting",
    "ingredients": [
        {
            "tag": "minecraft:wool"
        },
        {
            "tag": "minecraft:logs"
        }
    ],
    "result": {
        "item": "minecraft:painting",
        "count": 1
    }
}