{
    "type": "crafting_shaped",
	"group": "prismarine_slab",
    "pattern": [
        "   ",
        "   ",
        "bbb"
    ],
    "key": {
		"b": {
            "item": "minecraft:prismarine"
        }
    },
    "result": {
        "item": "minecraft:prismarine_slab",
        "count": 6
    }
}