{
    "type": "crafting_shaped",
	"group": "prismarine_bricks",
    "pattern": [
        "sss",
        "sss",
        "sss"
    ],
    "key": {
        "s": {
            "item": "minecraft:prismarine_shard"
        }
    },
    "result": {
        "item": "minecraft:prismarine_bricks",
        "count": 1
    }
}