{
    "type": "crafting_shaped",
	"group": "purpur_slab",
    "pattern": [
        "   ",
        "   ",
        "bbb"
    ],
    "key": {
		"b": {
            "item": "minecraft:purpur_block"
        }
    },
    "result": {
        "item": "minecraft:purpur_slab",
        "count": 6
    }
}