{
    "type": "crafting_shapeless",
	"group": "purple_dye",
    "ingredients": [
	{
            "tag": "paint:subs_for_blue_dye"
        },
        {
            "tag": "paint:subs_for_red_dye"
        }
    ],
    "result": {
        "item": "minecraft:purple_dye",
        "count": 2
    }
}