{
    "type": "crafting_shaped",
	"group": "red_sandstone_stairs",
    "pattern": [
        "b  ",
        "bb ",
        "bbb"
    ],
    "key": {
		"b": {
            "item": "minecraft:red_sandstone"
        }
    },
    "result": {
        "item": "minecraft:red_sandstone_stairs",
        "count": 1
    }
}