{
    "type": "crafting_shaped",
	"group": "nether_brick_stairs",
    "pattern": [
        "b  ",
        "wb ",
        "wwb"
    ],
    "key": {
		"b": {
            "item": "minecraft:nether_brick"
        },
		"w": {
            "item": "minecraft:nether_wart"
        }
    },
    "result": {
        "item": "minecraft:red_nether_brick_stairs",
        "count": 1
    }
}