{
    "type": "crafting_shapeless",
	"group": "red_dye",
    "ingredients": [
        {
            "tag": "paint:crafted_into_red_dye"
        }
    ],
    "result": {
        "item": "minecraft:red_dye",
        "count": 1
    }
}