{
    "type": "crafting_shaped",
	"group": "red_nether_brick_slab",
    "pattern": [
        "   ",
        "   ",
        " br"
    ],
    "key": {
		"b": {
            "item": "minecraft:nether_brick"
        },
		"r": {
            "item": "minecraft:nether_wart"
        }
    },
    "result": {
        "item": "minecraft:red_nether_brick_slab",
        "count": 1
    }
}