{
    "type": "crafting_shaped",
	"group": "pressure_plate",
    "pattern": [
        "   ",
        "   ",
        " PP"
    ],
    "key": {
		"P": {
            "item": "minecraft:spruce_planks"
        }
    },
    "result": {
        "item": "minecraft:spruce_pressure_plate",
        "count": 1
    }
}