{
    "type": "crafting_shaped",
	"group": "fence",
    "pattern": [
        "   ",
        "P/P",
        "P/P"
    ],
    "key": {
		"/": {
            "item": "minecraft:stick"
        },
        "P": {
            "item": "minecraft:spruce_planks"
        }
    },
    "result": {
        "item": "minecraft:spruce_fence",
        "count": 3
    }
}