{
    "type": "crafting_shaped",
	"group": "stick",
    "pattern": [
        "   ",
        "  b",
        "  b"
    ],
    "key": {
        "b": {
            "item": "minecraft:bamboo"
			}
    },
    "result": {
        "item": "minecraft:stick",
        "count": 1
    }
}