{
    "type": "crafting_shaped",
	"group": "tnt",
    "pattern": [
        "gSg",
        "SgS",
        "gSg"
    ],
    "key": {
	"g": {
            "item": "minecraft:gunpowder"
        },
        "S": {
            "tag": "minecraft:sand"
        }
    },
    "result": {
        "item": "minecraft:tnt",
        "count": 1
    }
}