{
    "type": "crafting_shaped",
	"group": "wooden_pickaxe",
    "pattern": [
        "PPP",
        " / ",
        " / "
    ],
    "key": {
		"P": {
            "tag": "minecraft:planks"
        },
		"/": {
            "item": "minecraft:stick"
        }
    },
    "result": {
        "item": "minecraft:wooden_pickaxe",
        "count": 1
    }
}