{
  "type": "minecraft:chest",
  "pools": [
    {
      "rolls": 1,
      "entries": [
        {
          "type": "minecraft:item",
          "weight": 1,
          "functions": [
            {
              "function": "minecraft:set_nbt",
              "tag": "{CustomModelData:1,tcc:{Item:\"excavator\"},display:{Lore:[\"{\\\"translate\\\":\\\"tcc.lore.tooltip\\\",\\\"italic\\\":\\\"false\\\"}\"],Name:\"{\\\"translate\\\":\\\"block.tcc.excavator\\\",\\\"italic\\\":\\\"false\\\"}\"}}"
            }
          ],
          "name": "minecraft:barrier"
        }
      ]
    }
  ]
}
