{
  "type": "minecraft:chest",
  "pools": [
    {
      "rolls": 1,
      "entries": [
        {
          "type": "minecraft:item",
          "weight": 1,
          "functions": [
            {
              "function": "minecraft:set_nbt",
              "tag": "{HideFlags:6,Unbreakable:1b,tcc:{Item:\"obsidian_scythe\",Durability:750,Tags:[\"mendable\"]},CustomModelData:13,display:{Name:\"{\\\"translate\\\":\\\"item.tcc.obsidian_scythe\\\",\\\"italic\\\":\\\"false\\\"}\",Lore:[\"{\\\"text\\\":\\\" \\\"}\",\"{\\\"translate\\\":\\\"item.modifiers.mainhand\\\",\\\"color\\\":\\\"gray\\\",\\\"italic\\\":\\\"false\\\"}\",\"[{\\\"text\\\":\\\" \\\"},{\\\"translate\\\":\\\"attribute.modifier.equals.0\\\",\\\"italic\\\":\\\"false\\\",\\\"color\\\":\\\"dark_green\\\",\\\"with\\\":[\\\"3.5\\\",{\\\"translate\\\":\\\"attribute.name.generic.attackSpeed\\\"}]}]\",\"[{\\\"text\\\":\\\" \\\"},{\\\"translate\\\":\\\"attribute.modifier.equals.0\\\",\\\"italic\\\":\\\"false\\\",\\\"color\\\":\\\"dark_green\\\",\\\"with\\\":[\\\"2\\\",{\\\"translate\\\":\\\"attribute.name.generic.attackDamage\\\"}]}]\",\"{\\\"translate\\\":\\\"tcc.lore.durability\\\",\\\"with\\\":[750,750]}\",\"{\\\"translate\\\":\\\"tcc.lore.tooltip\\\"}\"]}}"
            },
            {
            	"function": "minecraft:set_attributes",
            	"modifiers": [
                {
						      "attribute": "generic.attackDamage",
						      "name": "generic.attackDamage",
						      "amount": 2,
						      "operation": "addition",
						      "slot": [
							      "mainhand"
						      ]
					      },
                {
						      "attribute": "generic.attackSpeed",
						      "name": "generic.attackSpeed",
						      "amount": -0.5,
						      "operation": "addition",
						      "slot": [
							      "mainhand"
						      ]
					      }
            	]
            }
          ],
          "name": "minecraft:carrot_on_a_stick"
        }
      ]
    }
  ]
}
