{
  "type": "minecraft:crafting_shaped",
  "pattern": [
    "##"
  ],
  "key": {
    "#": {"item": "minecraft:sandstone_stairs"}
  },
  "result": {
    "item": "minecraft:sandstone_slab",
    "count": 3
  }
}
