{
  "replace": false,
  "values": [
    "minecraft:evoker",
    "minecraft:pillager",
    "minecraft:ravager",
    "minecraft:vindicator",
    "minecraft:illusioner",
    "minecraft:witch",
	"minecraft:blaze",
	"minecraft:cave_spider",
	"minecraft:creeper",
	"minecraft:drowned",
	"minecraft:elder_guardian",
	"minecraft:ender_dragon",
	"minecraft:enderman",
	"minecraft:endermite",
	"minecraft:ghast",
	"minecraft:guardian",
	"minecraft:husk",
	"minecraft:magma_cube",
	"minecraft:phantom",
	"minecraft:shulker",
	"minecraft:silverfish",
	"minecraft:skeleton",
	"minecraft:slime",
	"minecraft:spider",
	"minecraft:stray",
	"minecraft:vex",
	"minecraft:wither",
	"minecraft:wither_skeleton",
	"minecraft:zombie",
	"minecraft:zombie_pigman",
	"minecraft:zombie_villager"
  ]
}