scoreboard players set @s bccm_tpD 0
scoreboard players operation @s bccm_tpX = @s bccm_endOX
scoreboard players operation @s bccm_tpY = @s bccm_endOY
scoreboard players operation @s bccm_tpZ = @s bccm_endOZ
function bertiecrafter:tp/internal/cm_startprocess