scoreboard players set @s bccm_tpD 1
scoreboard players operation @s bccm_tpX = @s bccm_endDX
scoreboard players operation @s bccm_tpY = @s bccm_endDY
scoreboard players operation @s bccm_tpZ = @s bccm_endDZ
function bertiecrafter:tp/internal/cm_startprocess