{
 "pools":[
		  {"rolls":1,
		   "entries":[
					  {"type":"minecraft:alternatives",
					   "children":[
								   {
								    "type": "minecraft:item",
								    "name": "minecraft:player_head",
								    "weight": 1,
								    "functions": [
												  {"function": "set_name",
												   "name":{
														   "bold":"true",
														   "italic":"false",
														   "color":"yellow",
													 	   "text":"Toast Head"
														  }
										  		  },
												  {"function": "set_nbt",
												   "tag": "{SkullOwner:{Id:\"6bafd710-5fa3-4f4d-99cf-ad47fa436e3f\",Properties:{textures:[{Value:\"eyJ0ZXh0dXJlcyI6eyJTS0lOIjp7InVybCI6Imh0dHA6Ly90ZXh0dXJlcy5taW5lY3JhZnQubmV0L3RleHR1cmUvY2I4Y2ZmNGIxNWI4Y2EzN2UyNTc1MGYzNDU3MThmMjg5Y2IyMmM1YjNhZDIyNjI3YTcxMjIzZmFjY2MifX19\"},{Signature:\'{\"bold\":true,\"italic\":false,\"color\":\"yellow\",\"text\":\"Toast Head\"}\',Value:\"\"},{Signature:\"TDP\",Value:\"\"}]}}}"
												  }
												 ],
									"conditions":[
												  {"condition":"minecraft:killed_by_player"},
												  {"condition":"minecraft:random_chance_with_looting",
												   "chance":0.14,
												   "looting_multiplier":0.02
												  }
											     ]
								   },
								   {
								    "type": "minecraft:item",
								    "name": "minecraft:player_head",
								    "weight": 1,
								    "functions": [
												  {"function": "set_name",
												   "name":{
														   "bold":"true",
														   "italic":"false",
														   "color":"yellow",
													 	   "text":"Toast Head"
														  }
										  		  },
												  {"function": "set_nbt",
												   "tag": "{SkullOwner:{Id:\"6bafd710-5fa3-4f4d-99cf-ad47fa436e3f\",Properties:{textures:[{Value:\"eyJ0ZXh0dXJlcyI6eyJTS0lOIjp7InVybCI6Imh0dHA6Ly90ZXh0dXJlcy5taW5lY3JhZnQubmV0L3RleHR1cmUvY2I4Y2ZmNGIxNWI4Y2EzN2UyNTc1MGYzNDU3MThmMjg5Y2IyMmM1YjNhZDIyNjI3YTcxMjIzZmFjY2MifX19\"},{Signature:\'{\"bold\":true,\"italic\":false,\"color\":\"yellow\",\"text\":\"Toast Head\"}\',Value:\"\"},{Signature:\"TDP\",Value:\"\"}]}}}"
												  }
												 ],
									"conditions":[
												  {"condition":"minecraft:entity_properties",
												   "entity":"killer",
												   "predicate":{
															    "type":"minecraft:creeper",
															    "nbt":"{powered:1b}"
															   }
												  } 
											     ]
								   }
								  ]
					  }
					 ]
		  }
		 ]
}