{
  "type": "minecraft:crafting_shaped",
  "pattern": [
    "#",
    "#"

  ],
  "key": {
    "#": {
      "item": "minecraft:granite_slab"
    }
  },
  "result": {
    "item": "minecraft:granite"

  }
}