{
	"replace": false,
	"values": [
		"minecraft:cave_spider",
		"minecraft:creeper",
		"minecraft:drowned",
		"minecraft:evoker",
		"minecraft:giant",
		"minecraft:guardian",
		"minecraft:husk",
		"minecraft:illusioner",
		"minecraft:phantom",
		"minecraft:pillager",
		"minecraft:ravager",
		"minecraft:silverfish",
		"minecraft:skeleton",
		"minecraft:slime",
		"minecraft:spider",
		"minecraft:stray",
		"minecraft:vex",
		"minecraft:vindicator",
		"minecraft:witch",
		"minecraft:wolf",
		"minecraft:zombie",
		"minecraft:zombie_villager"
	]
}