{
    "pools": [
        {
            "rolls": 1,
            "entries": [
                {
                    "type": "item",
                    "weight": 60,
                    "name": "minecraft:cod"
                },
                {
                    "type": "item",
                    "weight": 30,
                    "name": "minecraft:salmon",
                    "conditions": [
        				{
        					"condition": "minecraft:alternative",
              				"terms": [
                				{
                  					"condition": "minecraft:location_check",
                  					"predicate": {
                    					"biome": "minecraft:river"
                  					}
                				},
                				{
                  					"condition": "minecraft:location_check",
                  					"predicate": {
                   						"biome": "minecraft:frozen_river"
                  					}
                  				}
             				]
        				}
                	]
                },
                {
                    "type": "item",
                    "weight": 20,
                    "name": "minecraft:tropical_fish",
                    "conditions": [
        				{
        					"condition": "minecraft:alternative",
              				"terms": [
                				{
                  					"condition": "minecraft:location_check",
                  					"predicate": {
                    					"biome": "minecraft:deep_warm_ocean"
                  					}
                				},
                				{
                  					"condition": "minecraft:location_check",
                  					"predicate": {
                   						"biome": "minecraft:warm_ocean"
                  					}
                				},
                				{
                  					"condition": "minecraft:location_check",
                  					"predicate": {
                   						"biome": "minecraft:deep_lukewarm_ocean"
                  					}
                				},
                				{
                 					"condition": "minecraft:location_check",
                  					"predicate": {
                    					"biome": "minecraft:lukewarm_ocean"
                  					}
                				}
             				]
        				}
                	]
                },
                {
                    "type": "item",
                    "weight": 20,
                    "name": "minecraft:pufferfish",
                    "conditions": [
        				{
        					"condition": "minecraft:alternative",
              				"terms": [
                				{
                  					"condition": "minecraft:location_check",
                  					"predicate": {
                    					"biome": "minecraft:deep_warm_ocean"
                  					}
                				},
                				{
                  					"condition": "minecraft:location_check",
                  					"predicate": {
                   						"biome": "minecraft:warm_ocean"
                  					}
                				},
                				{
                  					"condition": "minecraft:location_check",
                  					"predicate": {
                   						"biome": "minecraft:deep_lukewarm_ocean"
                  					}
                				},
                				{
                 					"condition": "minecraft:location_check",
                  					"predicate": {
                    					"biome": "minecraft:lukewarm_ocean"
                  					}
                				}
             				]
        				}
                	]
                },
                {
                    "type": "loot_table",
                    "weight": 1,
                    "name": "tcc:items/swordfish"
                }
            ]
        }
    ]
}