{
  "type": "minecraft:crafting_shaped",
  "group": "stained_glass_pane",
  "pattern": [
    "##",
    "##"
  ],
  "key": {
    "#": {
      "item": "minecraft:red_stained_glass"
    }
  },
  "result": {
    "item": "minecraft:red_stained_glass_pane",
    "count": 10
  }
}