{
	"replace": false,
	"values": [
		"minecraft:blaze",
		"minecraft:cave_spider",
		"minecraft:creeper",
		"minecraft:drowned",
		"minecraft:elder_guardian",
		"minecraft:ender_dragon",
		"minecraft:enderman",
		"minecraft:endermite",
		"minecraft:evoker",
		"minecraft:ghast",
		"minecraft:guardian",
		"minecraft:husk",
		"minecraft:illusioner",
		"minecraft:magma_cube",
		"minecraft:phantom",
		"minecraft:pillager",
		"minecraft:ravager",
		"minecraft:shulker",
		"minecraft:silverfish",
		"minecraft:skeleton",
		"minecraft:slime",
		"minecraft:spider",
		"minecraft:stray",
		"minecraft:vex",
		"minecraft:vindicator",
		"minecraft:witch",
		"minecraft:wither",
		"minecraft:wither_skeleton",
		"minecraft:zombie",
		"minecraft:zombie_pigman",
		"minecraft:zombie_villager"
	]
}