{
  "type":"crafting_shapeless",
  "group":"dyeing",

  "ingredients":
  [
    {"tag":"glass_pane_colors:not_blue"},
    {"tag":"dyes:blue"}

  ],
  "result": {"item": "minecraft:blue_stained_glass_pane"}
}
