{
  "values": [
	"minecraft:birch_button",
	"minecraft:spruce_button",
	"minecraft:jungle_button",
	"minecraft:acacia_button",
	"minecraft:oak_button",
	"minecraft:dark_oak_button",
	"minecraft:birch_pressure_plate",
	"minecraft:spruce_pressure_plate",
	"minecraft:jungle_pressure_plate",
	"minecraft:acacia_pressure_plate",
	"minecraft:oak_pressure_plate",
	"minecraft:dark_oak_pressure_plate",
	"minecraft:stone_pressure_plate",
	"minecraft:stone_button",
	"minecraft:air",
        "minecraft:vine",
	"minecraft:torch",
	"minecraft:ladder",
	"minecraft:lever",
	"minecraft:redstone_torch",
	"minecraft:lily_pad",
	"minecraft:tripwire_hook",
	"minecraft:light_weighted_pressure_plate",
	"minecraft:heavy_weighted_pressure_plate",
	"minecraft:daylight_detector",
	"minecraft:white_carpet",
	"minecraft:orange_carpet",
	"minecraft:magenta_carpet",
	"minecraft:light_blue_carpet",
	"minecraft:yellow_carpet",
	"minecraft:lime_carpet",
	"minecraft:pink_carpet",
	"minecraft:gray_carpet",
	"minecraft:light_gray_carpet",
	"minecraft:cyan_carpet",
	"minecraft:purple_carpet",
	"minecraft:blue_carpet",
	"minecraft:brown_carpet",
	"minecraft:green_carpet",
	"minecraft:red_carpet",
	"minecraft:black_carpet",
        "minecraft:cave_air",
        "minecraft:void_air",
        "minecraft:water",
        "minecraft:lava",
        "minecraft:redstone_wire",
        "minecraft:dead_fire_coral_fan",
        "minecraft:dead_horn_coral_fan",
        "minecraft:dead_brain_coral_fan",
        "minecraft:dead_bubble_coral_fan",
        "minecraft:dead_tube_coral_fan",
        "minecraft:dead_fire_coral_wall_fan",
        "minecraft:dead_horn_coral_wall_fan",
        "minecraft:dead_brain_coral_wall_fan",
        "minecraft:dead_bubble_coral_wall_fan",
        "minecraft:dead_tube_coral_wall_fan",
        "minecraft:fire_coral_fan",
        "minecraft:horn_coral_fan",
        "minecraft:brain_coral_fan",
        "minecraft:bubble_coral_fan",
        "minecraft:tube_coral_fan",
        "#minecraft:wall_corals",
        "minecraft:sea_pickle",
        "minecraft:bubble_column",
        "#minecraft:signs"
	
  ]
}