{
  "type": "minecraft:crafting_shaped",
  "group": "redstone",
  "pattern": [
    "^",
    "|",
    "|"
  ],
  "key": {
    "^": {"item":"minecraft:redstone"},
    "|": {"item": "minecraft:bamboo"}
  },
  "result": {
    "item": "minecraft:redstone_torch"
  }
}
