{
  "type": "minecraft:crafting_shapeless",
  "group": "storage",
  "ingredients": [
    {"item": "minecraft:bone"},
    {"item": "minecraft:bone"},
    {"item": "minecraft:bone"}
  ],
  "result": {
    "item": "minecraft:bone_block",
  }
}
