{
  "type": "minecraft:crafting_shaped",
  "group": "redstone",
  "pattern": [
    " /_",
    "/#_",
    " /_"
  ],
  "key": {
    "#": {"item": "minecraft:dropper"},
    "/": {"item": "minecraft:stick"},
    "_": {"item": "minecraft:string"}
  },
  "result": {
    "item": "minecraft:dispencer"
  }
}
