{
  "type": "minecraft:crafting_shaped",
  "group": "expanding",
  "pattern": [
    "###"
  ],
  "key": {
    "#": {"item":"minecraft:hay_block"}
  },
  "result": {
    "item": "minecraft:bread",
    "count": 9
  }
}
