{
  "type": "minecraft:crafting_shaped",
  "group": "redstone",
  "pattern": [
    "##"
  ],
  "key": {
    "#": {"item":"minecraft:iron_block"}
  },
  "result": {
    "item": "minecraft:heavy_weighted_presure_plate",
    "count": 9
  }
}
