{
  "type": "minecraft:crafting_shaped",
  "group": "transportation",
  "pattern": [
    "=#=",
    "==="
  ],
  "key": {
    "#": {"item": "minecraft:hopper"},
    "=": {"item": "minecraft:iron_ingot"}
  },
  "result": {
    "item": "minecraft:minecart_with_hopper"
  }
}
