{
  "type": "minecraft:crafting_shapeless",
  "group": "decoration",
  "ingredients": [
    {"item": "minecraft:leather"},
    {"tag": "minecraft:logs"}
  ],
  "result": {
    "item": "minecraft:item_frame"
  }
}
