{
  "type": "minecraft:crafting_shaped",
  "group": "redstone",
  "pattern": [
    "#",
    "/",
    "="
  ],
  "key": {
    "#": {"item":"minecraft:redstone_block"},
    "/": {"item": "minecraft:stick"},
    "=": {"tag": "minecraft:logs"}
  },
  "result": {
    "item": "minecraft:redstone_torch",
    "count": 9
  }
}
