{
  "type": "minecraft:crafting_shaped",
  "group": "redstone",
  "pattern": [
    "^^^",
    "^#^",
    "^^^"
  ],
  "key": {
    "^": {"item":"minecraft:redstone"},
    "#": {"tag": "minecraft:logs"}
  },
  "result": {
    "item": "minecraft:redstone_torch",
    "count": 8
  }
}
