{
  "type": "minecraft:crafting_shaped",
  "group": "materials",
  "pattern": [
    "#",
    "#"
  ],
  "key": {
    "#": {"tag": "minecraft:logs"}
  },
  "result": {
    "item": "minecraft:stick",
    "count": 16
  }
}
