{
  "type": "minecraft:crafting_shaped",
  "group": "work_stations",
  "pattern": [
    "===",
    " # ",
    " # "
  ],
  "key": {
    "#": {"tag": "minecraft:logs"},
    "=": {"item": "minecraft:books"}
  },
  "result": {
    "item": "minecraft:lecturn"
  }
}
