{
  "type": "minecraft:crafting_shapeless",
  "group": "decoration",
  "ingredients": [
    {"item": "minecraft:stone_brick_wall"},
    {"item": "minecraft:vine"}
  ],
  "result": {
    "item": "minecraft:mossy_stone_brick_wall"
  }
}
