{
  "rewards": {
    "function": "killfeed:shot/villagers/2/fisherman"
  },
  "criteria": {
    "kill": {
      "trigger": "minecraft:player_killed_entity",
      "conditions": {
        "entity": {
          "type": "villager",
          "nbt": "{VillagerData:{profession: 'minecraft:fisherman',level: 2}}"
      },
      "killing_blow": {
        "is_projectile": "true"
      }
    }
  }
}
}