{
  "values":
  [
    "minecraft:red_carpet",
    "minecraft:orange_carpet",
    "minecraft:yellow_carpet",
    "minecraft:lime_carpet",
    "minecraft:green_carpet",
    "minecraft:cyan_carpet",

    "minecraft:blue_carpet",
    "minecraft:purple_carpet",
    "minecraft:magenta_carpet",
    "minecraft:pink_carpet",
    "minecraft:white_carpet",
    "minecraft:light_gray_carpet",
    "minecraft:gray_carpet",
    "minecraft:black_carpet",
    "minecraft:brown_carpet"
  ]
}
