{
  "type": "anvil_crushing_recipes:anvil_crushing",
  "ingredients": [
    {
      "entity_ingredient": {
  	    "entity": "minecraft:wither_skeleton"
  	  }
    },
	  {
      "block_ingredient": {
	      "block": "minecraft:basalt"
	    }
    }
  ],
  "block_output": "minecraft:blackstone"
}
