{
    "pools": [
        {
            "rolls": 1,
            "entries": [
                {
                    "type": "item",
                    "weight": 1,
                    "name": "minecraft:carrot_on_a_stick",
                    "functions": [
                      {
                         "function":"set_lore",
                         "lore": [
                           {"translate":"tcc.lore.durability","with":[{"nbt":"SelectedItem.tag.tcc.Durability","entity":"@s"},"300"]}
                         ],
                         "entity": "this"
                      },
                      {
                         "function": "copy_nbt",
                         "source": "this",
                         "ops": [
                             {
                                 "source": "SelectedItem.tag.Enchantments",
                                 "target": "Enchantments",
                                 "op": "replace"
                             },
                             {
                                 "source": "SelectedItem.tag.tcc",
                                 "target": "tcc",
                                 "op": "replace"
                             },
                             {
                                 "source": "SelectedItem.tag.display.Name",
                                 "target": "display.Name",
                                 "op": "replace"
                             },
                             {
                                 "source": "SelectedItem.tag.Damage",
                                 "target": "Damage",
                                 "op": "replace"
                             },
                             {
                                 "source": "SelectedItem.tag.Unbreakable",
                                 "target": "Unbreakable",
                                 "op": "replace"
                             },
                             {
                                 "source": "SelectedItem.tag.HideFlags",
                                 "target": "HideFlags",
                                 "op": "replace"
                             },
                             {
                                 "source": "SelectedItem.tag.AttributeModifiers",
                                 "target": "AttributeModifiers",
                                 "op": "replace"
                             },
                             {
                                 "source": "SelectedItem.tag.CustomModelData",
                                 "target": "CustomModelData",
                                 "op": "replace"
                             },
                             {
                                 "source": "SelectedItem.tag.display.Lore",
                                 "target": "tcc_storage.Lore",
                                 "op": "replace"
                             }
                         ]
                      }
                  ]
              }
          ]
      }
   ]
}
