{
	"replace": false,
	"values": [
		"minecraft:bat",
		"minecraft:cat",
		"minecraft:chicken",
		"minecraft:cod",
		"minecraft:cow",
		"minecraft:dolphin",
		"minecraft:donkey",
		"minecraft:fox",
		"minecraft:horse",
		"minecraft:iron_golem",
		"minecraft:llama",
		"minecraft:mooshroom",
		"minecraft:mule",
		"minecraft:ocelot",
		"minecraft:panda",
		"minecraft:parrot",
		"minecraft:pig",
		"minecraft:polar_bear",
		"minecraft:pufferfish",
		"minecraft:rabbit",
		"minecraft:salmon",
		"minecraft:sheep",
		"minecraft:skeleton_horse",
		"minecraft:snow_golem",
		"minecraft:squid",
		"minecraft:trader_llama",
		"minecraft:tropical_fish",
		"minecraft:turtle",
		"minecraft:villager",
		"minecraft:wandering_trader",
		"minecraft:wolf",
		"minecraft:zombie_horse"
	]
}