{
 "pools":[
		  {"rolls":1,
		   "entries":[
					  {"type":"minecraft:alternatives",
					   "children":[
								   {
								    "type": "minecraft:item",
								    "name": "minecraft:player_head",
								    "weight": 1,
								    "functions": [
												  {"function": "set_name",
												   "name":{
														   "bold":"true",
														   "italic":"false",
														   "color":"yellow",
													 	   "text":"Guardian Head"
														  }
										  		  },
												  {"function": "set_nbt",
												   "tag": "{SkullOwner:{Id:\"628f15d0-e39c-4fd9-9c4e-8c41d4f54b29\",Properties:{textures:[{Value:\"eyJ0ZXh0dXJlcyI6eyJTS0lOIjp7InVybCI6Imh0dHA6Ly90ZXh0dXJlcy5taW5lY3JhZnQubmV0L3RleHR1cmUvYTBiZjM0YTcxZTc3MTViNmJhNTJkNWRkMWJhZTVjYjg1Zjc3M2RjOWIwZDQ1N2I0YmZjNWY5ZGQzY2M3Yzk0In19fQ==\"},{Signature:\'{\"bold\":true,\"italic\":false,\"color\":\"yellow\",\"text\":\"Guardian Head\"}\',Value:\"\"},{Signature:\"TDP\",Value:\"\"}]}}}"
												  }
												 ],
									"conditions":[
												  {"condition":"minecraft:killed_by_player"},
												  {"condition":"minecraft:random_chance_with_looting",
												   "chance":0.07,
												   "looting_multiplier":0.01
												  }
											     ]
								   },
								   {
								    "type": "minecraft:item",
								    "name": "minecraft:player_head",
								    "weight": 1,
								    "functions": [
												  {"function": "set_name",
												   "name":{
														   "bold":"true",
														   "italic":"false",
														   "color":"yellow",
													 	   "text":"Guardian Head"
														  }
										  		  },
												  {"function": "set_nbt",
												   "tag": "{SkullOwner:{Id:\"628f15d0-e39c-4fd9-9c4e-8c41d4f54b29\",Properties:{textures:[{Value:\"eyJ0ZXh0dXJlcyI6eyJTS0lOIjp7InVybCI6Imh0dHA6Ly90ZXh0dXJlcy5taW5lY3JhZnQubmV0L3RleHR1cmUvYTBiZjM0YTcxZTc3MTViNmJhNTJkNWRkMWJhZTVjYjg1Zjc3M2RjOWIwZDQ1N2I0YmZjNWY5ZGQzY2M3Yzk0In19fQ==\"},{Signature:\'{\"bold\":true,\"italic\":false,\"color\":\"yellow\",\"text\":\"Guardian Head\"}\',Value:\"\"},{Signature:\"TDP\",Value:\"\"}]}}}"
												  }
												 ],
									"conditions":[
												  {"condition":"minecraft:entity_properties",
												   "entity":"killer",
												   "predicate":{
															    "type":"minecraft:creeper",
															    "nbt":"{powered:1b}"
															   }
												  } 
											     ]
								   }
								  ]
						 }
					    ]
		  }
		 ]
}