{
  "type": "crafting_shaped",
  "pattern": [
    " # ",
    "#X#",
    "III"
  ],
  "key": {
    "#": {
      "item": "minecraft:redstone_torch"
    },
    "X": {
      "item": "minecraft:quartz"
    },
    "I": [
      {
        "item": "minecraft:stone"
      },
      {
        "item": "minecraft:andesite"
      },
      {
        "item": "minecraft:diorite"
      },
      {
        "item": "minecraft:granite"
      }
    ]
  },
  "result": {
    "item": "minecraft:comparator"
  }
}