{
  "type": "crafting_shaped",
  "pattern": [
    "XXX",
    " # ",
    " # "
  ],
  "key": {
    "#": {
      "item": "minecraft:stick"
    },
    "X": [
      {
        "item": "minecraft:stone"
      },
      {
        "item": "minecraft:cobblestone"
      },
      {
        "item": "minecraft:andesite"
      },
      {
        "item": "minecraft:diorite"
      },
      {
        "item": "minecraft:granite"
      }
    ]
  },
  "result": {
    "item": "minecraft:stone_pickaxe"
  }
}