############################################################
# Description: Makes the timbering enchantment function
# Creator: CreeperMagnet_
############################################################
playsound minecraft:block.wood.break block @a[distance=..16]
playsound minecraft:block.wood.break block @a[distance=..16]
playsound minecraft:block.wood.break block @a[distance=..16]
playsound minecraft:block.wood.break block @a[distance=..16]
playsound minecraft:block.wood.break block @a[distance=..16]
playsound minecraft:block.wood.break block @a[distance=..16]
playsound minecraft:block.wood.break block @a[distance=..16]
data merge entity @s {Motion:[0.0,0.0,0.0]}
function tcc:charms/timbering/birch_wood/loop
scoreboard players reset @a tcc.barkbreak3