{
    "display": {
        "icon": {
            "item": "minecraft:blaze_powder"
        },
        "title": {
            "translate": "advancements.tcc.quests.mage.03.title"
        },
        "description": {
            "translate": "advancements.tcc.quests.mage.03.description"
        },
        "show_toast": false,
        "announce_to_chat": false,
        "frame": "task"
    },
    "parent": "tcc:technical/items/quest_book/mage/display/root",
    "criteria": {
        "run": {
            "trigger": "minecraft:impossible"
        }
    }
}