{ "pools": 
    [
       {
            "rolls": 1,
            "entries": [
                {
                    "type": "loot_table",
                    "weight": 1,
                    "name": "tcc:misc/universal_loot"
                }
            ]
        }
    ]
}