{
    "pools": [
        {
            "rolls": 1,
            "entries": [
              {
                  "type": "item",
                  "weight": 1,
                  "name": "minecraft:elytra",
                  "functions": [
                        {
                           "function": "copy_nbt",
                           "source": "this",
                           "ops": [
                               {
                                   "source": "Inventory[{Slot:102b}].tag",
                                   "target": "tcc_storage",
                                   "op": "replace"
                               }
                           ]
                        },
                        {
                           "function": "set_nbt",
                           "tag": "{Damage:431}"
                        }
                    ]
                }
            ]
        }
    ]
}
