{
  "items": [
    "#default_dispenser_configurators:falling_block_items",
    "#default_dispenser_configurators:plantable",
    "#default_dispenser_configurators:grown",
    "#minecraft:rails",
    "minecraft:ladder"
  ]
}