{
  "type":"crafting_shapeless",
  "group":"dyeing",

  "ingredients":
  [
    {"tag":"glazed_terracotta_colors:not_red"},
    {"tag":"dyes:red"}

  ],
  "result": {"item": "minecraft:red_glazed_terracotta"}
}
