{
  "type": "minecraft:crafting_shaped",
  "group": "decoration",
  "pattern": [
    "= ",
    "=="
  ],
  "key": {
    "=": {"item":"minecraft:brick"}
  },
  "result": {
    "item": "minecraft:brick_slab"
  }
}
