{
  "type": "minecraft:crafting_shaped",
  "group": "stairs",
  "pattern": [
    "# ",
    "##"
  ],
  "key": {
    "#": {
      "tag": "minecraft:jungle_log"
    }
  },
  "result": {
    "item": "minecraft:jungle_stairs",
    "count": 16
  }
}
