{
  "type": "minecraft:crafting_shaped",
  "group": "decoration",
  "pattern": [
    "^ ",
    ">>"
  ],
  "key": {
    ">": {"item":"minecraft:prismarine_shard"}
  },
  "result": {
    "item": "minecraft:prismarien_stairs"
  }
}
