{
  "type": "minecraft:crafting_shaped",
  "group": "decoration",
  "pattern": [
    "# ",
    "##"
  ],
  "key": {
    "#": {"item":"minecraft:sand"}
  },
  "result": {
    "item": "minecraft:sandstone_stairs"
  }
}
