{
  "rewards": {
      "function": "killfeed:shot/baby/lamas/1.trader"
  },
  "criteria": {
    "kill": {
      "trigger": "minecraft:player_killed_entity",
      "conditions": {
        "entity": {
          "type": "trader_llama",
          "nbt": "{Variant:1}",
          "flags": {
            "is_baby": true
        }
        },
        "killing_blow": {
          "is_projectile": "true"
        }
      }
    }
  }
}