{

  "parent": "tcc:technical/root",
  "rewards": {
    "function": "tcc:items/potion_items/potion_potatoes/effects"
  },
  "criteria": {
    "minecraft_absorption": {
      "trigger": "minecraft:consume_item",
        "conditions": {
          "item": {
            "nbt": "{tcc:{Potion:\"minecraft:absorption\"}}"
          }
        }
    },
    "minecraft_blindness": {
      "trigger": "minecraft:consume_item",
        "conditions": {
          "item": {
            "nbt": "{tcc:{Potion:\"minecraft:blindness\"}}"
          }
        }
    },
    "minecraft_fire_resistance": {
      "trigger": "minecraft:consume_item",
        "conditions": {
          "item": {
            "nbt": "{tcc:{Potion:\"minecraft:fire_resistance\"}}"
          }
        }
    },
    "minecraft_glowing": {
      "trigger": "minecraft:consume_item",
        "conditions": {
          "item": {
            "nbt": "{tcc:{Potion:\"minecraft:glowing\"}}"
          }
        }
    },
    "minecraft_harming": {
      "trigger": "minecraft:consume_item",
        "conditions": {
          "item": {
            "nbt": "{tcc:{Potion:\"minecraft:harming\"}}"
          }
        }
    },
    "minecraft_haste": {
      "trigger": "minecraft:consume_item",
        "conditions": {
          "item": {
            "nbt": "{tcc:{Potion:\"minecraft:haste\"}}"
          }
        }
    },
    "minecraft_healing": {
      "trigger": "minecraft:consume_item",
        "conditions": {
          "item": {
            "nbt": "{tcc:{Potion:\"minecraft:healing\"}}"
          }
        }
    },
    "minecraft_health_boost": {
      "trigger": "minecraft:consume_item",
        "conditions": {
          "item": {
            "nbt": "{tcc:{Potion:\"minecraft:health_boost\"}}"
          }
        }
    },
    "minecraft_hunger": {
      "trigger": "minecraft:consume_item",
        "conditions": {
          "item": {
            "nbt": "{tcc:{Potion:\"minecraft:hunger\"}}"
          }
        }
    },
    "minecraft_invisibility": {
      "trigger": "minecraft:consume_item",
        "conditions": {
          "item": {
            "nbt": "{tcc:{Potion:\"minecraft:invisibility\"}}"
          }
        }
    },
    "minecraft_leaping": {
      "trigger": "minecraft:consume_item",
        "conditions": {
          "item": {
            "nbt": "{tcc:{Potion:\"minecraft:leaping\"}}"
          }
        }
    },
    "minecraft_levitation": {
      "trigger": "minecraft:consume_item",
        "conditions": {
          "item": {
            "nbt": "{tcc:{Potion:\"minecraft:levitation\"}}"
          }
        }
    },
    "minecraft_long_fire_resistance": {
      "trigger": "minecraft:consume_item",
        "conditions": {
          "item": {
            "nbt": "{tcc:{Potion:\"minecraft:long_fire_resistance\"}}"
          }
        }
    },
    "minecraft_long_invisibility": {
      "trigger": "minecraft:consume_item",
        "conditions": {
          "item": {
            "nbt": "{tcc:{Potion:\"minecraft:long_invisibility\"}}"
          }
        }
    },
    "minecraft_long_leaping": {
      "trigger": "minecraft:consume_item",
        "conditions": {
          "item": {
            "nbt": "{tcc:{Potion:\"minecraft:long_leaping\"}}"
          }
        }
    },
    "minecraft_long_night_vision": {
      "trigger": "minecraft:consume_item",
        "conditions": {
          "item": {
            "nbt": "{tcc:{Potion:\"minecraft:long_night_vision\"}}"
          }
        }
    },
    "minecraft_long_poison": {
      "trigger": "minecraft:consume_item",
        "conditions": {
          "item": {
            "nbt": "{tcc:{Potion:\"minecraft:long_poison\"}}"
          }
        }
    },
    "minecraft_long_regeneration": {
      "trigger": "minecraft:consume_item",
        "conditions": {
          "item": {
            "nbt": "{tcc:{Potion:\"minecraft:long_regneration\"}}"
          }
        }
    },
    "minecraft_long_slow_falling": {
      "trigger": "minecraft:consume_item",
        "conditions": {
          "item": {
            "nbt": "{tcc:{Potion:\"minecraft:long_slow_falling\"}}"
          }
        }
    },
    "minecraft_long_slowness": {
      "trigger": "minecraft:consume_item",
        "conditions": {
          "item": {
            "nbt": "{tcc:{Potion:\"minecraft:long_slowness\"}}"
          }
        }
    },
    "minecraft_long_strength": {
      "trigger": "minecraft:consume_item",
        "conditions": {
          "item": {
            "nbt": "{tcc:{Potion:\"minecraft:long_strength\"}}"
          }
        }
    },
    "minecraft_long_swiftness": {
      "trigger": "minecraft:consume_item",
        "conditions": {
          "item": {
            "nbt": "{tcc:{Potion:\"minecraft:long_swiftness\"}}"
          }
        }
    },
    "minecraft_long_turtle_master": {
      "trigger": "minecraft:consume_item",
        "conditions": {
          "item": {
            "nbt": "{tcc:{Potion:\"minecraft:long_turtle_master\"}}"
          }
        }
    },
    "minecraft_long_water_breathing": {
      "trigger": "minecraft:consume_item",
        "conditions": {
          "item": {
            "nbt": "{tcc:{Potion:\"minecraft:long_water_breathing\"}}"
          }
        }
    },
    "minecraft_long_weakness": {
      "trigger": "minecraft:consume_item",
        "conditions": {
          "item": {
            "nbt": "{tcc:{Potion:\"minecraft:long_weakness\"}}"
          }
        }
    },
    "minecraft_luck": {
      "trigger": "minecraft:consume_item",
        "conditions": {
          "item": {
            "nbt": "{tcc:{Potion:\"minecraft:luck\"}}"
          }
        }
    },
    "minecraft_mining_fatigue": {
      "trigger": "minecraft:consume_item",
        "conditions": {
          "item": {
            "nbt": "{tcc:{Potion:\"minecraft:mining_fatigue\"}}"
          }
        }
    },
    "minecraft_nausea": {
      "trigger": "minecraft:consume_item",
        "conditions": {
          "item": {
            "nbt": "{tcc:{Potion:\"minecraft:nausea\"}}"
          }
        }
    },
    "minecraft_night_vision": {
      "trigger": "minecraft:consume_item",
        "conditions": {
          "item": {
            "nbt": "{tcc:{Potion:\"minecraft:night_vision\"}}"
          }
        }
    },
    "minecraft_poison": {
      "trigger": "minecraft:consume_item",
        "conditions": {
          "item": {
            "nbt": "{tcc:{Potion:\"minecraft:poison\"}}"
          }
        }
    },
    "minecraft_regeneration": {
      "trigger": "minecraft:consume_item",
        "conditions": {
          "item": {
            "nbt": "{tcc:{Potion:\"minecraft:regeneration\"}}"
          }
        }
    },
    "minecraft_resistance": {
      "trigger": "minecraft:consume_item",
        "conditions": {
          "item": {
            "nbt": "{tcc:{Potion:\"minecraft:resistance\"}}"
          }
        }
    },
    "minecraft_saturation": {
      "trigger": "minecraft:consume_item",
        "conditions": {
          "item": {
            "nbt": "{tcc:{Potion:\"minecraft:saturation\"}}"
          }
        }
    },
    "minecraft_slow_falling": {
      "trigger": "minecraft:consume_item",
        "conditions": {
          "item": {
            "nbt": "{tcc:{Potion:\"minecraft:slow_falling\"}}"
          }
        }
    },
    "minecraft_slowness": {
      "trigger": "minecraft:consume_item",
        "conditions": {
          "item": {
            "nbt": "{tcc:{Potion:\"minecraft:slowness\"}}"
          }
        }
    },
    "minecraft_strength": {
      "trigger": "minecraft:consume_item",
        "conditions": {
          "item": {
            "nbt": "{tcc:{Potion:\"minecraft:strength\"}}"
          }
        }
    },
    "minecraft_strong_harming": {
      "trigger": "minecraft:consume_item",
        "conditions": {
          "item": {
            "nbt": "{tcc:{Potion:\"minecraft:strong_harming\"}}"
          }
        }
    },
    "minecraft_strong_healing": {
      "trigger": "minecraft:consume_item",
        "conditions": {
          "item": {
            "nbt": "{tcc:{Potion:\"minecraft:strong_healing\"}}"
          }
        }
    },
    "minecraft_strong_leaping": {
      "trigger": "minecraft:consume_item",
        "conditions": {
          "item": {
            "nbt": "{tcc:{Potion:\"minecraft:strong_leaping\"}}"
          }
        }
    },
    "minecraft_strong_poison": {
      "trigger": "minecraft:consume_item",
        "conditions": {
          "item": {
            "nbt": "{tcc:{Potion:\"minecraft:strong_poison\"}}"
          }
        }
    },
    "minecraft_strong_regeneration": {
      "trigger": "minecraft:consume_item",
        "conditions": {
          "item": {
            "nbt": "{tcc:{Potion:\"minecraft:strong_regeneration\"}}"
          }
        }
    },
    "minecraft_strong_slowness": {
      "trigger": "minecraft:consume_item",
        "conditions": {
          "item": {
            "nbt": "{tcc:{Potion:\"minecraft:strong_slowness\"}}"
          }
        }
    },
    "minecraft_strong_strength": {
      "trigger": "minecraft:consume_item",
        "conditions": {
          "item": {
            "nbt": "{tcc:{Potion:\"minecraft:strong_strength\"}}"
          }
        }
    },
    "minecraft_strong_swiftness": {
      "trigger": "minecraft:consume_item",
        "conditions": {
          "item": {
            "nbt": "{tcc:{Potion:\"minecraft:strong_swiftness\"}}"
          }
        }
    },
    "minecraft_strong_turtle_master": {
      "trigger": "minecraft:consume_item",
        "conditions": {
          "item": {
            "nbt": "{tcc:{Potion:\"minecraft:strong_turtle_master\"}}"
          }
        }
    },
    "minecraft_swiftness": {
      "trigger": "minecraft:consume_item",
        "conditions": {
          "item": {
            "nbt": "{tcc:{Potion:\"minecraft:swiftness\"}}"
          }
        }
    },
    "minecraft_turtle_master": {
      "trigger": "minecraft:consume_item",
        "conditions": {
          "item": {
            "nbt": "{tcc:{Potion:\"minecraft:turtle_master\"}}"
          }
        }
    },
    "minecraft_unluck": {
      "trigger": "minecraft:consume_item",
        "conditions": {
          "item": {
            "nbt": "{tcc:{Potion:\"minecraft:unluck\"}}"
          }
        }
    },
    "minecraft_water_breathing": {
      "trigger": "minecraft:consume_item",
        "conditions": {
          "item": {
            "nbt": "{tcc:{Potion:\"minecraft:water_breathing\"}}"
          }
        }
    },
    "minecraft_weakness": {
      "trigger": "minecraft:consume_item",
        "conditions": {
          "item": {
            "nbt": "{tcc:{Potion:\"minecraft:weakness\"}}"
          }
        }
    },
    "minecraft_wither": {
      "trigger": "minecraft:consume_item",
        "conditions": {
          "item": {
            "nbt": "{tcc:{Potion:\"minecraft:wither\"}}"
          }
        }
    },
    "minecraft_conduit_power": {
      "trigger": "minecraft:consume_item",
        "conditions": {
          "item": {
            "nbt": "{tcc:{Potion:\"minecraft:conduit_power\"}}"
          }
        }
    },
    "minecraft_bad_omen": {
      "trigger": "minecraft:consume_item",
        "conditions": {
          "item": {
            "nbt": "{tcc:{Potion:\"minecraft:bad_omen\"}}"
          }
        }
    },
    "minecraft_dolphins_grace": {
      "trigger": "minecraft:consume_item",
        "conditions": {
          "item": {
            "nbt": "{tcc:{Potion:\"minecraft:dolphins_grace\"}}"
          }
        }
    }
  },
  "requirements": [["minecraft_absorption","minecraft_blindness","minecraft_fire_resistance","minecraft_glowing","minecraft_harming","minecraft_haste","minecraft_healing","minecraft_health_boost","minecraft_hunger","minecraft_invisibility","minecraft_leaping","minecraft_levitation","minecraft_long_fire_resistance","minecraft_long_invisibility","minecraft_long_leaping","minecraft_long_night_vision","minecraft_long_poison","minecraft_long_regeneration","minecraft_long_slow_falling","minecraft_long_slowness","minecraft_long_strength","minecraft_long_swiftness","minecraft_long_turtle_master","minecraft_long_water_breathing","minecraft_long_weakness","minecraft_luck","minecraft_mining_fatigue","minecraft_nausea","minecraft_night_vision","minecraft_poison","minecraft_regeneration","minecraft_resistance","minecraft_saturation","minecraft_slow_falling","minecraft_slowness","minecraft_strength","minecraft_strong_harming","minecraft_strong_healing","minecraft_strong_leaping","minecraft_strong_poison","minecraft_strong_regeneration","minecraft_strong_slowness","minecraft_strong_strength","minecraft_strong_swiftness","minecraft_strong_turtle_master","minecraft_swiftness","minecraft_turtle_master","minecraft_unluck","minecraft_water_breathing","minecraft_weakness","minecraft_wither","minecraft_conduit_power","minecraft_bad_omen","minecraft_dolphins_grace"]]
}
