{
    "criteria": {
        "run": {
            "trigger": "minecraft:consume_item",
            "conditions": {
                "item": {
                   "nbt": "{tcc:{Item:\"swordfish\"}}"
                }
            }
        }
    },
    "rewards": {
        "function": "tcc:items/swordfish"
    },
    "parent": "tcc:technical/root"
}