{
    "display": {
        "icon": {
            "item": "minecraft:golden_sword",
            "nbt": "{CustomModelData:4}"
        },
        "title": {
            "translate": "advancements.tcc.minecraft.nether.tip_sword.title"
        },
        "description": {
            "translate": "advancements.tcc.minecraft.nether.tip_sword.description"
        },
        "frame": "task"
    },
    "parent": "minecraft:nether/brew_potion",
    "criteria": {
        "sword": {
            "trigger": "minecraft:inventory_changed",
            "conditions": {
                "items": [
                    {
                        "nbt": "{tcc:{Item:\"tipped_sword\"}}"
                    }
                ]
            }
        }
    }
}
