{
  "values":
  [
    "minecraft:red_concrete",
    "minecraft:orange_concrete",
    "minecraft:yellow_concrete",
    "minecraft:lime_concrete",
    "minecraft:green_concrete",
    "minecraft:cyan_concrete",

    "minecraft:blue_concrete",
    "minecraft:purple_concrete",
    "minecraft:magenta_concrete",
    "minecraft:pink_concrete",
    "minecraft:white_concrete",
    "minecraft:light_gray_concrete",
    "minecraft:gray_concrete",
    "minecraft:black_concrete",
    "minecraft:brown_concrete"
  ]
}
