{
  "rewards": {
      "function": "killfeed:shot/stray"
  },
  "criteria": {
    "kill": {
      "trigger": "minecraft:player_killed_entity",
      "conditions": {
        "entity": {
          "type": "stray"
        },
        "killing_blow": {
          "is_projectile": "true"
        }
      }
    }
  }
}