############################################################
# Description: Makes the veining enchantment function
# Creator: CreeperMagnet_
############################################################
playsound minecraft:block.stone.break block @a[distance=..16]
playsound minecraft:block.stone.break block @a[distance=..16]
playsound minecraft:block.stone.break block @a[distance=..16]
playsound minecraft:block.stone.break block @a[distance=..16]
playsound minecraft:block.stone.break block @a[distance=..16]
playsound minecraft:block.stone.break block @a[distance=..16]
playsound minecraft:block.stone.break block @a[distance=..16]
data merge entity @s {Motion:[0.0,0.0,0.0]}
function tcc:charms/veining/coal_ore/loop
scoreboard players reset @a tcc.minecoalore