{
  "type": "minecraft:crafting_shaped",
  "pattern": [
    "#  ",
    "## "

  ],
  "key": {
    "#": {
      "item": "minecraft:stone"
    }
  },
  "result": {
    "item": "minecraft:stone_stairs",
    "count": 4
  }
}