{
  "type": "minecraft:entity",
  "pools": [
    {
      "rolls": 1,
      "entries": [
        {
          "type": "minecraft:item",
          "weight": 1,
          "functions": [
            {
              "function": "minecraft:set_nbt",
              "tag": "{tcc:{Item:\"blaze_head\"},display:{Lore:[\"{\\\"translate\\\":\\\"tcc.lore.tooltip\\\"}\"],Name:\"{\\\"translate\\\":\\\"block.tcc.blaze_head\\\",\\\"color\\\":\\\"yellow\\\"}\"},SkullOwner:{Name:\"Blaze\",Id:\"dda13e94-afca-43eb-8786-8fa19f13ed02\",Properties:{textures:[{Value:\"eyJ0ZXh0dXJlcyI6eyJTS0lOIjp7InVybCI6Imh0dHA6Ly90ZXh0dXJlcy5taW5lY3JhZnQubmV0L3RleHR1cmUvYzRmYWY2NTgzZDUwMmFmOWFjNWJmYmY3MTVhODcxYzViNGRiNDVlY2QyYmRkYzJhMmNjMGIzNWQyZGNlNmEzZiJ9fX0=\"}]}}}"
            }
          ],
          "name": "minecraft:player_head"
        }
      ]
    }
  ]
}
