{
  "type": "minecraft:entity",
  "pools": [
    {
      "rolls": 1,
      "entries": [
        {
          "type": "minecraft:item",
          "weight": 1,
          "functions": [
            {
              "function": "minecraft:set_nbt",
              "tag": "{tcc:{Item:\"enderman_head\"},display:{Lore:[\"{\\\"translate\\\":\\\"tcc.lore.tooltip\\\"}\"],Name:\"{\\\"translate\\\":\\\"block.tcc.enderman_head\\\",\\\"color\\\":\\\"yellow\\\"}\"},SkullOwner:{Name:\"Enderman\",Id:\"9c7cad91-f0f1-4af7-82f6-9ce827deece8\",Properties:{textures:[{Value:\"eyJ0ZXh0dXJlcyI6eyJTS0lOIjp7InVybCI6Imh0dHA6Ly90ZXh0dXJlcy5taW5lY3JhZnQubmV0L3RleHR1cmUvOGQ2ZjU1NmE2N2Q0NzViOGE4YjUwODJlZDFlMTIzMmZkYTQxOGE5M2NjMTVkYTJhYmZkMmEyYTQ1NTRmYzQ0NCJ9fX0=\"}]}}}"
            }
          ],
          "name": "minecraft:player_head"
        }
      ]
    }
  ]
}
