{
  "type": "minecraft:entity",
  "pools": [
    {
      "rolls": 1,
      "entries": [
        {
          "type": "minecraft:item",
          "weight": 1,
          "functions": [
            {
              "function": "minecraft:set_nbt",
              "tag": "{tcc:{Item:\"husk_head\"},display:{Lore:[\"{\\\"translate\\\":\\\"tcc.lore.tooltip\\\"}\"],Name:\"{\\\"translate\\\":\\\"block.tcc.husk_head\\\",\\\"color\\\":\\\"yellow\\\"}\"},SkullOwner:{Name:\"Husk\",Id:\"df99624c-57ef-44e8-a32c-ab78197423f6\",Properties:{textures:[{Value:\"eyJ0ZXh0dXJlcyI6eyJTS0lOIjp7InVybCI6Imh0dHA6Ly90ZXh0dXJlcy5taW5lY3JhZnQubmV0L3RleHR1cmUvMWQ2ZDllZjVkMjljYzFmNjhjYmU4NTZjMWQ0M2JjZGUzOWM4MWU1MzM0ZDJjYTM5NTg5NDFmMTRlNTNkZTlmMCJ9fX0=\"}]}}}"
            }
          ],
          "name": "minecraft:player_head"
        }
      ]
    }
  ]
}
